To, Location
v0, PIN_N25
v1, PIN_N26
v2, PIN_P25
v3, PIN_AE14
AA, PIN_AF10
AB, PIN_AB12
AC, PIN_AC12
AD, PIN_AD11
AE, PIN_AE11
AF, PIN_V14
AG, PIN_V13
BA, PIN_V20
BB, PIN_V21
BC, PIN_W21
BD, PIN_Y22
BE, PIN_AA24
BF, PIN_AA23
BG, PIN_AB24