/*
WARNING: Do NOT edit the input and output ports in this file in a text
editor if you plan to continue editing the block that represents it in
the Block Editor! File corruption is VERY likely to occur.
*/
/*
Copyright (C) 1991-2013 Altera Corporation
Your use of Altera Corporation's design tools, logic functions 
and other software and tools, and its AMPP partner logic 
functions, and any output files from any of the foregoing 
(including device programming or simulation files), and any 
associated documentation or information are expressly subject 
to the terms and conditions of the Altera Program License 
Subscription Agreement, Altera MegaCore Function License 
Agreement, or other applicable license agreement, including, 
without limitation, that your use is for the sole purpose of 
programming logic devices manufactured by Altera and sold by 
Altera or its authorized distributors.  Please refer to the 
applicable agreement for further details.
*/
(header "graphic" (version "1.4"))
(pin
	(input)
	(rect -96 56 72 72)
	(text "INPUT" (rect 125 0 153 10)(font "Arial" (font_size 6)))
	(text "x3" (rect 5 0 16 12)(font "Arial" ))
	(pt 168 8)
	(drawing
		(line (pt 84 12)(pt 109 12))
		(line (pt 84 4)(pt 109 4))
		(line (pt 113 8)(pt 168 8))
		(line (pt 84 12)(pt 84 4))
		(line (pt 109 4)(pt 113 8))
		(line (pt 109 12)(pt 113 8))
	)
	(text "VCC" (rect 128 7 148 17)(font "Arial" (font_size 6)))
	(annotation_block (location)(rect -112 80 -48 96))
)
(pin
	(input)
	(rect -96 120 72 136)
	(text "INPUT" (rect 125 0 153 10)(font "Arial" (font_size 6)))
	(text "x2" (rect 5 0 16 12)(font "Arial" ))
	(pt 168 8)
	(drawing
		(line (pt 84 12)(pt 109 12))
		(line (pt 84 4)(pt 109 4))
		(line (pt 113 8)(pt 168 8))
		(line (pt 84 12)(pt 84 4))
		(line (pt 109 4)(pt 113 8))
		(line (pt 109 12)(pt 113 8))
	)
	(text "VCC" (rect 128 7 148 17)(font "Arial" (font_size 6)))
	(annotation_block (location)(rect -112 144 -56 160))
)
(pin
	(input)
	(rect -96 184 72 200)
	(text "INPUT" (rect 125 0 153 10)(font "Arial" (font_size 6)))
	(text "x1" (rect 5 0 16 12)(font "Arial" ))
	(pt 168 8)
	(drawing
		(line (pt 84 12)(pt 109 12))
		(line (pt 84 4)(pt 109 4))
		(line (pt 113 8)(pt 168 8))
		(line (pt 84 12)(pt 84 4))
		(line (pt 109 4)(pt 113 8))
		(line (pt 109 12)(pt 113 8))
	)
	(text "VCC" (rect 128 7 148 17)(font "Arial" (font_size 6)))
	(annotation_block (location)(rect -112 208 -56 224))
)
(pin
	(input)
	(rect -96 248 72 264)
	(text "INPUT" (rect 125 0 153 10)(font "Arial" (font_size 6)))
	(text "x0" (rect 5 0 16 12)(font "Arial" ))
	(pt 168 8)
	(drawing
		(line (pt 84 12)(pt 109 12))
		(line (pt 84 4)(pt 109 4))
		(line (pt 113 8)(pt 168 8))
		(line (pt 84 12)(pt 84 4))
		(line (pt 109 4)(pt 113 8))
		(line (pt 109 12)(pt 113 8))
	)
	(text "VCC" (rect 128 7 148 17)(font "Arial" (font_size 6)))
	(annotation_block (location)(rect -112 272 -56 288))
)
(pin
	(output)
	(rect 400 136 576 152)
	(text "OUTPUT" (rect 1 0 39 10)(font "Arial" (font_size 6)))
	(text "o" (rect 90 0 95 12)(font "Arial" ))
	(pt 0 8)
	(drawing
		(line (pt 0 8)(pt 52 8))
		(line (pt 52 4)(pt 78 4))
		(line (pt 52 12)(pt 78 12))
		(line (pt 52 12)(pt 52 4))
		(line (pt 78 4)(pt 82 8))
		(line (pt 82 8)(pt 78 12))
		(line (pt 78 12)(pt 82 8))
	)
	(annotation_block (location)(rect 600 128 664 144))
)
(symbol
	(rect 88 40 152 88)
	(text "NAND2" (rect 1 0 32 10)(font "Arial" (font_size 6)))
	(text "n3" (rect 3 37 14 49)(font "Arial" ))
	(port
		(pt 0 32)
		(input)
		(text "IN2" (rect 2 23 19 35)(font "Courier New" (bold))(invisible))
		(text "IN2" (rect 2 23 19 35)(font "Courier New" (bold))(invisible))
		(line (pt 0 32)(pt 15 32))
	)
	(port
		(pt 0 16)
		(input)
		(text "IN1" (rect 2 7 19 19)(font "Courier New" (bold))(invisible))
		(text "IN1" (rect 2 7 19 19)(font "Courier New" (bold))(invisible))
		(line (pt 0 16)(pt 15 16))
	)
	(port
		(pt 64 24)
		(output)
		(text "OUT" (rect 48 15 65 27)(font "Courier New" (bold))(invisible))
		(text "OUT" (rect 48 15 65 27)(font "Courier New" (bold))(invisible))
		(line (pt 52 24)(pt 64 24))
	)
	(drawing
		(line (pt 15 37)(pt 32 37))
		(line (pt 15 12)(pt 32 12))
		(line (pt 15 36)(pt 15 12))
		(arc (pt 32 36)(pt 32 12)(rect 20 12 45 37))
		(circle (rect 44 20 52 28))
	)
)
(symbol
	(rect 88 168 152 216)
	(text "NAND2" (rect 1 0 32 10)(font "Arial" (font_size 6)))
	(text "n1" (rect 3 37 14 49)(font "Arial" ))
	(port
		(pt 0 32)
		(input)
		(text "IN2" (rect 2 23 19 35)(font "Courier New" (bold))(invisible))
		(text "IN2" (rect 2 23 19 35)(font "Courier New" (bold))(invisible))
		(line (pt 0 32)(pt 15 32))
	)
	(port
		(pt 0 16)
		(input)
		(text "IN1" (rect 2 7 19 19)(font "Courier New" (bold))(invisible))
		(text "IN1" (rect 2 7 19 19)(font "Courier New" (bold))(invisible))
		(line (pt 0 16)(pt 15 16))
	)
	(port
		(pt 64 24)
		(output)
		(text "OUT" (rect 48 15 65 27)(font "Courier New" (bold))(invisible))
		(text "OUT" (rect 48 15 65 27)(font "Courier New" (bold))(invisible))
		(line (pt 52 24)(pt 64 24))
	)
	(drawing
		(line (pt 15 37)(pt 32 37))
		(line (pt 15 12)(pt 32 12))
		(line (pt 15 36)(pt 15 12))
		(arc (pt 32 36)(pt 32 12)(rect 20 12 45 37))
		(circle (rect 44 20 52 28))
	)
)
(symbol
	(rect 88 232 152 280)
	(text "NAND2" (rect 1 0 32 10)(font "Arial" (font_size 6)))
	(text "n0" (rect 3 37 14 49)(font "Arial" ))
	(port
		(pt 0 32)
		(input)
		(text "IN2" (rect 2 23 19 35)(font "Courier New" (bold))(invisible))
		(text "IN2" (rect 2 23 19 35)(font "Courier New" (bold))(invisible))
		(line (pt 0 32)(pt 15 32))
	)
	(port
		(pt 0 16)
		(input)
		(text "IN1" (rect 2 7 19 19)(font "Courier New" (bold))(invisible))
		(text "IN1" (rect 2 7 19 19)(font "Courier New" (bold))(invisible))
		(line (pt 0 16)(pt 15 16))
	)
	(port
		(pt 64 24)
		(output)
		(text "OUT" (rect 48 15 65 27)(font "Courier New" (bold))(invisible))
		(text "OUT" (rect 48 15 65 27)(font "Courier New" (bold))(invisible))
		(line (pt 52 24)(pt 64 24))
	)
	(drawing
		(line (pt 15 37)(pt 32 37))
		(line (pt 15 12)(pt 32 12))
		(line (pt 15 36)(pt 15 12))
		(arc (pt 32 36)(pt 32 12)(rect 20 12 45 37))
		(circle (rect 44 20 52 28))
	)
)
(symbol
	(rect 328 120 392 168)
	(text "NAND2" (rect 1 0 32 10)(font "Arial" (font_size 6)))
	(text "inst" (rect 3 37 20 49)(font "Arial" ))
	(port
		(pt 0 32)
		(input)
		(text "IN2" (rect 2 23 19 35)(font "Courier New" (bold))(invisible))
		(text "IN2" (rect 2 23 19 35)(font "Courier New" (bold))(invisible))
		(line (pt 0 32)(pt 15 32))
	)
	(port
		(pt 0 16)
		(input)
		(text "IN1" (rect 2 7 19 19)(font "Courier New" (bold))(invisible))
		(text "IN1" (rect 2 7 19 19)(font "Courier New" (bold))(invisible))
		(line (pt 0 16)(pt 15 16))
	)
	(port
		(pt 64 24)
		(output)
		(text "OUT" (rect 48 15 65 27)(font "Courier New" (bold))(invisible))
		(text "OUT" (rect 48 15 65 27)(font "Courier New" (bold))(invisible))
		(line (pt 52 24)(pt 64 24))
	)
	(drawing
		(line (pt 15 37)(pt 32 37))
		(line (pt 15 12)(pt 32 12))
		(line (pt 15 36)(pt 15 12))
		(arc (pt 32 36)(pt 32 12)(rect 20 12 45 37))
		(circle (rect 44 20 52 28))
	)
)
(symbol
	(rect 216 24 312 152)
	(text "myNAND4" (rect 5 0 62 14)(font "Arial" (font_size 8)))
	(text "n3x2x1n0" (rect 8 112 55 124)(font "Arial" ))
	(port
		(pt 0 32)
		(input)
		(text "i0" (rect 0 0 9 14)(font "Arial" (font_size 8)))
		(text "i0" (rect 21 27 30 41)(font "Arial" (font_size 8)))
		(line (pt 0 32)(pt 16 32))
	)
	(port
		(pt 0 48)
		(input)
		(text "i1" (rect 0 0 9 14)(font "Arial" (font_size 8)))
		(text "i1" (rect 21 43 30 57)(font "Arial" (font_size 8)))
		(line (pt 0 48)(pt 16 48))
	)
	(port
		(pt 0 64)
		(input)
		(text "i2" (rect 0 0 9 14)(font "Arial" (font_size 8)))
		(text "i2" (rect 21 59 30 73)(font "Arial" (font_size 8)))
		(line (pt 0 64)(pt 16 64))
	)
	(port
		(pt 0 80)
		(input)
		(text "i3" (rect 0 0 9 14)(font "Arial" (font_size 8)))
		(text "i3" (rect 21 75 30 89)(font "Arial" (font_size 8)))
		(line (pt 0 80)(pt 16 80))
	)
	(port
		(pt 96 32)
		(output)
		(text "o" (rect 0 0 7 14)(font "Arial" (font_size 8)))
		(text "o" (rect 68 27 75 41)(font "Arial" (font_size 8)))
		(line (pt 96 32)(pt 80 32))
	)
	(drawing
		(rectangle (rect 16 16 80 112))
	)
)
(symbol
	(rect 216 152 312 280)
	(text "myNAND4" (rect 5 0 62 14)(font "Arial" (font_size 8)))
	(text "n3x2n1x0" (rect 8 112 55 124)(font "Arial" ))
	(port
		(pt 0 32)
		(input)
		(text "i0" (rect 0 0 9 14)(font "Arial" (font_size 8)))
		(text "i0" (rect 21 27 30 41)(font "Arial" (font_size 8)))
		(line (pt 0 32)(pt 16 32))
	)
	(port
		(pt 0 48)
		(input)
		(text "i1" (rect 0 0 9 14)(font "Arial" (font_size 8)))
		(text "i1" (rect 21 43 30 57)(font "Arial" (font_size 8)))
		(line (pt 0 48)(pt 16 48))
	)
	(port
		(pt 0 64)
		(input)
		(text "i2" (rect 0 0 9 14)(font "Arial" (font_size 8)))
		(text "i2" (rect 21 59 30 73)(font "Arial" (font_size 8)))
		(line (pt 0 64)(pt 16 64))
	)
	(port
		(pt 0 80)
		(input)
		(text "i3" (rect 0 0 9 14)(font "Arial" (font_size 8)))
		(text "i3" (rect 21 75 30 89)(font "Arial" (font_size 8)))
		(line (pt 0 80)(pt 16 80))
	)
	(port
		(pt 96 32)
		(output)
		(text "o" (rect 0 0 7 14)(font "Arial" (font_size 8)))
		(text "o" (rect 68 27 75 41)(font "Arial" (font_size 8)))
		(line (pt 96 32)(pt 80 32))
	)
	(drawing
		(rectangle (rect 16 16 80 112))
	)
)
(connector
	(pt 88 72)
	(pt 80 72)
)
(connector
	(pt 80 56)
	(pt 88 56)
)
(connector
	(pt 72 64)
	(pt 80 64)
)
(connector
	(pt 80 56)
	(pt 80 64)
)
(connector
	(pt 80 64)
	(pt 80 72)
)
(connector
	(pt 88 200)
	(pt 80 200)
)
(connector
	(pt 80 184)
	(pt 88 184)
)
(connector
	(pt 72 192)
	(pt 80 192)
)
(connector
	(pt 80 160)
	(pt 80 184)
)
(connector
	(pt 80 184)
	(pt 80 192)
)
(connector
	(pt 80 192)
	(pt 80 200)
)
(connector
	(pt 88 264)
	(pt 80 264)
)
(connector
	(pt 80 248)
	(pt 88 248)
)
(connector
	(pt 72 256)
	(pt 80 256)
)
(connector
	(pt 80 224)
	(pt 80 248)
)
(connector
	(pt 80 248)
	(pt 80 256)
)
(connector
	(pt 80 256)
	(pt 80 264)
)
(connector
	(pt 320 136)
	(pt 328 136)
)
(connector
	(pt 328 152)
	(pt 320 152)
)
(connector
	(pt 320 152)
	(pt 320 184)
)
(connector
	(pt 320 184)
	(pt 312 184)
)
(connector
	(pt 392 144)
	(pt 400 144)
)
(connector
	(pt 320 56)
	(pt 320 136)
)
(connector
	(pt 320 56)
	(pt 312 56)
)
(connector
	(pt 152 64)
	(pt 160 64)
)
(connector
	(pt 160 56)
	(pt 216 56)
)
(connector
	(pt 72 128)
	(pt 168 128)
)
(connector
	(pt 168 72)
	(pt 216 72)
)
(connector
	(pt 216 184)
	(pt 160 184)
)
(connector
	(pt 160 56)
	(pt 160 64)
)
(connector
	(pt 160 64)
	(pt 160 184)
)
(connector
	(pt 216 200)
	(pt 168 200)
)
(connector
	(pt 168 72)
	(pt 168 128)
)
(connector
	(pt 168 128)
	(pt 168 200)
)
(connector
	(pt 176 160)
	(pt 80 160)
)
(connector
	(pt 176 160)
	(pt 176 88)
)
(connector
	(pt 176 88)
	(pt 216 88)
)
(connector
	(pt 216 104)
	(pt 184 104)
)
(connector
	(pt 184 104)
	(pt 184 256)
)
(connector
	(pt 184 256)
	(pt 152 256)
)
(connector
	(pt 208 224)
	(pt 80 224)
)
(connector
	(pt 208 224)
	(pt 208 232)
)
(connector
	(pt 208 232)
	(pt 216 232)
)
(connector
	(pt 152 192)
	(pt 208 192)
)
(connector
	(pt 208 192)
	(pt 208 216)
)
(connector
	(pt 208 216)
	(pt 216 216)
)
(junction (pt 80 64))
(junction (pt 80 184))
(junction (pt 80 192))
(junction (pt 80 248))
(junction (pt 80 256))
(junction (pt 160 64))
(junction (pt 168 128))
