/*
WARNING: Do NOT edit the input and output ports in this file in a text
editor if you plan to continue editing the block that represents it in
the Block Editor! File corruption is VERY likely to occur.
*/
/*
Copyright (C) 1991-2013 Altera Corporation
Your use of Altera Corporation's design tools, logic functions 
and other software and tools, and its AMPP partner logic 
functions, and any output files from any of the foregoing 
(including device programming or simulation files), and any 
associated documentation or information are expressly subject 
to the terms and conditions of the Altera Program License 
Subscription Agreement, Altera MegaCore Function License 
Agreement, or other applicable license agreement, including, 
without limitation, that your use is for the sole purpose of 
programming logic devices manufactured by Altera and sold by 
Altera or its authorized distributors.  Please refer to the 
applicable agreement for further details.
*/
(header "graphic" (version "1.4"))
(pin
	(input)
	(rect 40 88 208 104)
	(text "INPUT" (rect 125 0 153 10)(font "Arial" (font_size 6)))
	(text "v4" (rect 5 0 17 12)(font "Arial" ))
	(pt 168 8)
	(drawing
		(line (pt 84 12)(pt 109 12))
		(line (pt 84 4)(pt 109 4))
		(line (pt 113 8)(pt 168 8))
		(line (pt 84 12)(pt 84 4))
		(line (pt 109 4)(pt 113 8))
		(line (pt 109 12)(pt 113 8))
	)
	(text "VCC" (rect 128 7 148 17)(font "Arial" (font_size 6)))
)
(pin
	(input)
	(rect 40 136 208 152)
	(text "INPUT" (rect 125 0 153 10)(font "Arial" (font_size 6)))
	(text "v3" (rect 5 0 17 12)(font "Arial" ))
	(pt 168 8)
	(drawing
		(line (pt 84 12)(pt 109 12))
		(line (pt 84 4)(pt 109 4))
		(line (pt 113 8)(pt 168 8))
		(line (pt 84 12)(pt 84 4))
		(line (pt 109 4)(pt 113 8))
		(line (pt 109 12)(pt 113 8))
	)
	(text "VCC" (rect 128 7 148 17)(font "Arial" (font_size 6)))
	(annotation_block (location)(rect -24 152 40 168))
)
(pin
	(input)
	(rect 40 184 208 200)
	(text "INPUT" (rect 125 0 153 10)(font "Arial" (font_size 6)))
	(text "v2" (rect 5 0 17 12)(font "Arial" ))
	(pt 168 8)
	(drawing
		(line (pt 84 12)(pt 109 12))
		(line (pt 84 4)(pt 109 4))
		(line (pt 113 8)(pt 168 8))
		(line (pt 84 12)(pt 84 4))
		(line (pt 109 4)(pt 113 8))
		(line (pt 109 12)(pt 113 8))
	)
	(text "VCC" (rect 128 7 148 17)(font "Arial" (font_size 6)))
	(annotation_block (location)(rect -16 200 40 216))
)
(pin
	(input)
	(rect 40 248 208 264)
	(text "INPUT" (rect 125 0 153 10)(font "Arial" (font_size 6)))
	(text "v1" (rect 5 0 17 12)(font "Arial" ))
	(pt 168 8)
	(drawing
		(line (pt 84 12)(pt 109 12))
		(line (pt 84 4)(pt 109 4))
		(line (pt 113 8)(pt 168 8))
		(line (pt 84 12)(pt 84 4))
		(line (pt 109 4)(pt 113 8))
		(line (pt 109 12)(pt 113 8))
	)
	(text "VCC" (rect 128 7 148 17)(font "Arial" (font_size 6)))
	(annotation_block (location)(rect -16 264 40 280))
)
(pin
	(input)
	(rect 40 272 208 288)
	(text "INPUT" (rect 125 0 153 10)(font "Arial" (font_size 6)))
	(text "v0" (rect 5 0 17 12)(font "Arial" ))
	(pt 168 8)
	(drawing
		(line (pt 84 12)(pt 109 12))
		(line (pt 84 4)(pt 109 4))
		(line (pt 113 8)(pt 168 8))
		(line (pt 84 12)(pt 84 4))
		(line (pt 109 4)(pt 113 8))
		(line (pt 109 12)(pt 113 8))
	)
	(text "VCC" (rect 128 7 148 17)(font "Arial" (font_size 6)))
	(annotation_block (location)(rect -16 288 40 304))
)
(pin
	(output)
	(rect 536 144 712 160)
	(text "OUTPUT" (rect 1 0 39 10)(font "Arial" (font_size 6)))
	(text "z" (rect 90 0 94 12)(font "Arial" ))
	(pt 0 8)
	(drawing
		(line (pt 0 8)(pt 52 8))
		(line (pt 52 4)(pt 78 4))
		(line (pt 52 12)(pt 78 12))
		(line (pt 52 12)(pt 52 4))
		(line (pt 78 4)(pt 82 8))
		(line (pt 82 8)(pt 78 12))
		(line (pt 78 12)(pt 82 8))
	)
)
(symbol
	(rect 464 128 528 176)
	(text "OR3" (rect 1 0 19 10)(font "Arial" (font_size 6)))
	(text "or" (rect 3 37 14 51)(font "Arial" (font_size 8)))
	(port
		(pt 0 24)
		(input)
		(text "IN2" (rect 2 15 19 27)(font "Courier New" (bold))(invisible))
		(text "IN2" (rect 2 15 19 27)(font "Courier New" (bold))(invisible))
		(line (pt 0 24)(pt 18 24))
	)
	(port
		(pt 0 32)
		(input)
		(text "IN3" (rect 2 24 19 36)(font "Courier New" (bold))(invisible))
		(text "IN3" (rect 2 24 19 36)(font "Courier New" (bold))(invisible))
		(line (pt 0 32)(pt 16 32))
	)
	(port
		(pt 0 16)
		(input)
		(text "IN1" (rect 2 7 19 19)(font "Courier New" (bold))(invisible))
		(text "IN1" (rect 2 7 19 19)(font "Courier New" (bold))(invisible))
		(line (pt 0 16)(pt 16 16))
	)
	(port
		(pt 64 24)
		(output)
		(text "OUT" (rect 47 15 64 27)(font "Courier New" (bold))(invisible))
		(text "OUT" (rect 47 15 64 27)(font "Courier New" (bold))(invisible))
		(line (pt 49 24)(pt 64 24))
	)
	(drawing
		(line (pt 14 13)(pt 25 13))
		(line (pt 14 36)(pt 25 36))
		(arc (pt 7 29)(pt 7 19)(rect -14 8 19 41))
		(arc (pt 49 24)(pt 25 13)(rect -6 13 57 76))
		(arc (pt 25 35)(pt 49 24)(rect -6 -27 57 36))
	)
)
(symbol
	(rect 384 80 448 128)
	(text "AND3" (rect 1 0 25 10)(font "Arial" (font_size 6)))
	(text "v4n3n2" (rect 3 37 39 49)(font "Arial" ))
	(port
		(pt 0 16)
		(input)
		(text "IN1" (rect 2 7 19 19)(font "Courier New" (bold))(invisible))
		(text "IN1" (rect 2 7 19 19)(font "Courier New" (bold))(invisible))
		(line (pt 0 16)(pt 16 16))
	)
	(port
		(pt 0 24)
		(input)
		(text "IN2" (rect 2 15 19 27)(font "Courier New" (bold))(invisible))
		(text "IN2" (rect 2 15 19 27)(font "Courier New" (bold))(invisible))
		(line (pt 0 24)(pt 16 24))
	)
	(port
		(pt 0 32)
		(input)
		(text "IN3" (rect 2 23 19 35)(font "Courier New" (bold))(invisible))
		(text "IN3" (rect 2 23 19 35)(font "Courier New" (bold))(invisible))
		(line (pt 0 32)(pt 16 32))
	)
	(port
		(pt 64 24)
		(output)
		(text "OUT" (rect 48 15 65 27)(font "Courier New" (bold))(invisible))
		(text "OUT" (rect 48 15 65 27)(font "Courier New" (bold))(invisible))
		(line (pt 43 24)(pt 64 24))
	)
	(drawing
		(line (pt 16 12)(pt 31 12))
		(line (pt 16 37)(pt 31 37))
		(line (pt 16 12)(pt 16 37))
		(arc (pt 31 36)(pt 31 12)(rect 19 12 44 37))
	)
)
(symbol
	(rect 384 128 448 176)
	(text "AND3" (rect 1 0 25 10)(font "Arial" (font_size 6)))
	(text "n4v3v2" (rect 3 37 40 49)(font "Arial" ))
	(port
		(pt 0 16)
		(input)
		(text "IN1" (rect 2 7 19 19)(font "Courier New" (bold))(invisible))
		(text "IN1" (rect 2 7 19 19)(font "Courier New" (bold))(invisible))
		(line (pt 0 16)(pt 16 16))
	)
	(port
		(pt 0 24)
		(input)
		(text "IN2" (rect 2 15 19 27)(font "Courier New" (bold))(invisible))
		(text "IN2" (rect 2 15 19 27)(font "Courier New" (bold))(invisible))
		(line (pt 0 24)(pt 16 24))
	)
	(port
		(pt 0 32)
		(input)
		(text "IN3" (rect 2 23 19 35)(font "Courier New" (bold))(invisible))
		(text "IN3" (rect 2 23 19 35)(font "Courier New" (bold))(invisible))
		(line (pt 0 32)(pt 16 32))
	)
	(port
		(pt 64 24)
		(output)
		(text "OUT" (rect 48 15 65 27)(font "Courier New" (bold))(invisible))
		(text "OUT" (rect 48 15 65 27)(font "Courier New" (bold))(invisible))
		(line (pt 43 24)(pt 64 24))
	)
	(drawing
		(line (pt 16 12)(pt 31 12))
		(line (pt 16 37)(pt 31 37))
		(line (pt 16 12)(pt 16 37))
		(arc (pt 31 36)(pt 31 12)(rect 19 12 44 37))
	)
)
(symbol
	(rect 384 176 448 224)
	(text "AND3" (rect 1 0 25 10)(font "Arial" (font_size 6)))
	(text "n4v3v1" (rect 3 37 40 49)(font "Arial" ))
	(port
		(pt 0 16)
		(input)
		(text "IN1" (rect 2 7 19 19)(font "Courier New" (bold))(invisible))
		(text "IN1" (rect 2 7 19 19)(font "Courier New" (bold))(invisible))
		(line (pt 0 16)(pt 16 16))
	)
	(port
		(pt 0 24)
		(input)
		(text "IN2" (rect 2 15 19 27)(font "Courier New" (bold))(invisible))
		(text "IN2" (rect 2 15 19 27)(font "Courier New" (bold))(invisible))
		(line (pt 0 24)(pt 16 24))
	)
	(port
		(pt 0 32)
		(input)
		(text "IN3" (rect 2 23 19 35)(font "Courier New" (bold))(invisible))
		(text "IN3" (rect 2 23 19 35)(font "Courier New" (bold))(invisible))
		(line (pt 0 32)(pt 16 32))
	)
	(port
		(pt 64 24)
		(output)
		(text "OUT" (rect 48 15 65 27)(font "Courier New" (bold))(invisible))
		(text "OUT" (rect 48 15 65 27)(font "Courier New" (bold))(invisible))
		(line (pt 43 24)(pt 64 24))
	)
	(drawing
		(line (pt 16 12)(pt 31 12))
		(line (pt 16 37)(pt 31 37))
		(line (pt 16 12)(pt 16 37))
		(arc (pt 31 36)(pt 31 12)(rect 19 12 44 37))
	)
)
(symbol
	(rect 224 104 272 136)
	(text "NOT" (rect 1 0 21 10)(font "Arial" (font_size 6)))
	(text "n4" (rect 3 21 14 33)(font "Arial" ))
	(port
		(pt 0 16)
		(input)
		(text "IN" (rect 2 7 13 19)(font "Courier New" (bold))(invisible))
		(text "IN" (rect 2 7 13 19)(font "Courier New" (bold))(invisible))
		(line (pt 0 16)(pt 13 16))
	)
	(port
		(pt 48 16)
		(output)
		(text "OUT" (rect 32 7 49 19)(font "Courier New" (bold))(invisible))
		(text "OUT" (rect 32 7 49 19)(font "Courier New" (bold))(invisible))
		(line (pt 39 16)(pt 48 16))
	)
	(drawing
		(line (pt 13 25)(pt 13 7))
		(line (pt 13 7)(pt 31 16))
		(line (pt 13 25)(pt 31 16))
		(circle (rect 31 12 39 20))
	)
)
(symbol
	(rect 224 152 272 184)
	(text "NOT" (rect 1 0 21 10)(font "Arial" (font_size 6)))
	(text "n3" (rect 3 21 14 33)(font "Arial" ))
	(port
		(pt 0 16)
		(input)
		(text "IN" (rect 2 7 13 19)(font "Courier New" (bold))(invisible))
		(text "IN" (rect 2 7 13 19)(font "Courier New" (bold))(invisible))
		(line (pt 0 16)(pt 13 16))
	)
	(port
		(pt 48 16)
		(output)
		(text "OUT" (rect 32 7 49 19)(font "Courier New" (bold))(invisible))
		(text "OUT" (rect 32 7 49 19)(font "Courier New" (bold))(invisible))
		(line (pt 39 16)(pt 48 16))
	)
	(drawing
		(line (pt 13 25)(pt 13 7))
		(line (pt 13 7)(pt 31 16))
		(line (pt 13 25)(pt 31 16))
		(circle (rect 31 12 39 20))
	)
)
(symbol
	(rect 224 200 272 232)
	(text "NOT" (rect 1 0 21 10)(font "Arial" (font_size 6)))
	(text "n2" (rect 3 21 14 33)(font "Arial" ))
	(port
		(pt 0 16)
		(input)
		(text "IN" (rect 2 7 13 19)(font "Courier New" (bold))(invisible))
		(text "IN" (rect 2 7 13 19)(font "Courier New" (bold))(invisible))
		(line (pt 0 16)(pt 13 16))
	)
	(port
		(pt 48 16)
		(output)
		(text "OUT" (rect 32 7 49 19)(font "Courier New" (bold))(invisible))
		(text "OUT" (rect 32 7 49 19)(font "Courier New" (bold))(invisible))
		(line (pt 39 16)(pt 48 16))
	)
	(drawing
		(line (pt 13 25)(pt 13 7))
		(line (pt 13 7)(pt 31 16))
		(line (pt 13 25)(pt 31 16))
		(circle (rect 31 12 39 20))
	)
)
(connector
	(pt 224 120)
	(pt 216 120)
)
(connector
	(pt 216 120)
	(pt 216 96)
)
(connector
	(pt 224 168)
	(pt 216 168)
)
(connector
	(pt 216 168)
	(pt 216 144)
)
(connector
	(pt 224 216)
	(pt 216 216)
)
(connector
	(pt 216 216)
	(pt 216 192)
)
(connector
	(pt 464 152)
	(pt 448 152)
)
(connector
	(pt 464 144)
	(pt 456 144)
)
(connector
	(pt 456 144)
	(pt 456 104)
)
(connector
	(pt 456 104)
	(pt 448 104)
)
(connector
	(pt 464 160)
	(pt 456 160)
)
(connector
	(pt 456 160)
	(pt 456 200)
)
(connector
	(pt 456 200)
	(pt 448 200)
)
(connector
	(pt 528 152)
	(pt 536 152)
)
(connector
	(pt 208 96)
	(pt 216 96)
)
(connector
	(pt 216 96)
	(pt 384 96)
)
(connector
	(pt 272 120)
	(pt 376 120)
)
(connector
	(pt 376 144)
	(pt 384 144)
)
(connector
	(pt 384 192)
	(pt 376 192)
)
(connector
	(pt 376 120)
	(pt 376 144)
)
(connector
	(pt 376 144)
	(pt 376 192)
)
(connector
	(pt 272 168)
	(pt 280 168)
)
(connector
	(pt 280 168)
	(pt 280 104)
)
(connector
	(pt 280 104)
	(pt 384 104)
)
(connector
	(pt 272 216)
	(pt 288 216)
)
(connector
	(pt 288 216)
	(pt 288 112)
)
(connector
	(pt 288 112)
	(pt 384 112)
)
(connector
	(pt 208 144)
	(pt 216 144)
)
(connector
	(pt 216 144)
	(pt 368 144)
)
(connector
	(pt 384 152)
	(pt 368 152)
)
(connector
	(pt 360 192)
	(pt 360 160)
)
(connector
	(pt 208 192)
	(pt 216 192)
)
(connector
	(pt 216 192)
	(pt 360 192)
)
(connector
	(pt 360 160)
	(pt 384 160)
)
(connector
	(pt 368 144)
	(pt 368 152)
)
(connector
	(pt 368 152)
	(pt 368 200)
)
(connector
	(pt 368 200)
	(pt 384 200)
)
(connector
	(pt 208 256)
	(pt 368 256)
)
(connector
	(pt 368 256)
	(pt 368 208)
)
(connector
	(pt 368 208)
	(pt 384 208)
)
(junction (pt 216 96))
(junction (pt 376 144))
(junction (pt 216 144))
(junction (pt 216 192))
(junction (pt 368 152))
