/*
WARNING: Do NOT edit the input and output ports in this file in a text
editor if you plan to continue editing the block that represents it in
the Block Editor! File corruption is VERY likely to occur.
*/
/*
Copyright (C) 1991-2013 Altera Corporation
Your use of Altera Corporation's design tools, logic functions 
and other software and tools, and its AMPP partner logic 
functions, and any output files from any of the foregoing 
(including device programming or simulation files), and any 
associated documentation or information are expressly subject 
to the terms and conditions of the Altera Program License 
Subscription Agreement, Altera MegaCore Function License 
Agreement, or other applicable license agreement, including, 
without limitation, that your use is for the sole purpose of 
programming logic devices manufactured by Altera and sold by 
Altera or its authorized distributors.  Please refer to the 
applicable agreement for further details.
*/
(header "graphic" (version "1.4"))
(pin
	(input)
	(rect 24 64 192 80)
	(text "INPUT" (rect 125 0 153 10)(font "Arial" (font_size 6)))
	(text "a0" (rect 5 0 16 12)(font "Arial" ))
	(pt 168 8)
	(drawing
		(line (pt 84 12)(pt 109 12))
		(line (pt 84 4)(pt 109 4))
		(line (pt 113 8)(pt 168 8))
		(line (pt 84 12)(pt 84 4))
		(line (pt 109 4)(pt 113 8))
		(line (pt 109 12)(pt 113 8))
	)
	(text "VCC" (rect 128 7 148 17)(font "Arial" (font_size 6)))
	(annotation_block (location)(rect -48 72 8 88))
)
(pin
	(input)
	(rect 24 80 192 96)
	(text "INPUT" (rect 125 0 153 10)(font "Arial" (font_size 6)))
	(text "a1" (rect 5 0 16 12)(font "Arial" ))
	(pt 168 8)
	(drawing
		(line (pt 84 12)(pt 109 12))
		(line (pt 84 4)(pt 109 4))
		(line (pt 113 8)(pt 168 8))
		(line (pt 84 12)(pt 84 4))
		(line (pt 109 4)(pt 113 8))
		(line (pt 109 12)(pt 113 8))
	)
	(text "VCC" (rect 128 7 148 17)(font "Arial" (font_size 6)))
	(annotation_block (location)(rect -48 88 8 104))
)
(pin
	(input)
	(rect 24 96 192 112)
	(text "INPUT" (rect 125 0 153 10)(font "Arial" (font_size 6)))
	(text "a2" (rect 5 0 16 12)(font "Arial" ))
	(pt 168 8)
	(drawing
		(line (pt 84 12)(pt 109 12))
		(line (pt 84 4)(pt 109 4))
		(line (pt 113 8)(pt 168 8))
		(line (pt 84 12)(pt 84 4))
		(line (pt 109 4)(pt 113 8))
		(line (pt 109 12)(pt 113 8))
	)
	(text "VCC" (rect 128 7 148 17)(font "Arial" (font_size 6)))
	(annotation_block (location)(rect -48 104 8 120))
)
(pin
	(input)
	(rect 24 112 192 128)
	(text "INPUT" (rect 125 0 153 10)(font "Arial" (font_size 6)))
	(text "a3" (rect 5 0 16 12)(font "Arial" ))
	(pt 168 8)
	(drawing
		(line (pt 84 12)(pt 109 12))
		(line (pt 84 4)(pt 109 4))
		(line (pt 113 8)(pt 168 8))
		(line (pt 84 12)(pt 84 4))
		(line (pt 109 4)(pt 113 8))
		(line (pt 109 12)(pt 113 8))
	)
	(text "VCC" (rect 128 7 148 17)(font "Arial" (font_size 6)))
	(annotation_block (location)(rect -56 120 8 136))
)
(pin
	(input)
	(rect 24 240 192 256)
	(text "INPUT" (rect 125 0 153 10)(font "Arial" (font_size 6)))
	(text "b0" (rect 5 0 16 12)(font "Arial" ))
	(pt 168 8)
	(drawing
		(line (pt 84 12)(pt 109 12))
		(line (pt 84 4)(pt 109 4))
		(line (pt 113 8)(pt 168 8))
		(line (pt 84 12)(pt 84 4))
		(line (pt 109 4)(pt 113 8))
		(line (pt 109 12)(pt 113 8))
	)
	(text "VCC" (rect 128 7 148 17)(font "Arial" (font_size 6)))
	(annotation_block (location)(rect -48 248 16 264))
)
(pin
	(input)
	(rect 24 256 192 272)
	(text "INPUT" (rect 125 0 153 10)(font "Arial" (font_size 6)))
	(text "b1" (rect 5 0 16 12)(font "Arial" ))
	(pt 168 8)
	(drawing
		(line (pt 84 12)(pt 109 12))
		(line (pt 84 4)(pt 109 4))
		(line (pt 113 8)(pt 168 8))
		(line (pt 84 12)(pt 84 4))
		(line (pt 109 4)(pt 113 8))
		(line (pt 109 12)(pt 113 8))
	)
	(text "VCC" (rect 128 7 148 17)(font "Arial" (font_size 6)))
	(annotation_block (location)(rect -48 264 16 280))
)
(pin
	(input)
	(rect 24 272 192 288)
	(text "INPUT" (rect 125 0 153 10)(font "Arial" (font_size 6)))
	(text "b2" (rect 5 0 16 12)(font "Arial" ))
	(pt 168 8)
	(drawing
		(line (pt 84 12)(pt 109 12))
		(line (pt 84 4)(pt 109 4))
		(line (pt 113 8)(pt 168 8))
		(line (pt 84 12)(pt 84 4))
		(line (pt 109 4)(pt 113 8))
		(line (pt 109 12)(pt 113 8))
	)
	(text "VCC" (rect 128 7 148 17)(font "Arial" (font_size 6)))
	(annotation_block (location)(rect -48 280 16 296))
)
(pin
	(input)
	(rect 24 288 192 304)
	(text "INPUT" (rect 125 0 153 10)(font "Arial" (font_size 6)))
	(text "b3" (rect 5 0 16 12)(font "Arial" ))
	(pt 168 8)
	(drawing
		(line (pt 84 12)(pt 109 12))
		(line (pt 84 4)(pt 109 4))
		(line (pt 113 8)(pt 168 8))
		(line (pt 84 12)(pt 84 4))
		(line (pt 109 4)(pt 113 8))
		(line (pt 109 12)(pt 113 8))
	)
	(text "VCC" (rect 128 7 148 17)(font "Arial" (font_size 6)))
	(annotation_block (location)(rect -40 296 16 312))
)
(pin
	(input)
	(rect 24 312 192 328)
	(text "INPUT" (rect 125 0 153 10)(font "Arial" (font_size 6)))
	(text "cin" (rect 5 0 19 12)(font "Arial" ))
	(pt 168 8)
	(drawing
		(line (pt 84 12)(pt 109 12))
		(line (pt 84 4)(pt 109 4))
		(line (pt 113 8)(pt 168 8))
		(line (pt 84 12)(pt 84 4))
		(line (pt 109 4)(pt 113 8))
		(line (pt 109 12)(pt 113 8))
	)
	(text "VCC" (rect 128 7 148 17)(font "Arial" (font_size 6)))
	(annotation_block (location)(rect -40 320 16 336))
)
(pin
	(output)
	(rect 704 168 880 184)
	(text "OUTPUT" (rect 1 0 39 10)(font "Arial" (font_size 6)))
	(text "cout" (rect 90 0 111 12)(font "Arial" ))
	(pt 0 8)
	(drawing
		(line (pt 0 8)(pt 52 8))
		(line (pt 52 4)(pt 78 4))
		(line (pt 52 12)(pt 78 12))
		(line (pt 52 12)(pt 52 4))
		(line (pt 78 4)(pt 82 8))
		(line (pt 82 8)(pt 78 12))
		(line (pt 78 12)(pt 82 8))
	)
	(annotation_block (location)(rect 880 184 936 200))
)
(pin
	(output)
	(rect 704 96 880 112)
	(text "OUTPUT" (rect 1 0 39 10)(font "Arial" (font_size 6)))
	(text "s0" (rect 90 0 101 12)(font "Arial" ))
	(pt 0 8)
	(drawing
		(line (pt 0 8)(pt 52 8))
		(line (pt 52 4)(pt 78 4))
		(line (pt 52 12)(pt 78 12))
		(line (pt 52 12)(pt 52 4))
		(line (pt 78 4)(pt 82 8))
		(line (pt 82 8)(pt 78 12))
		(line (pt 78 12)(pt 82 8))
	)
	(annotation_block (location)(rect 888 120 952 136))
)
(pin
	(output)
	(rect 704 112 880 128)
	(text "OUTPUT" (rect 1 0 39 10)(font "Arial" (font_size 6)))
	(text "s1" (rect 90 0 101 12)(font "Arial" ))
	(pt 0 8)
	(drawing
		(line (pt 0 8)(pt 52 8))
		(line (pt 52 4)(pt 78 4))
		(line (pt 52 12)(pt 78 12))
		(line (pt 52 12)(pt 52 4))
		(line (pt 78 4)(pt 82 8))
		(line (pt 82 8)(pt 78 12))
		(line (pt 78 12)(pt 82 8))
	)
	(annotation_block (location)(rect 888 136 952 152))
)
(pin
	(output)
	(rect 704 128 880 144)
	(text "OUTPUT" (rect 1 0 39 10)(font "Arial" (font_size 6)))
	(text "s2" (rect 90 0 101 12)(font "Arial" ))
	(pt 0 8)
	(drawing
		(line (pt 0 8)(pt 52 8))
		(line (pt 52 4)(pt 78 4))
		(line (pt 52 12)(pt 78 12))
		(line (pt 52 12)(pt 52 4))
		(line (pt 78 4)(pt 82 8))
		(line (pt 82 8)(pt 78 12))
		(line (pt 78 12)(pt 82 8))
	)
	(annotation_block (location)(rect 888 152 952 168))
)
(pin
	(output)
	(rect 704 144 880 160)
	(text "OUTPUT" (rect 1 0 39 10)(font "Arial" (font_size 6)))
	(text "s3" (rect 90 0 101 12)(font "Arial" ))
	(pt 0 8)
	(drawing
		(line (pt 0 8)(pt 52 8))
		(line (pt 52 4)(pt 78 4))
		(line (pt 52 12)(pt 78 12))
		(line (pt 52 12)(pt 52 4))
		(line (pt 78 4)(pt 82 8))
		(line (pt 82 8)(pt 78 12))
		(line (pt 78 12)(pt 82 8))
	)
	(annotation_block (location)(rect 888 168 944 184))
)
(symbol
	(rect 248 40 344 136)
	(text "fullAdder1bit" (rect 5 0 76 14)(font "Arial" (font_size 8)))
	(text "inst" (rect 8 80 25 92)(font "Arial" ))
	(port
		(pt 0 32)
		(input)
		(text "a" (rect 0 0 7 14)(font "Arial" (font_size 8)))
		(text "a" (rect 21 27 28 41)(font "Arial" (font_size 8)))
		(line (pt 0 32)(pt 16 32))
	)
	(port
		(pt 0 48)
		(input)
		(text "b" (rect 0 0 7 14)(font "Arial" (font_size 8)))
		(text "b" (rect 21 43 28 57)(font "Arial" (font_size 8)))
		(line (pt 0 48)(pt 16 48))
	)
	(port
		(pt 0 64)
		(input)
		(text "cin" (rect 0 0 16 14)(font "Arial" (font_size 8)))
		(text "cin" (rect 21 59 37 73)(font "Arial" (font_size 8)))
		(line (pt 0 64)(pt 16 64))
	)
	(port
		(pt 96 32)
		(output)
		(text "s" (rect 0 0 7 14)(font "Arial" (font_size 8)))
		(text "s" (rect 68 27 75 41)(font "Arial" (font_size 8)))
		(line (pt 96 32)(pt 80 32))
	)
	(port
		(pt 96 48)
		(output)
		(text "cout" (rect 0 0 24 14)(font "Arial" (font_size 8)))
		(text "cout" (rect 51 43 75 57)(font "Arial" (font_size 8)))
		(line (pt 96 48)(pt 80 48))
	)
	(drawing
		(rectangle (rect 16 16 80 80))
	)
)
(symbol
	(rect 360 112 456 208)
	(text "fullAdder1bit" (rect 5 0 76 14)(font "Arial" (font_size 8)))
	(text "inst1" (rect 8 80 31 92)(font "Arial" ))
	(port
		(pt 0 32)
		(input)
		(text "a" (rect 0 0 7 14)(font "Arial" (font_size 8)))
		(text "a" (rect 21 27 28 41)(font "Arial" (font_size 8)))
		(line (pt 0 32)(pt 16 32))
	)
	(port
		(pt 0 48)
		(input)
		(text "b" (rect 0 0 7 14)(font "Arial" (font_size 8)))
		(text "b" (rect 21 43 28 57)(font "Arial" (font_size 8)))
		(line (pt 0 48)(pt 16 48))
	)
	(port
		(pt 0 64)
		(input)
		(text "cin" (rect 0 0 16 14)(font "Arial" (font_size 8)))
		(text "cin" (rect 21 59 37 73)(font "Arial" (font_size 8)))
		(line (pt 0 64)(pt 16 64))
	)
	(port
		(pt 96 32)
		(output)
		(text "s" (rect 0 0 7 14)(font "Arial" (font_size 8)))
		(text "s" (rect 68 27 75 41)(font "Arial" (font_size 8)))
		(line (pt 96 32)(pt 80 32))
	)
	(port
		(pt 96 48)
		(output)
		(text "cout" (rect 0 0 24 14)(font "Arial" (font_size 8)))
		(text "cout" (rect 51 43 75 57)(font "Arial" (font_size 8)))
		(line (pt 96 48)(pt 80 48))
	)
	(drawing
		(rectangle (rect 16 16 80 80))
	)
)
(symbol
	(rect 472 184 568 280)
	(text "fullAdder1bit" (rect 5 0 76 14)(font "Arial" (font_size 8)))
	(text "inst2" (rect 8 80 31 92)(font "Arial" ))
	(port
		(pt 0 32)
		(input)
		(text "a" (rect 0 0 7 14)(font "Arial" (font_size 8)))
		(text "a" (rect 21 27 28 41)(font "Arial" (font_size 8)))
		(line (pt 0 32)(pt 16 32))
	)
	(port
		(pt 0 48)
		(input)
		(text "b" (rect 0 0 7 14)(font "Arial" (font_size 8)))
		(text "b" (rect 21 43 28 57)(font "Arial" (font_size 8)))
		(line (pt 0 48)(pt 16 48))
	)
	(port
		(pt 0 64)
		(input)
		(text "cin" (rect 0 0 16 14)(font "Arial" (font_size 8)))
		(text "cin" (rect 21 59 37 73)(font "Arial" (font_size 8)))
		(line (pt 0 64)(pt 16 64))
	)
	(port
		(pt 96 32)
		(output)
		(text "s" (rect 0 0 7 14)(font "Arial" (font_size 8)))
		(text "s" (rect 68 27 75 41)(font "Arial" (font_size 8)))
		(line (pt 96 32)(pt 80 32))
	)
	(port
		(pt 96 48)
		(output)
		(text "cout" (rect 0 0 24 14)(font "Arial" (font_size 8)))
		(text "cout" (rect 51 43 75 57)(font "Arial" (font_size 8)))
		(line (pt 96 48)(pt 80 48))
	)
	(drawing
		(rectangle (rect 16 16 80 80))
	)
)
(symbol
	(rect 584 256 680 352)
	(text "fullAdder1bit" (rect 5 0 76 14)(font "Arial" (font_size 8)))
	(text "inst3" (rect 8 80 31 92)(font "Arial" ))
	(port
		(pt 0 32)
		(input)
		(text "a" (rect 0 0 7 14)(font "Arial" (font_size 8)))
		(text "a" (rect 21 27 28 41)(font "Arial" (font_size 8)))
		(line (pt 0 32)(pt 16 32))
	)
	(port
		(pt 0 48)
		(input)
		(text "b" (rect 0 0 7 14)(font "Arial" (font_size 8)))
		(text "b" (rect 21 43 28 57)(font "Arial" (font_size 8)))
		(line (pt 0 48)(pt 16 48))
	)
	(port
		(pt 0 64)
		(input)
		(text "cin" (rect 0 0 16 14)(font "Arial" (font_size 8)))
		(text "cin" (rect 21 59 37 73)(font "Arial" (font_size 8)))
		(line (pt 0 64)(pt 16 64))
	)
	(port
		(pt 96 32)
		(output)
		(text "s" (rect 0 0 7 14)(font "Arial" (font_size 8)))
		(text "s" (rect 68 27 75 41)(font "Arial" (font_size 8)))
		(line (pt 96 32)(pt 80 32))
	)
	(port
		(pt 96 48)
		(output)
		(text "cout" (rect 0 0 24 14)(font "Arial" (font_size 8)))
		(text "cout" (rect 51 43 75 57)(font "Arial" (font_size 8)))
		(line (pt 96 48)(pt 80 48))
	)
	(drawing
		(rectangle (rect 16 16 80 80))
	)
)
(connector
	(pt 344 88)
	(pt 352 88)
)
(connector
	(pt 352 88)
	(pt 352 176)
)
(connector
	(pt 352 176)
	(pt 360 176)
)
(connector
	(pt 456 160)
	(pt 464 160)
)
(connector
	(pt 464 160)
	(pt 464 248)
)
(connector
	(pt 464 248)
	(pt 472 248)
)
(connector
	(pt 568 232)
	(pt 576 232)
)
(connector
	(pt 576 232)
	(pt 576 320)
)
(connector
	(pt 576 320)
	(pt 584 320)
)
(connector
	(pt 680 288)
	(pt 688 288)
)
(connector
	(pt 688 288)
	(pt 688 152)
)
(connector
	(pt 688 152)
	(pt 704 152)
)
(connector
	(pt 696 304)
	(pt 680 304)
)
(connector
	(pt 568 216)
	(pt 680 216)
)
(connector
	(pt 680 216)
	(pt 680 136)
)
(connector
	(pt 680 136)
	(pt 704 136)
)
(connector
	(pt 704 120)
	(pt 664 120)
)
(connector
	(pt 664 144)
	(pt 664 120)
)
(connector
	(pt 664 144)
	(pt 456 144)
)
(connector
	(pt 704 104)
	(pt 360 104)
)
(connector
	(pt 360 104)
	(pt 360 72)
)
(connector
	(pt 360 72)
	(pt 344 72)
)
(connector
	(pt 192 248)
	(pt 232 248)
)
(connector
	(pt 248 88)
	(pt 232 88)
)
(connector
	(pt 240 104)
	(pt 248 104)
)
(connector
	(pt 248 72)
	(pt 192 72)
)
(connector
	(pt 192 88)
	(pt 224 88)
)
(connector
	(pt 224 88)
	(pt 224 144)
)
(connector
	(pt 224 144)
	(pt 360 144)
)
(connector
	(pt 192 104)
	(pt 216 104)
)
(connector
	(pt 216 104)
	(pt 216 216)
)
(connector
	(pt 216 216)
	(pt 472 216)
)
(connector
	(pt 584 288)
	(pt 208 288)
)
(connector
	(pt 208 288)
	(pt 208 120)
)
(connector
	(pt 208 120)
	(pt 192 120)
)
(connector
	(pt 192 264)
	(pt 248 264)
)
(connector
	(pt 248 264)
	(pt 248 160)
)
(connector
	(pt 248 160)
	(pt 360 160)
)
(connector
	(pt 192 280)
	(pt 264 280)
)
(connector
	(pt 264 280)
	(pt 264 232)
)
(connector
	(pt 264 232)
	(pt 472 232)
)
(connector
	(pt 192 296)
	(pt 568 296)
)
(connector
	(pt 568 296)
	(pt 568 304)
)
(connector
	(pt 584 304)
	(pt 568 304)
)
(connector
	(pt 232 88)
	(pt 232 248)
)
(connector
	(pt 696 176)
	(pt 704 176)
)
(connector
	(pt 696 304)
	(pt 696 176)
)
(connector
	(pt 240 104)
	(pt 240 320)
)
(connector
	(pt 240 320)
	(pt 192 320)
)
