/*
WARNING: Do NOT edit the input and output ports in this file in a text
editor if you plan to continue editing the block that represents it in
the Block Editor! File corruption is VERY likely to occur.
*/
/*
Copyright (C) 1991-2013 Altera Corporation
Your use of Altera Corporation's design tools, logic functions 
and other software and tools, and its AMPP partner logic 
functions, and any output files from any of the foregoing 
(including device programming or simulation files), and any 
associated documentation or information are expressly subject 
to the terms and conditions of the Altera Program License 
Subscription Agreement, Altera MegaCore Function License 
Agreement, or other applicable license agreement, including, 
without limitation, that your use is for the sole purpose of 
programming logic devices manufactured by Altera and sold by 
Altera or its authorized distributors.  Please refer to the 
applicable agreement for further details.
*/
(header "graphic" (version "1.4"))
(pin
	(input)
	(rect -32 104 136 120)
	(text "INPUT" (rect 125 0 153 10)(font "Arial" (font_size 6)))
	(text "X[3..0]" (rect 5 0 37 12)(font "Arial" ))
	(pt 168 8)
	(drawing
		(line (pt 84 12)(pt 109 12))
		(line (pt 84 4)(pt 109 4))
		(line (pt 113 8)(pt 168 8))
		(line (pt 84 12)(pt 84 4))
		(line (pt 109 4)(pt 113 8))
		(line (pt 109 12)(pt 113 8))
	)
	(text "VCC" (rect 128 7 148 17)(font "Arial" (font_size 6)))
)
(pin
	(output)
	(rect 880 80 1056 96)
	(text "OUTPUT" (rect 1 0 39 10)(font "Arial" (font_size 6)))
	(text "hexDisp[6..0]" (rect 90 0 156 12)(font "Arial" ))
	(pt 0 8)
	(drawing
		(line (pt 0 8)(pt 52 8))
		(line (pt 52 4)(pt 78 4))
		(line (pt 52 12)(pt 78 12))
		(line (pt 52 12)(pt 52 4))
		(line (pt 78 4)(pt 82 8))
		(line (pt 82 8)(pt 78 12))
		(line (pt 78 12)(pt 82 8))
	)
)
(symbol
	(rect 264 -40 360 88)
	(text "hexNANDA" (rect 5 0 69 14)(font "Arial" (font_size 8)))
	(text "inst" (rect 8 112 25 124)(font "Arial" ))
	(port
		(pt 0 32)
		(input)
		(text "x3" (rect 0 0 14 14)(font "Arial" (font_size 8)))
		(text "x3" (rect 21 27 35 41)(font "Arial" (font_size 8)))
		(line (pt 0 32)(pt 16 32))
	)
	(port
		(pt 0 48)
		(input)
		(text "x2" (rect 0 0 14 14)(font "Arial" (font_size 8)))
		(text "x2" (rect 21 43 35 57)(font "Arial" (font_size 8)))
		(line (pt 0 48)(pt 16 48))
	)
	(port
		(pt 0 64)
		(input)
		(text "x1" (rect 0 0 14 14)(font "Arial" (font_size 8)))
		(text "x1" (rect 21 59 35 73)(font "Arial" (font_size 8)))
		(line (pt 0 64)(pt 16 64))
	)
	(port
		(pt 0 80)
		(input)
		(text "x0" (rect 0 0 14 14)(font "Arial" (font_size 8)))
		(text "x0" (rect 21 75 35 89)(font "Arial" (font_size 8)))
		(line (pt 0 80)(pt 16 80))
	)
	(port
		(pt 96 32)
		(output)
		(text "o" (rect 0 0 7 14)(font "Arial" (font_size 8)))
		(text "o" (rect 68 27 75 41)(font "Arial" (font_size 8)))
		(line (pt 96 32)(pt 80 32))
	)
	(drawing
		(rectangle (rect 16 16 80 112))
	)
)
(symbol
	(rect 408 -40 504 88)
	(text "hexNANDB" (rect 5 0 68 14)(font "Arial" (font_size 8)))
	(text "inst2" (rect 8 112 31 124)(font "Arial" ))
	(port
		(pt 0 32)
		(input)
		(text "x3" (rect 0 0 14 14)(font "Arial" (font_size 8)))
		(text "x3" (rect 21 27 35 41)(font "Arial" (font_size 8)))
		(line (pt 0 32)(pt 16 32))
	)
	(port
		(pt 0 48)
		(input)
		(text "x2" (rect 0 0 14 14)(font "Arial" (font_size 8)))
		(text "x2" (rect 21 43 35 57)(font "Arial" (font_size 8)))
		(line (pt 0 48)(pt 16 48))
	)
	(port
		(pt 0 64)
		(input)
		(text "x1" (rect 0 0 14 14)(font "Arial" (font_size 8)))
		(text "x1" (rect 21 59 35 73)(font "Arial" (font_size 8)))
		(line (pt 0 64)(pt 16 64))
	)
	(port
		(pt 0 80)
		(input)
		(text "x0" (rect 0 0 14 14)(font "Arial" (font_size 8)))
		(text "x0" (rect 21 75 35 89)(font "Arial" (font_size 8)))
		(line (pt 0 80)(pt 16 80))
	)
	(port
		(pt 96 32)
		(output)
		(text "o" (rect 0 0 7 14)(font "Arial" (font_size 8)))
		(text "o" (rect 68 27 75 41)(font "Arial" (font_size 8)))
		(line (pt 96 32)(pt 80 32))
	)
	(drawing
		(rectangle (rect 16 16 80 112))
	)
)
(symbol
	(rect 552 -40 648 88)
	(text "hexNANDC" (rect 5 0 68 14)(font "Arial" (font_size 8)))
	(text "inst3" (rect 8 112 31 124)(font "Arial" ))
	(port
		(pt 0 32)
		(input)
		(text "x3" (rect 0 0 14 14)(font "Arial" (font_size 8)))
		(text "x3" (rect 21 27 35 41)(font "Arial" (font_size 8)))
		(line (pt 0 32)(pt 16 32))
	)
	(port
		(pt 0 48)
		(input)
		(text "x2" (rect 0 0 14 14)(font "Arial" (font_size 8)))
		(text "x2" (rect 21 43 35 57)(font "Arial" (font_size 8)))
		(line (pt 0 48)(pt 16 48))
	)
	(port
		(pt 0 64)
		(input)
		(text "x1" (rect 0 0 14 14)(font "Arial" (font_size 8)))
		(text "x1" (rect 21 59 35 73)(font "Arial" (font_size 8)))
		(line (pt 0 64)(pt 16 64))
	)
	(port
		(pt 0 80)
		(input)
		(text "x0" (rect 0 0 14 14)(font "Arial" (font_size 8)))
		(text "x0" (rect 21 75 35 89)(font "Arial" (font_size 8)))
		(line (pt 0 80)(pt 16 80))
	)
	(port
		(pt 96 32)
		(output)
		(text "o" (rect 0 0 7 14)(font "Arial" (font_size 8)))
		(text "o" (rect 68 27 75 41)(font "Arial" (font_size 8)))
		(line (pt 96 32)(pt 80 32))
	)
	(drawing
		(rectangle (rect 16 16 80 112))
	)
)
(symbol
	(rect 688 56 784 184)
	(text "hexNORD" (rect 5 0 60 14)(font "Arial" (font_size 8)))
	(text "inst4" (rect 8 112 31 124)(font "Arial" ))
	(port
		(pt 0 32)
		(input)
		(text "x3" (rect 0 0 14 14)(font "Arial" (font_size 8)))
		(text "x3" (rect 21 27 35 41)(font "Arial" (font_size 8)))
		(line (pt 0 32)(pt 16 32))
	)
	(port
		(pt 0 48)
		(input)
		(text "x2" (rect 0 0 14 14)(font "Arial" (font_size 8)))
		(text "x2" (rect 21 43 35 57)(font "Arial" (font_size 8)))
		(line (pt 0 48)(pt 16 48))
	)
	(port
		(pt 0 64)
		(input)
		(text "x1" (rect 0 0 14 14)(font "Arial" (font_size 8)))
		(text "x1" (rect 21 59 35 73)(font "Arial" (font_size 8)))
		(line (pt 0 64)(pt 16 64))
	)
	(port
		(pt 0 80)
		(input)
		(text "x0" (rect 0 0 14 14)(font "Arial" (font_size 8)))
		(text "x0" (rect 21 75 35 89)(font "Arial" (font_size 8)))
		(line (pt 0 80)(pt 16 80))
	)
	(port
		(pt 96 32)
		(output)
		(text "o" (rect 0 0 7 14)(font "Arial" (font_size 8)))
		(text "o" (rect 68 27 75 41)(font "Arial" (font_size 8)))
		(line (pt 96 32)(pt 80 32))
	)
	(drawing
		(rectangle (rect 16 16 80 112))
	)
)
(symbol
	(rect 264 128 360 256)
	(text "hexNORE" (rect 5 0 59 14)(font "Arial" (font_size 8)))
	(text "inst5" (rect 8 112 31 124)(font "Arial" ))
	(port
		(pt 0 32)
		(input)
		(text "x3" (rect 0 0 14 14)(font "Arial" (font_size 8)))
		(text "x3" (rect 21 27 35 41)(font "Arial" (font_size 8)))
		(line (pt 0 32)(pt 16 32))
	)
	(port
		(pt 0 48)
		(input)
		(text "x2" (rect 0 0 14 14)(font "Arial" (font_size 8)))
		(text "x2" (rect 21 43 35 57)(font "Arial" (font_size 8)))
		(line (pt 0 48)(pt 16 48))
	)
	(port
		(pt 0 64)
		(input)
		(text "x1" (rect 0 0 14 14)(font "Arial" (font_size 8)))
		(text "x1" (rect 21 59 35 73)(font "Arial" (font_size 8)))
		(line (pt 0 64)(pt 16 64))
	)
	(port
		(pt 0 80)
		(input)
		(text "x0" (rect 0 0 14 14)(font "Arial" (font_size 8)))
		(text "x0" (rect 21 75 35 89)(font "Arial" (font_size 8)))
		(line (pt 0 80)(pt 16 80))
	)
	(port
		(pt 96 32)
		(output)
		(text "o" (rect 0 0 7 14)(font "Arial" (font_size 8)))
		(text "o" (rect 68 27 75 41)(font "Arial" (font_size 8)))
		(line (pt 96 32)(pt 80 32))
	)
	(drawing
		(rectangle (rect 16 16 80 112))
	)
)
(symbol
	(rect 408 128 504 256)
	(text "hexNORF" (rect 5 0 59 14)(font "Arial" (font_size 8)))
	(text "inst6" (rect 8 112 31 124)(font "Arial" ))
	(port
		(pt 0 32)
		(input)
		(text "x3" (rect 0 0 14 14)(font "Arial" (font_size 8)))
		(text "x3" (rect 21 27 35 41)(font "Arial" (font_size 8)))
		(line (pt 0 32)(pt 16 32))
	)
	(port
		(pt 0 48)
		(input)
		(text "x2" (rect 0 0 14 14)(font "Arial" (font_size 8)))
		(text "x2" (rect 21 43 35 57)(font "Arial" (font_size 8)))
		(line (pt 0 48)(pt 16 48))
	)
	(port
		(pt 0 64)
		(input)
		(text "x1" (rect 0 0 14 14)(font "Arial" (font_size 8)))
		(text "x1" (rect 21 59 35 73)(font "Arial" (font_size 8)))
		(line (pt 0 64)(pt 16 64))
	)
	(port
		(pt 0 80)
		(input)
		(text "x0" (rect 0 0 14 14)(font "Arial" (font_size 8)))
		(text "x0" (rect 21 75 35 89)(font "Arial" (font_size 8)))
		(line (pt 0 80)(pt 16 80))
	)
	(port
		(pt 96 32)
		(output)
		(text "o" (rect 0 0 7 14)(font "Arial" (font_size 8)))
		(text "o" (rect 68 27 75 41)(font "Arial" (font_size 8)))
		(line (pt 96 32)(pt 80 32))
	)
	(drawing
		(rectangle (rect 16 16 80 112))
	)
)
(symbol
	(rect 560 128 656 256)
	(text "hexNORG" (rect 5 0 61 14)(font "Arial" (font_size 8)))
	(text "inst7" (rect 8 112 31 124)(font "Arial" ))
	(port
		(pt 0 32)
		(input)
		(text "x3" (rect 0 0 14 14)(font "Arial" (font_size 8)))
		(text "x3" (rect 21 27 35 41)(font "Arial" (font_size 8)))
		(line (pt 0 32)(pt 16 32))
	)
	(port
		(pt 0 48)
		(input)
		(text "x2" (rect 0 0 14 14)(font "Arial" (font_size 8)))
		(text "x2" (rect 21 43 35 57)(font "Arial" (font_size 8)))
		(line (pt 0 48)(pt 16 48))
	)
	(port
		(pt 0 64)
		(input)
		(text "x1" (rect 0 0 14 14)(font "Arial" (font_size 8)))
		(text "x1" (rect 21 59 35 73)(font "Arial" (font_size 8)))
		(line (pt 0 64)(pt 16 64))
	)
	(port
		(pt 0 80)
		(input)
		(text "x0" (rect 0 0 14 14)(font "Arial" (font_size 8)))
		(text "x0" (rect 21 75 35 89)(font "Arial" (font_size 8)))
		(line (pt 0 80)(pt 16 80))
	)
	(port
		(pt 96 32)
		(output)
		(text "o" (rect 0 0 7 14)(font "Arial" (font_size 8)))
		(text "o" (rect 68 27 75 41)(font "Arial" (font_size 8)))
		(line (pt 96 32)(pt 80 32))
	)
	(drawing
		(rectangle (rect 16 16 80 112))
	)
)
(connector
	(pt 664 120)
	(pt 664 136)
)
(connector
	(pt 664 136)
	(pt 688 136)
)
(connector
	(pt 672 120)
	(pt 688 120)
)
(connector
	(pt 672 112)
	(pt 672 120)
)
(connector
	(pt 688 88)
	(pt 680 88)
)
(connector
	(pt 680 88)
	(pt 680 96)
)
(connector
	(pt 504 -8)
	(pt 512 -8)
)
(connector
	(pt 512 -8)
	(pt 512 -48)
)
(connector
	(pt 360 -8)
	(pt 368 -8)
)
(connector
	(pt 368 -56)
	(pt 368 -8)
)
(connector
	(pt 656 160)
	(pt 664 160)
)
(connector
	(pt 664 160)
	(pt 664 200)
)
(connector
	(pt 504 160)
	(pt 512 160)
)
(connector
	(pt 512 160)
	(pt 512 264)
)
(connector
	(pt 368 272)
	(pt 368 160)
)
(connector
	(pt 360 160)
	(pt 368 160)
)
(connector
	(pt 264 -8)
	(pt 232 -8)
)
(connector
	(pt 264 160)
	(pt 232 160)
)
(connector
	(pt 232 96)
	(pt 232 160)
)
(connector
	(pt 248 192)
	(pt 264 192)
)
(connector
	(pt 264 208)
	(pt 256 208)
)
(connector
	(pt 264 176)
	(pt 240 176)
)
(connector
	(pt 264 8)
	(pt 240 8)
)
(connector
	(pt 240 8)
	(pt 240 104)
)
(connector
	(pt 240 104)
	(pt 240 176)
)
(connector
	(pt 264 24)
	(pt 248 24)
)
(connector
	(pt 248 24)
	(pt 248 112)
)
(connector
	(pt 264 40)
	(pt 256 40)
)
(connector
	(pt 256 40)
	(pt 256 120)
)
(connector
	(pt 408 -8)
	(pt 376 -8)
)
(connector
	(pt 408 8)
	(pt 384 8)
)
(connector
	(pt 240 104)
	(pt 384 104)
)
(connector
	(pt 408 24)
	(pt 392 24)
)
(connector
	(pt 408 40)
	(pt 400 40)
)
(connector
	(pt 408 160)
	(pt 376 160)
)
(connector
	(pt 376 -8)
	(pt 376 96)
)
(connector
	(pt 376 96)
	(pt 376 160)
)
(connector
	(pt 408 176)
	(pt 384 176)
)
(connector
	(pt 384 8)
	(pt 384 104)
)
(connector
	(pt 384 104)
	(pt 384 176)
)
(connector
	(pt 408 192)
	(pt 392 192)
)
(connector
	(pt 392 24)
	(pt 392 112)
)
(connector
	(pt 392 112)
	(pt 392 192)
)
(connector
	(pt 408 208)
	(pt 400 208)
)
(connector
	(pt 400 40)
	(pt 400 120)
)
(connector
	(pt 400 120)
	(pt 400 208)
)
(connector
	(pt 552 -8)
	(pt 520 -8)
)
(connector
	(pt 376 96)
	(pt 520 96)
)
(connector
	(pt 520 96)
	(pt 680 96)
)
(connector
	(pt 552 8)
	(pt 528 8)
)
(connector
	(pt 384 104)
	(pt 528 104)
)
(connector
	(pt 528 104)
	(pt 688 104)
)
(connector
	(pt 552 24)
	(pt 536 24)
)
(connector
	(pt 392 112)
	(pt 536 112)
)
(connector
	(pt 536 112)
	(pt 672 112)
)
(connector
	(pt 552 40)
	(pt 544 40)
)
(connector
	(pt 400 120)
	(pt 544 120)
)
(connector
	(pt 544 120)
	(pt 664 120)
)
(connector
	(pt 560 160)
	(pt 520 160)
)
(connector
	(pt 520 -8)
	(pt 520 96)
)
(connector
	(pt 520 96)
	(pt 520 160)
)
(connector
	(pt 560 176)
	(pt 528 176)
)
(connector
	(pt 528 8)
	(pt 528 104)
)
(connector
	(pt 528 104)
	(pt 528 176)
)
(connector
	(pt 560 192)
	(pt 536 192)
)
(connector
	(pt 536 24)
	(pt 536 112)
)
(connector
	(pt 536 112)
	(pt 536 192)
)
(connector
	(pt 560 208)
	(pt 544 208)
)
(connector
	(pt 544 40)
	(pt 544 120)
)
(connector
	(pt 544 120)
	(pt 544 208)
)
(connector
	(text "X[2]" (rect 194 88 212 100)(font "Arial" ))
	(pt 184 104)
	(pt 240 104)
)
(connector
	(pt 648 -8)
	(pt 792 -8)
)
(connector
	(pt 792 -8)
	(pt 792 80)
)
(connector
	(pt 800 -48)
	(pt 800 72)
)
(connector
	(pt 512 -48)
	(pt 800 -48)
)
(connector
	(pt 368 -56)
	(pt 808 -56)
)
(connector
	(pt 808 -56)
	(pt 808 64)
)
(connector
	(pt 512 264)
	(pt 800 264)
)
(connector
	(pt 792 272)
	(pt 792 96)
)
(connector
	(pt 368 272)
	(pt 792 272)
)
(connector
	(pt 800 264)
	(pt 800 104)
)
(connector
	(pt 664 200)
	(pt 808 200)
)
(connector
	(pt 808 200)
	(pt 808 112)
)
(connector
	(pt 232 -8)
	(pt 232 96)
)
(connector
	(text "X[3]" (rect 194 80 212 92)(font "Arial" ))
	(pt 184 96)
	(pt 232 96)
)
(connector
	(pt 232 96)
	(pt 376 96)
)
(connector
	(pt 248 112)
	(pt 248 192)
)
(connector
	(text "X[1]" (rect 194 96 212 108)(font "Arial" ))
	(pt 184 112)
	(pt 248 112)
)
(connector
	(pt 248 112)
	(pt 392 112)
)
(connector
	(pt 256 120)
	(pt 256 208)
)
(connector
	(text "X[0]" (rect 194 104 212 116)(font "Arial" ))
	(pt 184 120)
	(pt 256 120)
)
(connector
	(pt 256 120)
	(pt 400 120)
)
(connector
	(pt 184 96)
	(pt 184 104)
	(bus)
)
(connector
	(pt 184 112)
	(pt 136 112)
	(bus)
)
(connector
	(pt 184 104)
	(pt 184 112)
	(bus)
)
(connector
	(pt 184 112)
	(pt 184 120)
	(bus)
)
(connector
	(pt 880 88)
	(pt 856 88)
	(bus)
)
(connector
	(text "hexDisp[6]" (rect 818 96 871 108)(font "Arial" ))
	(pt 856 112)
	(pt 808 112)
)
(connector
	(pt 856 64)
	(pt 856 72)
	(bus)
)
(connector
	(pt 856 72)
	(pt 856 80)
	(bus)
)
(connector
	(pt 856 80)
	(pt 856 88)
	(bus)
)
(connector
	(pt 856 88)
	(pt 856 96)
	(bus)
)
(connector
	(pt 856 96)
	(pt 856 104)
	(bus)
)
(connector
	(pt 856 104)
	(pt 856 112)
	(bus)
)
(connector
	(text "hexDisp[0]" (rect 818 48 871 60)(font "Arial" ))
	(pt 808 64)
	(pt 856 64)
)
(connector
	(text "hexDisp[1]" (rect 810 56 863 68)(font "Arial" ))
	(pt 800 72)
	(pt 856 72)
)
(connector
	(text "hexDisp[2]" (rect 802 64 855 76)(font "Arial" ))
	(pt 792 80)
	(pt 856 80)
)
(connector
	(text "hexDisp[3]" (rect 794 72 847 84)(font "Arial" ))
	(pt 784 88)
	(pt 856 88)
)
(connector
	(text "hexDisp[4]" (rect 802 80 855 92)(font "Arial" ))
	(pt 792 96)
	(pt 856 96)
)
(connector
	(text "hexDisp[5]" (rect 810 88 863 100)(font "Arial" ))
	(pt 800 104)
	(pt 856 104)
)
(junction (pt 232 96))
(junction (pt 240 104))
(junction (pt 248 112))
(junction (pt 256 120))
(junction (pt 376 96))
(junction (pt 384 104))
(junction (pt 392 112))
(junction (pt 400 120))
(junction (pt 520 96))
(junction (pt 528 104))
(junction (pt 536 112))
(junction (pt 544 120))
(junction (pt 184 104))
(junction (pt 184 112))
(junction (pt 856 88))
(junction (pt 856 72))
(junction (pt 856 80))
(junction (pt 856 96))
(junction (pt 856 104))
