/*
WARNING: Do NOT edit the input and output ports in this file in a text
editor if you plan to continue editing the block that represents it in
the Block Editor! File corruption is VERY likely to occur.
*/
/*
Copyright (C) 1991-2013 Altera Corporation
Your use of Altera Corporation's design tools, logic functions 
and other software and tools, and its AMPP partner logic 
functions, and any output files from any of the foregoing 
(including device programming or simulation files), and any 
associated documentation or information are expressly subject 
to the terms and conditions of the Altera Program License 
Subscription Agreement, Altera MegaCore Function License 
Agreement, or other applicable license agreement, including, 
without limitation, that your use is for the sole purpose of 
programming logic devices manufactured by Altera and sold by 
Altera or its authorized distributors.  Please refer to the 
applicable agreement for further details.
*/
(header "graphic" (version "1.4"))
(pin
	(input)
	(rect -96 56 72 72)
	(text "INPUT" (rect 125 0 153 10)(font "Arial" (font_size 6)))
	(text "x3" (rect 5 0 16 12)(font "Arial" ))
	(pt 168 8)
	(drawing
		(line (pt 84 12)(pt 109 12))
		(line (pt 84 4)(pt 109 4))
		(line (pt 113 8)(pt 168 8))
		(line (pt 84 12)(pt 84 4))
		(line (pt 109 4)(pt 113 8))
		(line (pt 109 12)(pt 113 8))
	)
	(text "VCC" (rect 128 7 148 17)(font "Arial" (font_size 6)))
	(annotation_block (location)(rect -112 80 -48 96))
)
(pin
	(input)
	(rect -96 120 72 136)
	(text "INPUT" (rect 125 0 153 10)(font "Arial" (font_size 6)))
	(text "x2" (rect 5 0 16 12)(font "Arial" ))
	(pt 168 8)
	(drawing
		(line (pt 84 12)(pt 109 12))
		(line (pt 84 4)(pt 109 4))
		(line (pt 113 8)(pt 168 8))
		(line (pt 84 12)(pt 84 4))
		(line (pt 109 4)(pt 113 8))
		(line (pt 109 12)(pt 113 8))
	)
	(text "VCC" (rect 128 7 148 17)(font "Arial" (font_size 6)))
	(annotation_block (location)(rect -112 144 -56 160))
)
(pin
	(input)
	(rect -96 184 72 200)
	(text "INPUT" (rect 125 0 153 10)(font "Arial" (font_size 6)))
	(text "x1" (rect 5 0 16 12)(font "Arial" ))
	(pt 168 8)
	(drawing
		(line (pt 84 12)(pt 109 12))
		(line (pt 84 4)(pt 109 4))
		(line (pt 113 8)(pt 168 8))
		(line (pt 84 12)(pt 84 4))
		(line (pt 109 4)(pt 113 8))
		(line (pt 109 12)(pt 113 8))
	)
	(text "VCC" (rect 128 7 148 17)(font "Arial" (font_size 6)))
	(annotation_block (location)(rect -112 208 -56 224))
)
(pin
	(input)
	(rect -96 248 72 264)
	(text "INPUT" (rect 125 0 153 10)(font "Arial" (font_size 6)))
	(text "x0" (rect 5 0 16 12)(font "Arial" ))
	(pt 168 8)
	(drawing
		(line (pt 84 12)(pt 109 12))
		(line (pt 84 4)(pt 109 4))
		(line (pt 113 8)(pt 168 8))
		(line (pt 84 12)(pt 84 4))
		(line (pt 109 4)(pt 113 8))
		(line (pt 109 12)(pt 113 8))
	)
	(text "VCC" (rect 128 7 148 17)(font "Arial" (font_size 6)))
	(annotation_block (location)(rect -112 272 -56 288))
)
(pin
	(output)
	(rect 496 104 672 120)
	(text "OUTPUT" (rect 1 0 39 10)(font "Arial" (font_size 6)))
	(text "o" (rect 90 0 95 12)(font "Arial" ))
	(pt 0 8)
	(drawing
		(line (pt 0 8)(pt 52 8))
		(line (pt 52 4)(pt 78 4))
		(line (pt 52 12)(pt 78 12))
		(line (pt 52 12)(pt 52 4))
		(line (pt 78 4)(pt 82 8))
		(line (pt 82 8)(pt 78 12))
		(line (pt 78 12)(pt 82 8))
	)
	(annotation_block (location)(rect 600 128 664 144))
)
(symbol
	(rect 88 40 152 88)
	(text "NOR2" (rect 1 0 26 10)(font "Arial" (font_size 6)))
	(text "inst" (rect 3 37 20 49)(font "Arial" ))
	(port
		(pt 0 32)
		(input)
		(text "IN2" (rect 2 23 19 35)(font "Courier New" (bold))(invisible))
		(text "IN2" (rect 2 23 19 35)(font "Courier New" (bold))(invisible))
		(line (pt 0 32)(pt 14 32))
	)
	(port
		(pt 0 16)
		(input)
		(text "IN1" (rect 2 7 19 19)(font "Courier New" (bold))(invisible))
		(text "IN1" (rect 2 7 19 19)(font "Courier New" (bold))(invisible))
		(line (pt 0 16)(pt 14 16))
	)
	(port
		(pt 64 24)
		(output)
		(text "OUT" (rect 48 15 65 27)(font "Courier New" (bold))(invisible))
		(text "OUT" (rect 48 15 65 27)(font "Courier New" (bold))(invisible))
		(line (pt 54 24)(pt 64 24))
	)
	(drawing
		(line (pt 12 36)(pt 23 36))
		(line (pt 12 13)(pt 23 13))
		(arc (pt 46 24)(pt 23 13)(rect -6 13 53 72))
		(arc (pt 5 29)(pt 5 19)(rect -16 8 17 41))
		(arc (pt 23 35)(pt 46 24)(rect -6 -23 53 36))
		(circle (rect 46 20 54 28))
	)
)
(symbol
	(rect 88 104 152 152)
	(text "NOR2" (rect 1 0 26 10)(font "Arial" (font_size 6)))
	(text "inst1" (rect 3 37 26 49)(font "Arial" ))
	(port
		(pt 0 32)
		(input)
		(text "IN2" (rect 2 23 19 35)(font "Courier New" (bold))(invisible))
		(text "IN2" (rect 2 23 19 35)(font "Courier New" (bold))(invisible))
		(line (pt 0 32)(pt 14 32))
	)
	(port
		(pt 0 16)
		(input)
		(text "IN1" (rect 2 7 19 19)(font "Courier New" (bold))(invisible))
		(text "IN1" (rect 2 7 19 19)(font "Courier New" (bold))(invisible))
		(line (pt 0 16)(pt 14 16))
	)
	(port
		(pt 64 24)
		(output)
		(text "OUT" (rect 48 15 65 27)(font "Courier New" (bold))(invisible))
		(text "OUT" (rect 48 15 65 27)(font "Courier New" (bold))(invisible))
		(line (pt 54 24)(pt 64 24))
	)
	(drawing
		(line (pt 12 36)(pt 23 36))
		(line (pt 12 13)(pt 23 13))
		(arc (pt 46 24)(pt 23 13)(rect -6 13 53 72))
		(arc (pt 5 29)(pt 5 19)(rect -16 8 17 41))
		(arc (pt 23 35)(pt 46 24)(rect -6 -23 53 36))
		(circle (rect 46 20 54 28))
	)
)
(symbol
	(rect 88 168 152 216)
	(text "NOR2" (rect 1 0 26 10)(font "Arial" (font_size 6)))
	(text "inst2" (rect 3 37 26 49)(font "Arial" ))
	(port
		(pt 0 32)
		(input)
		(text "IN2" (rect 2 23 19 35)(font "Courier New" (bold))(invisible))
		(text "IN2" (rect 2 23 19 35)(font "Courier New" (bold))(invisible))
		(line (pt 0 32)(pt 14 32))
	)
	(port
		(pt 0 16)
		(input)
		(text "IN1" (rect 2 7 19 19)(font "Courier New" (bold))(invisible))
		(text "IN1" (rect 2 7 19 19)(font "Courier New" (bold))(invisible))
		(line (pt 0 16)(pt 14 16))
	)
	(port
		(pt 64 24)
		(output)
		(text "OUT" (rect 48 15 65 27)(font "Courier New" (bold))(invisible))
		(text "OUT" (rect 48 15 65 27)(font "Courier New" (bold))(invisible))
		(line (pt 54 24)(pt 64 24))
	)
	(drawing
		(line (pt 12 36)(pt 23 36))
		(line (pt 12 13)(pt 23 13))
		(arc (pt 46 24)(pt 23 13)(rect -6 13 53 72))
		(arc (pt 5 29)(pt 5 19)(rect -16 8 17 41))
		(arc (pt 23 35)(pt 46 24)(rect -6 -23 53 36))
		(circle (rect 46 20 54 28))
	)
)
(symbol
	(rect 416 88 480 136)
	(text "NOR2" (rect 1 0 26 10)(font "Arial" (font_size 6)))
	(text "inst4" (rect 3 37 26 49)(font "Arial" ))
	(port
		(pt 0 32)
		(input)
		(text "IN2" (rect 2 23 19 35)(font "Courier New" (bold))(invisible))
		(text "IN2" (rect 2 23 19 35)(font "Courier New" (bold))(invisible))
		(line (pt 0 32)(pt 14 32))
	)
	(port
		(pt 0 16)
		(input)
		(text "IN1" (rect 2 7 19 19)(font "Courier New" (bold))(invisible))
		(text "IN1" (rect 2 7 19 19)(font "Courier New" (bold))(invisible))
		(line (pt 0 16)(pt 14 16))
	)
	(port
		(pt 64 24)
		(output)
		(text "OUT" (rect 48 15 65 27)(font "Courier New" (bold))(invisible))
		(text "OUT" (rect 48 15 65 27)(font "Courier New" (bold))(invisible))
		(line (pt 54 24)(pt 64 24))
	)
	(drawing
		(line (pt 12 36)(pt 23 36))
		(line (pt 12 13)(pt 23 13))
		(arc (pt 46 24)(pt 23 13)(rect -6 13 53 72))
		(arc (pt 5 29)(pt 5 19)(rect -16 8 17 41))
		(arc (pt 23 35)(pt 46 24)(rect -6 -23 53 36))
		(circle (rect 46 20 54 28))
	)
)
(symbol
	(rect 336 88 400 136)
	(text "NOR2" (rect 1 0 26 10)(font "Arial" (font_size 6)))
	(text "inst5" (rect 3 37 26 49)(font "Arial" ))
	(port
		(pt 0 32)
		(input)
		(text "IN2" (rect 2 23 19 35)(font "Courier New" (bold))(invisible))
		(text "IN2" (rect 2 23 19 35)(font "Courier New" (bold))(invisible))
		(line (pt 0 32)(pt 14 32))
	)
	(port
		(pt 0 16)
		(input)
		(text "IN1" (rect 2 7 19 19)(font "Courier New" (bold))(invisible))
		(text "IN1" (rect 2 7 19 19)(font "Courier New" (bold))(invisible))
		(line (pt 0 16)(pt 14 16))
	)
	(port
		(pt 64 24)
		(output)
		(text "OUT" (rect 48 15 65 27)(font "Courier New" (bold))(invisible))
		(text "OUT" (rect 48 15 65 27)(font "Courier New" (bold))(invisible))
		(line (pt 54 24)(pt 64 24))
	)
	(drawing
		(line (pt 12 36)(pt 23 36))
		(line (pt 12 13)(pt 23 13))
		(arc (pt 46 24)(pt 23 13)(rect -6 13 53 72))
		(arc (pt 5 29)(pt 5 19)(rect -16 8 17 41))
		(arc (pt 23 35)(pt 46 24)(rect -6 -23 53 36))
		(circle (rect 46 20 54 28))
	)
)
(symbol
	(rect 224 24 320 120)
	(text "myNOR3" (rect 5 0 54 14)(font "Arial" (font_size 8)))
	(text "inst6" (rect 8 80 31 92)(font "Arial" ))
	(port
		(pt 0 32)
		(input)
		(text "i0" (rect 0 0 9 14)(font "Arial" (font_size 8)))
		(text "i0" (rect 21 27 30 41)(font "Arial" (font_size 8)))
		(line (pt 0 32)(pt 16 32))
	)
	(port
		(pt 0 48)
		(input)
		(text "i1" (rect 0 0 9 14)(font "Arial" (font_size 8)))
		(text "i1" (rect 21 43 30 57)(font "Arial" (font_size 8)))
		(line (pt 0 48)(pt 16 48))
	)
	(port
		(pt 0 64)
		(input)
		(text "i2" (rect 0 0 9 14)(font "Arial" (font_size 8)))
		(text "i2" (rect 21 59 30 73)(font "Arial" (font_size 8)))
		(line (pt 0 64)(pt 16 64))
	)
	(port
		(pt 96 32)
		(output)
		(text "o" (rect 0 0 7 14)(font "Arial" (font_size 8)))
		(text "o" (rect 68 27 75 41)(font "Arial" (font_size 8)))
		(line (pt 96 32)(pt 80 32))
	)
	(drawing
		(rectangle (rect 16 16 80 80))
	)
)
(symbol
	(rect 224 120 320 248)
	(text "myNOR4" (rect 5 0 54 14)(font "Arial" (font_size 8)))
	(text "inst7" (rect 8 112 31 124)(font "Arial" ))
	(port
		(pt 0 32)
		(input)
		(text "i0" (rect 0 0 9 14)(font "Arial" (font_size 8)))
		(text "i0" (rect 21 27 30 41)(font "Arial" (font_size 8)))
		(line (pt 0 32)(pt 16 32))
	)
	(port
		(pt 0 48)
		(input)
		(text "i1" (rect 0 0 9 14)(font "Arial" (font_size 8)))
		(text "i1" (rect 21 43 30 57)(font "Arial" (font_size 8)))
		(line (pt 0 48)(pt 16 48))
	)
	(port
		(pt 0 64)
		(input)
		(text "i2" (rect 0 0 9 14)(font "Arial" (font_size 8)))
		(text "i2" (rect 21 59 30 73)(font "Arial" (font_size 8)))
		(line (pt 0 64)(pt 16 64))
	)
	(port
		(pt 0 80)
		(input)
		(text "i3" (rect 0 0 9 14)(font "Arial" (font_size 8)))
		(text "i3" (rect 21 75 30 89)(font "Arial" (font_size 8)))
		(line (pt 0 80)(pt 16 80))
	)
	(port
		(pt 96 32)
		(output)
		(text "o" (rect 0 0 7 14)(font "Arial" (font_size 8)))
		(text "o" (rect 68 27 75 41)(font "Arial" (font_size 8)))
		(line (pt 96 32)(pt 80 32))
	)
	(drawing
		(rectangle (rect 16 16 80 112))
	)
)
(connector
	(pt 88 72)
	(pt 80 72)
)
(connector
	(pt 80 56)
	(pt 88 56)
)
(connector
	(pt 72 64)
	(pt 80 64)
)
(connector
	(pt 80 56)
	(pt 80 64)
)
(connector
	(pt 80 64)
	(pt 80 72)
)
(connector
	(pt 88 136)
	(pt 80 136)
)
(connector
	(pt 80 120)
	(pt 88 120)
)
(connector
	(pt 72 128)
	(pt 80 128)
)
(connector
	(pt 80 96)
	(pt 80 120)
)
(connector
	(pt 80 120)
	(pt 80 128)
)
(connector
	(pt 80 128)
	(pt 80 136)
)
(connector
	(pt 88 200)
	(pt 80 200)
)
(connector
	(pt 80 184)
	(pt 88 184)
)
(connector
	(pt 72 192)
	(pt 80 192)
)
(connector
	(pt 80 160)
	(pt 80 184)
)
(connector
	(pt 80 184)
	(pt 80 192)
)
(connector
	(pt 80 192)
	(pt 80 200)
)
(connector
	(pt 160 96)
	(pt 80 96)
)
(connector
	(pt 168 160)
	(pt 80 160)
)
(connector
	(pt 176 224)
	(pt 80 224)
)
(connector
	(pt 400 112)
	(pt 408 112)
)
(connector
	(pt 408 104)
	(pt 416 104)
)
(connector
	(pt 416 120)
	(pt 408 120)
)
(connector
	(pt 320 152)
	(pt 328 152)
)
(connector
	(pt 328 152)
	(pt 328 120)
)
(connector
	(pt 328 120)
	(pt 336 120)
)
(connector
	(pt 320 56)
	(pt 328 56)
)
(connector
	(pt 328 56)
	(pt 328 104)
)
(connector
	(pt 328 104)
	(pt 336 104)
)
(connector
	(pt 160 96)
	(pt 160 56)
)
(connector
	(pt 168 160)
	(pt 168 72)
)
(connector
	(pt 408 104)
	(pt 408 112)
)
(connector
	(pt 408 112)
	(pt 408 120)
)
(connector
	(pt 160 56)
	(pt 224 56)
)
(connector
	(pt 168 72)
	(pt 224 72)
)
(connector
	(pt 176 88)
	(pt 224 88)
)
(connector
	(pt 480 112)
	(pt 496 112)
)
(connector
	(pt 152 64)
	(pt 184 64)
)
(connector
	(pt 184 152)
	(pt 184 64)
)
(connector
	(pt 184 152)
	(pt 224 152)
)
(connector
	(pt 152 128)
	(pt 192 128)
)
(connector
	(pt 192 128)
	(pt 192 168)
)
(connector
	(pt 192 168)
	(pt 224 168)
)
(connector
	(pt 152 192)
	(pt 200 192)
)
(connector
	(pt 200 192)
	(pt 200 184)
)
(connector
	(pt 200 184)
	(pt 224 184)
)
(connector
	(pt 176 200)
	(pt 224 200)
)
(connector
	(pt 176 88)
	(pt 176 200)
)
(connector
	(pt 176 200)
	(pt 176 224)
)
(connector
	(pt 80 256)
	(pt 80 224)
)
(connector
	(pt 80 256)
	(pt 72 256)
)
(junction (pt 80 64))
(junction (pt 80 120))
(junction (pt 80 128))
(junction (pt 80 184))
(junction (pt 80 192))
(junction (pt 408 112))
(junction (pt 176 200))
