/*
WARNING: Do NOT edit the input and output ports in this file in a text
editor if you plan to continue editing the block that represents it in
the Block Editor! File corruption is VERY likely to occur.
*/
/*
Copyright (C) 1991-2013 Altera Corporation
Your use of Altera Corporation's design tools, logic functions 
and other software and tools, and its AMPP partner logic 
functions, and any output files from any of the foregoing 
(including device programming or simulation files), and any 
associated documentation or information are expressly subject 
to the terms and conditions of the Altera Program License 
Subscription Agreement, Altera MegaCore Function License 
Agreement, or other applicable license agreement, including, 
without limitation, that your use is for the sole purpose of 
programming logic devices manufactured by Altera and sold by 
Altera or its authorized distributors.  Please refer to the 
applicable agreement for further details.
*/
(header "graphic" (version "1.4"))
(pin
	(input)
	(rect 136 112 304 128)
	(text "INPUT" (rect 125 0 153 10)(font "Arial" (font_size 6)))
	(text "i0" (rect 5 0 13 12)(font "Arial" ))
	(pt 168 8)
	(drawing
		(line (pt 84 12)(pt 109 12))
		(line (pt 84 4)(pt 109 4))
		(line (pt 113 8)(pt 168 8))
		(line (pt 84 12)(pt 84 4))
		(line (pt 109 4)(pt 113 8))
		(line (pt 109 12)(pt 113 8))
	)
	(text "VCC" (rect 128 7 148 17)(font "Arial" (font_size 6)))
)
(pin
	(input)
	(rect 136 128 304 144)
	(text "INPUT" (rect 125 0 153 10)(font "Arial" (font_size 6)))
	(text "i1" (rect 5 0 13 12)(font "Arial" ))
	(pt 168 8)
	(drawing
		(line (pt 84 12)(pt 109 12))
		(line (pt 84 4)(pt 109 4))
		(line (pt 113 8)(pt 168 8))
		(line (pt 84 12)(pt 84 4))
		(line (pt 109 4)(pt 113 8))
		(line (pt 109 12)(pt 113 8))
	)
	(text "VCC" (rect 128 7 148 17)(font "Arial" (font_size 6)))
)
(pin
	(input)
	(rect 136 160 304 176)
	(text "INPUT" (rect 125 0 153 10)(font "Arial" (font_size 6)))
	(text "i2" (rect 5 0 13 12)(font "Arial" ))
	(pt 168 8)
	(drawing
		(line (pt 84 12)(pt 109 12))
		(line (pt 84 4)(pt 109 4))
		(line (pt 113 8)(pt 168 8))
		(line (pt 84 12)(pt 84 4))
		(line (pt 109 4)(pt 113 8))
		(line (pt 109 12)(pt 113 8))
	)
	(text "VCC" (rect 128 7 148 17)(font "Arial" (font_size 6)))
)
(pin
	(input)
	(rect 136 176 304 192)
	(text "INPUT" (rect 125 0 153 10)(font "Arial" (font_size 6)))
	(text "i3" (rect 5 0 14 12)(font "Arial" ))
	(pt 168 8)
	(drawing
		(line (pt 84 12)(pt 109 12))
		(line (pt 84 4)(pt 109 4))
		(line (pt 113 8)(pt 168 8))
		(line (pt 84 12)(pt 84 4))
		(line (pt 109 4)(pt 113 8))
		(line (pt 109 12)(pt 113 8))
	)
	(text "VCC" (rect 128 7 148 17)(font "Arial" (font_size 6)))
)
(pin
	(output)
	(rect 560 144 736 160)
	(text "OUTPUT" (rect 1 0 39 10)(font "Arial" (font_size 6)))
	(text "o" (rect 90 0 95 12)(font "Arial" ))
	(pt 0 8)
	(drawing
		(line (pt 0 8)(pt 52 8))
		(line (pt 52 4)(pt 78 4))
		(line (pt 52 12)(pt 78 12))
		(line (pt 52 12)(pt 52 4))
		(line (pt 78 4)(pt 82 8))
		(line (pt 82 8)(pt 78 12))
		(line (pt 78 12)(pt 82 8))
	)
)
(symbol
	(rect 320 104 384 152)
	(text "NAND2" (rect 1 0 32 10)(font "Arial" (font_size 6)))
	(text "inst" (rect 3 37 20 49)(font "Arial" ))
	(port
		(pt 0 32)
		(input)
		(text "IN2" (rect 2 23 19 35)(font "Courier New" (bold))(invisible))
		(text "IN2" (rect 2 23 19 35)(font "Courier New" (bold))(invisible))
		(line (pt 0 32)(pt 15 32))
	)
	(port
		(pt 0 16)
		(input)
		(text "IN1" (rect 2 7 19 19)(font "Courier New" (bold))(invisible))
		(text "IN1" (rect 2 7 19 19)(font "Courier New" (bold))(invisible))
		(line (pt 0 16)(pt 15 16))
	)
	(port
		(pt 64 24)
		(output)
		(text "OUT" (rect 48 15 65 27)(font "Courier New" (bold))(invisible))
		(text "OUT" (rect 48 15 65 27)(font "Courier New" (bold))(invisible))
		(line (pt 52 24)(pt 64 24))
	)
	(drawing
		(line (pt 15 37)(pt 32 37))
		(line (pt 15 12)(pt 32 12))
		(line (pt 15 36)(pt 15 12))
		(arc (pt 32 36)(pt 32 12)(rect 20 12 45 37))
		(circle (rect 44 20 52 28))
	)
)
(symbol
	(rect 320 152 384 200)
	(text "NAND2" (rect 1 0 32 10)(font "Arial" (font_size 6)))
	(text "inst1" (rect 3 37 26 49)(font "Arial" ))
	(port
		(pt 0 32)
		(input)
		(text "IN2" (rect 2 23 19 35)(font "Courier New" (bold))(invisible))
		(text "IN2" (rect 2 23 19 35)(font "Courier New" (bold))(invisible))
		(line (pt 0 32)(pt 15 32))
	)
	(port
		(pt 0 16)
		(input)
		(text "IN1" (rect 2 7 19 19)(font "Courier New" (bold))(invisible))
		(text "IN1" (rect 2 7 19 19)(font "Courier New" (bold))(invisible))
		(line (pt 0 16)(pt 15 16))
	)
	(port
		(pt 64 24)
		(output)
		(text "OUT" (rect 48 15 65 27)(font "Courier New" (bold))(invisible))
		(text "OUT" (rect 48 15 65 27)(font "Courier New" (bold))(invisible))
		(line (pt 52 24)(pt 64 24))
	)
	(drawing
		(line (pt 15 37)(pt 32 37))
		(line (pt 15 12)(pt 32 12))
		(line (pt 15 36)(pt 15 12))
		(arc (pt 32 36)(pt 32 12)(rect 20 12 45 37))
		(circle (rect 44 20 52 28))
	)
)
(symbol
	(rect 400 152 464 200)
	(text "NAND2" (rect 1 0 32 10)(font "Arial" (font_size 6)))
	(text "inst2" (rect 3 37 26 49)(font "Arial" ))
	(port
		(pt 0 32)
		(input)
		(text "IN2" (rect 2 23 19 35)(font "Courier New" (bold))(invisible))
		(text "IN2" (rect 2 23 19 35)(font "Courier New" (bold))(invisible))
		(line (pt 0 32)(pt 15 32))
	)
	(port
		(pt 0 16)
		(input)
		(text "IN1" (rect 2 7 19 19)(font "Courier New" (bold))(invisible))
		(text "IN1" (rect 2 7 19 19)(font "Courier New" (bold))(invisible))
		(line (pt 0 16)(pt 15 16))
	)
	(port
		(pt 64 24)
		(output)
		(text "OUT" (rect 48 15 65 27)(font "Courier New" (bold))(invisible))
		(text "OUT" (rect 48 15 65 27)(font "Courier New" (bold))(invisible))
		(line (pt 52 24)(pt 64 24))
	)
	(drawing
		(line (pt 15 37)(pt 32 37))
		(line (pt 15 12)(pt 32 12))
		(line (pt 15 36)(pt 15 12))
		(arc (pt 32 36)(pt 32 12)(rect 20 12 45 37))
		(circle (rect 44 20 52 28))
	)
)
(symbol
	(rect 400 104 464 152)
	(text "NAND2" (rect 1 0 32 10)(font "Arial" (font_size 6)))
	(text "inst4" (rect 3 37 26 49)(font "Arial" ))
	(port
		(pt 0 32)
		(input)
		(text "IN2" (rect 2 23 19 35)(font "Courier New" (bold))(invisible))
		(text "IN2" (rect 2 23 19 35)(font "Courier New" (bold))(invisible))
		(line (pt 0 32)(pt 15 32))
	)
	(port
		(pt 0 16)
		(input)
		(text "IN1" (rect 2 7 19 19)(font "Courier New" (bold))(invisible))
		(text "IN1" (rect 2 7 19 19)(font "Courier New" (bold))(invisible))
		(line (pt 0 16)(pt 15 16))
	)
	(port
		(pt 64 24)
		(output)
		(text "OUT" (rect 48 15 65 27)(font "Courier New" (bold))(invisible))
		(text "OUT" (rect 48 15 65 27)(font "Courier New" (bold))(invisible))
		(line (pt 52 24)(pt 64 24))
	)
	(drawing
		(line (pt 15 37)(pt 32 37))
		(line (pt 15 12)(pt 32 12))
		(line (pt 15 36)(pt 15 12))
		(arc (pt 32 36)(pt 32 12)(rect 20 12 45 37))
		(circle (rect 44 20 52 28))
	)
)
(symbol
	(rect 480 128 544 176)
	(text "NAND2" (rect 1 0 32 10)(font "Arial" (font_size 6)))
	(text "inst5" (rect 3 37 26 49)(font "Arial" ))
	(port
		(pt 0 32)
		(input)
		(text "IN2" (rect 2 23 19 35)(font "Courier New" (bold))(invisible))
		(text "IN2" (rect 2 23 19 35)(font "Courier New" (bold))(invisible))
		(line (pt 0 32)(pt 15 32))
	)
	(port
		(pt 0 16)
		(input)
		(text "IN1" (rect 2 7 19 19)(font "Courier New" (bold))(invisible))
		(text "IN1" (rect 2 7 19 19)(font "Courier New" (bold))(invisible))
		(line (pt 0 16)(pt 15 16))
	)
	(port
		(pt 64 24)
		(output)
		(text "OUT" (rect 48 15 65 27)(font "Courier New" (bold))(invisible))
		(text "OUT" (rect 48 15 65 27)(font "Courier New" (bold))(invisible))
		(line (pt 52 24)(pt 64 24))
	)
	(drawing
		(line (pt 15 37)(pt 32 37))
		(line (pt 15 12)(pt 32 12))
		(line (pt 15 36)(pt 15 12))
		(arc (pt 32 36)(pt 32 12)(rect 20 12 45 37))
		(circle (rect 44 20 52 28))
	)
)
(connector
	(pt 464 128)
	(pt 472 128)
)
(connector
	(pt 464 176)
	(pt 472 176)
)
(connector
	(pt 472 128)
	(pt 472 144)
)
(connector
	(pt 472 144)
	(pt 480 144)
)
(connector
	(pt 472 160)
	(pt 480 160)
)
(connector
	(pt 472 176)
	(pt 472 160)
)
(connector
	(pt 544 152)
	(pt 560 152)
)
(connector
	(pt 400 136)
	(pt 392 136)
)
(connector
	(pt 384 128)
	(pt 392 128)
)
(connector
	(pt 392 120)
	(pt 392 128)
)
(connector
	(pt 392 128)
	(pt 392 136)
)
(connector
	(pt 392 120)
	(pt 400 120)
)
(connector
	(pt 384 176)
	(pt 392 176)
)
(connector
	(pt 392 168)
	(pt 400 168)
)
(connector
	(pt 392 184)
	(pt 400 184)
)
(connector
	(pt 392 168)
	(pt 392 176)
)
(connector
	(pt 392 176)
	(pt 392 184)
)
(connector
	(pt 320 168)
	(pt 304 168)
)
(connector
	(pt 304 184)
	(pt 320 184)
)
(connector
	(pt 320 136)
	(pt 304 136)
)
(connector
	(pt 320 120)
	(pt 304 120)
)
(junction (pt 392 128))
(junction (pt 392 176))
