/*
WARNING: Do NOT edit the input and output ports in this file in a text
editor if you plan to continue editing the block that represents it in
the Block Editor! File corruption is VERY likely to occur.
*/
/*
Copyright (C) 1991-2013 Altera Corporation
Your use of Altera Corporation's design tools, logic functions 
and other software and tools, and its AMPP partner logic 
functions, and any output files from any of the foregoing 
(including device programming or simulation files), and any 
associated documentation or information are expressly subject 
to the terms and conditions of the Altera Program License 
Subscription Agreement, Altera MegaCore Function License 
Agreement, or other applicable license agreement, including, 
without limitation, that your use is for the sole purpose of 
programming logic devices manufactured by Altera and sold by 
Altera or its authorized distributors.  Please refer to the 
applicable agreement for further details.
*/
(header "graphic" (version "1.4"))
(pin
	(input)
	(rect 80 96 248 112)
	(text "INPUT" (rect 125 0 153 10)(font "Arial" (font_size 6)))
	(text "D[7..0]" (rect 5 0 39 12)(font "Arial" ))
	(pt 168 8)
	(drawing
		(line (pt 84 12)(pt 109 12))
		(line (pt 84 4)(pt 109 4))
		(line (pt 113 8)(pt 168 8))
		(line (pt 84 12)(pt 84 4))
		(line (pt 109 4)(pt 113 8))
		(line (pt 109 12)(pt 113 8))
	)
	(text "VCC" (rect 128 7 148 17)(font "Arial" (font_size 6)))
)
(pin
	(output)
	(rect 672 72 848 88)
	(text "OUTPUT" (rect 1 0 39 10)(font "Arial" (font_size 6)))
	(text "Q1" (rect 90 0 104 12)(font "Arial" ))
	(pt 0 8)
	(drawing
		(line (pt 0 8)(pt 52 8))
		(line (pt 52 4)(pt 78 4))
		(line (pt 52 12)(pt 78 12))
		(line (pt 52 12)(pt 52 4))
		(line (pt 78 4)(pt 82 8))
		(line (pt 82 8)(pt 78 12))
		(line (pt 78 12)(pt 82 8))
	)
)
(symbol
	(rect 320 72 368 104)
	(text "NOT" (rect 1 0 21 10)(font "Arial" (font_size 6)))
	(text "n5" (rect 3 21 14 33)(font "Arial" ))
	(port
		(pt 0 16)
		(input)
		(text "IN" (rect 2 7 13 19)(font "Courier New" (bold))(invisible))
		(text "IN" (rect 2 7 13 19)(font "Courier New" (bold))(invisible))
		(line (pt 0 16)(pt 13 16))
	)
	(port
		(pt 48 16)
		(output)
		(text "OUT" (rect 32 7 49 19)(font "Courier New" (bold))(invisible))
		(text "OUT" (rect 32 7 49 19)(font "Courier New" (bold))(invisible))
		(line (pt 39 16)(pt 48 16))
	)
	(drawing
		(line (pt 13 25)(pt 13 7))
		(line (pt 13 7)(pt 31 16))
		(line (pt 13 25)(pt 31 16))
		(circle (rect 31 12 39 20))
	)
)
(symbol
	(rect 320 104 368 136)
	(text "NOT" (rect 1 0 21 10)(font "Arial" (font_size 6)))
	(text "n4" (rect 3 21 14 33)(font "Arial" ))
	(port
		(pt 0 16)
		(input)
		(text "IN" (rect 2 7 13 19)(font "Courier New" (bold))(invisible))
		(text "IN" (rect 2 7 13 19)(font "Courier New" (bold))(invisible))
		(line (pt 0 16)(pt 13 16))
	)
	(port
		(pt 48 16)
		(output)
		(text "OUT" (rect 32 7 49 19)(font "Courier New" (bold))(invisible))
		(text "OUT" (rect 32 7 49 19)(font "Courier New" (bold))(invisible))
		(line (pt 39 16)(pt 48 16))
	)
	(drawing
		(line (pt 13 25)(pt 13 7))
		(line (pt 13 7)(pt 31 16))
		(line (pt 13 25)(pt 31 16))
		(circle (rect 31 12 39 20))
	)
)
(symbol
	(rect 408 80 472 128)
	(text "AND2" (rect 1 0 25 10)(font "Arial" (font_size 6)))
	(text "n5n4" (rect 3 37 26 49)(font "Arial" ))
	(port
		(pt 0 16)
		(input)
		(text "IN1" (rect 2 7 19 19)(font "Courier New" (bold))(invisible))
		(text "IN1" (rect 2 7 19 19)(font "Courier New" (bold))(invisible))
		(line (pt 0 16)(pt 14 16))
	)
	(port
		(pt 0 32)
		(input)
		(text "IN2" (rect 2 23 19 35)(font "Courier New" (bold))(invisible))
		(text "IN2" (rect 2 23 19 35)(font "Courier New" (bold))(invisible))
		(line (pt 0 32)(pt 14 32))
	)
	(port
		(pt 64 24)
		(output)
		(text "OUT" (rect 48 15 65 27)(font "Courier New" (bold))(invisible))
		(text "OUT" (rect 48 15 65 27)(font "Courier New" (bold))(invisible))
		(line (pt 42 24)(pt 64 24))
	)
	(drawing
		(line (pt 14 12)(pt 30 12))
		(line (pt 14 37)(pt 31 37))
		(line (pt 14 12)(pt 14 37))
		(arc (pt 31 37)(pt 30 12)(rect 18 12 43 37))
	)
)
(symbol
	(rect 504 104 568 152)
	(text "AND2" (rect 1 0 25 10)(font "Arial" (font_size 6)))
	(text "para" (rect 3 37 24 49)(font "Arial" ))
	(port
		(pt 0 16)
		(input)
		(text "IN1" (rect 2 7 19 19)(font "Courier New" (bold))(invisible))
		(text "IN1" (rect 2 7 19 19)(font "Courier New" (bold))(invisible))
		(line (pt 0 16)(pt 14 16))
	)
	(port
		(pt 0 32)
		(input)
		(text "IN2" (rect 2 23 19 35)(font "Courier New" (bold))(invisible))
		(text "IN2" (rect 2 23 19 35)(font "Courier New" (bold))(invisible))
		(line (pt 0 32)(pt 14 32))
	)
	(port
		(pt 64 24)
		(output)
		(text "OUT" (rect 48 15 65 27)(font "Courier New" (bold))(invisible))
		(text "OUT" (rect 48 15 65 27)(font "Courier New" (bold))(invisible))
		(line (pt 42 24)(pt 64 24))
	)
	(drawing
		(line (pt 14 12)(pt 30 12))
		(line (pt 14 37)(pt 31 37))
		(line (pt 14 12)(pt 14 37))
		(arc (pt 31 37)(pt 30 12)(rect 18 12 43 37))
	)
)
(symbol
	(rect 408 128 472 176)
	(text "OR2" (rect 1 0 19 10)(font "Arial" (font_size 6)))
	(text "d2d3" (rect 3 37 26 49)(font "Arial" ))
	(port
		(pt 0 32)
		(input)
		(text "IN2" (rect 2 23 19 35)(font "Courier New" (bold))(invisible))
		(text "IN2" (rect 2 23 19 35)(font "Courier New" (bold))(invisible))
		(line (pt 0 32)(pt 15 32))
	)
	(port
		(pt 0 16)
		(input)
		(text "IN1" (rect 2 7 19 19)(font "Courier New" (bold))(invisible))
		(text "IN1" (rect 2 7 19 19)(font "Courier New" (bold))(invisible))
		(line (pt 0 16)(pt 15 16))
	)
	(port
		(pt 64 24)
		(output)
		(text "OUT" (rect 48 15 65 27)(font "Courier New" (bold))(invisible))
		(text "OUT" (rect 48 15 65 27)(font "Courier New" (bold))(invisible))
		(line (pt 48 24)(pt 64 24))
	)
	(drawing
		(line (pt 14 36)(pt 25 36))
		(line (pt 14 13)(pt 25 13))
		(arc (pt 7 29)(pt 7 19)(rect -14 8 19 41))
		(arc (pt 49 24)(pt 25 13)(rect -6 13 57 76))
		(arc (pt 25 35)(pt 49 24)(rect -6 -27 57 36))
	)
)
(symbol
	(rect 600 56 664 104)
	(text "OR3" (rect 1 0 19 10)(font "Arial" (font_size 6)))
	(text "parad6d7" (rect 3 37 47 49)(font "Arial" ))
	(port
		(pt 0 24)
		(input)
		(text "IN2" (rect 2 15 19 27)(font "Courier New" (bold))(invisible))
		(text "IN2" (rect 2 15 19 27)(font "Courier New" (bold))(invisible))
		(line (pt 0 24)(pt 18 24))
	)
	(port
		(pt 0 32)
		(input)
		(text "IN3" (rect 2 24 19 36)(font "Courier New" (bold))(invisible))
		(text "IN3" (rect 2 24 19 36)(font "Courier New" (bold))(invisible))
		(line (pt 0 32)(pt 16 32))
	)
	(port
		(pt 0 16)
		(input)
		(text "IN1" (rect 2 7 19 19)(font "Courier New" (bold))(invisible))
		(text "IN1" (rect 2 7 19 19)(font "Courier New" (bold))(invisible))
		(line (pt 0 16)(pt 16 16))
	)
	(port
		(pt 64 24)
		(output)
		(text "OUT" (rect 47 15 64 27)(font "Courier New" (bold))(invisible))
		(text "OUT" (rect 47 15 64 27)(font "Courier New" (bold))(invisible))
		(line (pt 49 24)(pt 64 24))
	)
	(drawing
		(line (pt 14 13)(pt 25 13))
		(line (pt 14 36)(pt 25 36))
		(arc (pt 7 29)(pt 7 19)(rect -14 8 19 41))
		(arc (pt 49 24)(pt 25 13)(rect -6 13 57 76))
		(arc (pt 25 35)(pt 49 24)(rect -6 -27 57 36))
	)
)
(connector
	(pt 288 104)
	(pt 248 104)
	(bus)
)
(connector
	(text "D[5]" (rect 298 72 319 84)(font "Arial" ))
	(pt 320 88)
	(pt 288 88)
)
(connector
	(pt 288 88)
	(pt 288 104)
	(bus)
)
(connector
	(text "D[4]" (rect 298 104 319 116)(font "Arial" ))
	(pt 320 120)
	(pt 288 120)
)
(connector
	(pt 288 104)
	(pt 288 120)
	(bus)
)
(connector
	(pt 288 48)
	(pt 288 64)
	(bus)
)
(connector
	(pt 288 64)
	(pt 288 88)
	(bus)
)
(connector
	(text "D[0]" (rect 298 176 319 188)(font "Arial" ))
	(pt 288 192)
	(pt 312 192)
)
(connector
	(text "D[1]" (rect 298 160 319 172)(font "Arial" ))
	(pt 288 176)
	(pt 312 176)
)
(connector
	(pt 288 120)
	(pt 288 144)
	(bus)
)
(connector
	(pt 288 176)
	(pt 288 192)
	(bus)
)
(connector
	(pt 368 88)
	(pt 400 88)
)
(connector
	(pt 400 88)
	(pt 400 96)
)
(connector
	(pt 400 96)
	(pt 408 96)
)
(connector
	(pt 408 112)
	(pt 376 112)
)
(connector
	(pt 376 112)
	(pt 376 120)
)
(connector
	(pt 376 120)
	(pt 368 120)
)
(connector
	(text "D[3]" (rect 298 128 319 140)(font "Arial" ))
	(pt 288 144)
	(pt 408 144)
)
(connector
	(text "D[2]" (rect 298 144 319 156)(font "Arial" ))
	(pt 408 160)
	(pt 288 160)
)
(connector
	(pt 288 144)
	(pt 288 160)
	(bus)
)
(connector
	(pt 288 160)
	(pt 288 176)
	(bus)
)
(connector
	(pt 472 152)
	(pt 488 152)
)
(connector
	(pt 488 152)
	(pt 488 136)
)
(connector
	(pt 488 136)
	(pt 504 136)
)
(connector
	(pt 504 120)
	(pt 488 120)
)
(connector
	(pt 488 120)
	(pt 488 104)
)
(connector
	(pt 488 104)
	(pt 472 104)
)
(connector
	(pt 568 128)
	(pt 584 128)
)
(connector
	(pt 584 128)
	(pt 584 88)
)
(connector
	(pt 584 88)
	(pt 600 88)
)
(connector
	(pt 600 80)
	(pt 488 80)
)
(connector
	(pt 488 80)
	(pt 488 64)
)
(connector
	(text "D[6]" (rect 298 48 319 60)(font "Arial" ))
	(pt 288 64)
	(pt 488 64)
)
(connector
	(text "D[7]" (rect 298 32 319 44)(font "Arial" ))
	(pt 536 48)
	(pt 288 48)
)
(connector
	(pt 536 48)
	(pt 536 72)
)
(connector
	(pt 536 72)
	(pt 600 72)
)
(connector
	(pt 664 80)
	(pt 672 80)
)
(junction (pt 288 104))
(junction (pt 288 88))
(junction (pt 288 120))
(junction (pt 288 64))
(junction (pt 288 144))
(junction (pt 288 176))
(junction (pt 288 160))
