/*
WARNING: Do NOT edit the input and output ports in this file in a text
editor if you plan to continue editing the block that represents it in
the Block Editor! File corruption is VERY likely to occur.
*/
/*
Copyright (C) 1991-2013 Altera Corporation
Your use of Altera Corporation's design tools, logic functions 
and other software and tools, and its AMPP partner logic 
functions, and any output files from any of the foregoing 
(including device programming or simulation files), and any 
associated documentation or information are expressly subject 
to the terms and conditions of the Altera Program License 
Subscription Agreement, Altera MegaCore Function License 
Agreement, or other applicable license agreement, including, 
without limitation, that your use is for the sole purpose of 
programming logic devices manufactured by Altera and sold by 
Altera or its authorized distributors.  Please refer to the 
applicable agreement for further details.
*/
(header "graphic" (version "1.4"))
(pin
	(input)
	(rect 32 200 200 216)
	(text "INPUT" (rect 125 0 153 10)(font "Arial" (font_size 6)))
	(text "IN" (rect 5 0 16 12)(font "Arial" ))
	(pt 168 8)
	(drawing
		(line (pt 84 12)(pt 109 12))
		(line (pt 84 4)(pt 109 4))
		(line (pt 113 8)(pt 168 8))
		(line (pt 84 12)(pt 84 4))
		(line (pt 109 4)(pt 113 8))
		(line (pt 109 12)(pt 113 8))
	)
	(text "VCC" (rect 128 7 148 17)(font "Arial" (font_size 6)))
)
(pin
	(input)
	(rect 32 248 200 264)
	(text "INPUT" (rect 125 0 153 10)(font "Arial" (font_size 6)))
	(text "Select_Chip" (rect 5 0 64 12)(font "Arial" ))
	(pt 168 8)
	(drawing
		(line (pt 84 12)(pt 109 12))
		(line (pt 84 4)(pt 109 4))
		(line (pt 113 8)(pt 168 8))
		(line (pt 84 12)(pt 84 4))
		(line (pt 109 4)(pt 113 8))
		(line (pt 109 12)(pt 113 8))
	)
	(text "VCC" (rect 128 7 148 17)(font "Arial" (font_size 6)))
)
(pin
	(input)
	(rect 32 264 200 280)
	(text "INPUT" (rect 125 0 153 10)(font "Arial" (font_size 6)))
	(text "Write_Enable" (rect 5 0 69 12)(font "Arial" ))
	(pt 168 8)
	(drawing
		(line (pt 84 12)(pt 109 12))
		(line (pt 84 4)(pt 109 4))
		(line (pt 113 8)(pt 168 8))
		(line (pt 84 12)(pt 84 4))
		(line (pt 109 4)(pt 113 8))
		(line (pt 109 12)(pt 113 8))
	)
	(text "VCC" (rect 128 7 148 17)(font "Arial" (font_size 6)))
)
(pin
	(output)
	(rect 696 184 872 200)
	(text "OUTPUT" (rect 1 0 39 10)(font "Arial" (font_size 6)))
	(text "OUT" (rect 90 0 112 12)(font "Arial" ))
	(pt 0 8)
	(drawing
		(line (pt 0 8)(pt 52 8))
		(line (pt 52 4)(pt 78 4))
		(line (pt 52 12)(pt 78 12))
		(line (pt 52 12)(pt 52 4))
		(line (pt 78 4)(pt 82 8))
		(line (pt 82 8)(pt 78 12))
		(line (pt 78 12)(pt 82 8))
	)
)
(symbol
	(rect 352 160 480 240)
	(text "d_latch" (rect 5 0 40 12)(font "Arial" ))
	(text "inst" (rect 8 64 25 76)(font "Arial" ))
	(port
		(pt 0 32)
		(input)
		(text "C" (rect 0 0 8 12)(font "Arial" ))
		(text "C" (rect 21 27 29 39)(font "Arial" ))
		(line (pt 0 32)(pt 16 32))
	)
	(port
		(pt 0 48)
		(input)
		(text "D" (rect 0 0 8 12)(font "Arial" ))
		(text "D" (rect 21 43 29 55)(font "Arial" ))
		(line (pt 0 48)(pt 16 48))
	)
	(port
		(pt 128 32)
		(bidir)
		(text "Q" (rect 0 0 8 12)(font "Arial" ))
		(text "Q" (rect 100 27 108 39)(font "Arial" ))
		(line (pt 128 32)(pt 112 32))
	)
	(port
		(pt 128 48)
		(bidir)
		(text "Qnot" (rect 0 0 23 12)(font "Arial" ))
		(text "Qnot" (rect 89 43 112 55)(font "Arial" ))
		(line (pt 128 48)(pt 112 48))
	)
	(drawing
		(rectangle (rect 16 16 112 64))
	)
)
(symbol
	(rect 504 160 632 240)
	(text "d_latch" (rect 5 0 40 12)(font "Arial" ))
	(text "inst2" (rect 8 64 31 76)(font "Arial" ))
	(port
		(pt 0 32)
		(input)
		(text "C" (rect 0 0 8 12)(font "Arial" ))
		(text "C" (rect 21 27 29 39)(font "Arial" ))
		(line (pt 0 32)(pt 16 32))
	)
	(port
		(pt 0 48)
		(input)
		(text "D" (rect 0 0 8 12)(font "Arial" ))
		(text "D" (rect 21 43 29 55)(font "Arial" ))
		(line (pt 0 48)(pt 16 48))
	)
	(port
		(pt 128 32)
		(bidir)
		(text "Q" (rect 0 0 8 12)(font "Arial" ))
		(text "Q" (rect 100 27 108 39)(font "Arial" ))
		(line (pt 128 32)(pt 112 32))
	)
	(port
		(pt 128 48)
		(bidir)
		(text "Qnot" (rect 0 0 23 12)(font "Arial" ))
		(text "Qnot" (rect 89 43 112 55)(font "Arial" ))
		(line (pt 128 48)(pt 112 48))
	)
	(drawing
		(rectangle (rect 16 16 112 64))
	)
)
(symbol
	(rect 216 240 280 288)
	(text "AND2" (rect 1 0 25 10)(font "Arial" (font_size 6)))
	(text "inst3" (rect 3 37 26 49)(font "Arial" ))
	(port
		(pt 0 16)
		(input)
		(text "IN1" (rect 2 7 19 19)(font "Courier New" (bold))(invisible))
		(text "IN1" (rect 2 7 19 19)(font "Courier New" (bold))(invisible))
		(line (pt 0 16)(pt 14 16))
	)
	(port
		(pt 0 32)
		(input)
		(text "IN2" (rect 2 23 19 35)(font "Courier New" (bold))(invisible))
		(text "IN2" (rect 2 23 19 35)(font "Courier New" (bold))(invisible))
		(line (pt 0 32)(pt 14 32))
	)
	(port
		(pt 64 24)
		(output)
		(text "OUT" (rect 48 15 65 27)(font "Courier New" (bold))(invisible))
		(text "OUT" (rect 48 15 65 27)(font "Courier New" (bold))(invisible))
		(line (pt 42 24)(pt 64 24))
	)
	(drawing
		(line (pt 14 12)(pt 30 12))
		(line (pt 14 37)(pt 31 37))
		(line (pt 14 12)(pt 14 37))
		(arc (pt 31 37)(pt 30 12)(rect 18 12 43 37))
	)
)
(symbol
	(rect 296 176 344 208)
	(text "NOT" (rect 1 0 21 10)(font "Arial" (font_size 6)))
	(text "inst4" (rect 3 21 26 33)(font "Arial" ))
	(port
		(pt 0 16)
		(input)
		(text "IN" (rect 2 7 13 19)(font "Courier New" (bold))(invisible))
		(text "IN" (rect 2 7 13 19)(font "Courier New" (bold))(invisible))
		(line (pt 0 16)(pt 13 16))
	)
	(port
		(pt 48 16)
		(output)
		(text "OUT" (rect 32 7 49 19)(font "Courier New" (bold))(invisible))
		(text "OUT" (rect 32 7 49 19)(font "Courier New" (bold))(invisible))
		(line (pt 39 16)(pt 48 16))
	)
	(drawing
		(line (pt 13 25)(pt 13 7))
		(line (pt 13 7)(pt 31 16))
		(line (pt 13 25)(pt 31 16))
		(circle (rect 31 12 39 20))
	)
)
(symbol
	(rect 640 176 688 208)
	(text "TRI" (rect 1 0 16 10)(font "Arial" (font_size 6)))
	(text "inst5" (rect 3 21 26 33)(font "Arial" ))
	(port
		(pt 0 16)
		(input)
		(text "IN" (rect 2 7 13 19)(font "Courier New" (bold))(invisible))
		(text "IN" (rect 2 7 13 19)(font "Courier New" (bold))(invisible))
		(line (pt 0 16)(pt 14 16))
	)
	(port
		(pt 24 0)
		(input)
		(text "OE" (rect 26 0 37 12)(font "Courier New" (bold))(invisible))
		(text "OE" (rect 26 0 37 12)(font "Courier New" (bold))(invisible))
		(line (pt 24 12)(pt 24 0))
	)
	(port
		(pt 48 16)
		(output)
		(text "OUT" (rect 32 7 49 19)(font "Courier New" (bold))(invisible))
		(text "OUT" (rect 32 7 49 19)(font "Courier New" (bold))(invisible))
		(line (pt 32 16)(pt 48 16))
	)
	(drawing
		(line (pt 14 25)(pt 14 7))
		(line (pt 14 25)(pt 32 16))
		(line (pt 14 7)(pt 32 16))
	)
)
(connector
	(pt 200 272)
	(pt 216 272)
)
(connector
	(pt 208 152)
	(pt 208 256)
)
(connector
	(pt 200 256)
	(pt 208 256)
)
(connector
	(pt 208 256)
	(pt 216 256)
)
(connector
	(pt 632 192)
	(pt 640 192)
)
(connector
	(pt 688 192)
	(pt 696 192)
)
(connector
	(pt 664 152)
	(pt 664 176)
)
(connector
	(pt 208 152)
	(pt 664 152)
)
(connector
	(pt 496 192)
	(pt 496 264)
)
(connector
	(pt 504 192)
	(pt 496 192)
)
(connector
	(pt 480 192)
	(pt 488 192)
)
(connector
	(pt 488 192)
	(pt 488 208)
)
(connector
	(pt 488 208)
	(pt 504 208)
)
(connector
	(pt 288 264)
	(pt 288 192)
)
(connector
	(pt 288 192)
	(pt 296 192)
)
(connector
	(pt 280 264)
	(pt 288 264)
)
(connector
	(pt 288 264)
	(pt 496 264)
)
(connector
	(pt 352 192)
	(pt 344 192)
)
(connector
	(pt 352 208)
	(pt 200 208)
)
(junction (pt 288 264))
(junction (pt 208 256))
