/*
WARNING: Do NOT edit the input and output ports in this file in a text
editor if you plan to continue editing the block that represents it in
the Block Editor! File corruption is VERY likely to occur.
*/
/*
Copyright (C) 1991-2013 Altera Corporation
Your use of Altera Corporation's design tools, logic functions 
and other software and tools, and its AMPP partner logic 
functions, and any output files from any of the foregoing 
(including device programming or simulation files), and any 
associated documentation or information are expressly subject 
to the terms and conditions of the Altera Program License 
Subscription Agreement, Altera MegaCore Function License 
Agreement, or other applicable license agreement, including, 
without limitation, that your use is for the sole purpose of 
programming logic devices manufactured by Altera and sold by 
Altera or its authorized distributors.  Please refer to the 
applicable agreement for further details.
*/
(header "graphic" (version "1.4"))
(pin
	(input)
	(rect 0 -16 168 0)
	(text "INPUT" (rect 125 0 153 10)(font "Arial" (font_size 6)))
	(text "A0" (rect 5 0 17 12)(font "Arial" ))
	(pt 168 8)
	(drawing
		(line (pt 84 12)(pt 109 12))
		(line (pt 84 4)(pt 109 4))
		(line (pt 113 8)(pt 168 8))
		(line (pt 84 12)(pt 84 4))
		(line (pt 109 4)(pt 113 8))
		(line (pt 109 12)(pt 113 8))
	)
	(text "VCC" (rect 128 7 148 17)(font "Arial" (font_size 6)))
)
(pin
	(input)
	(rect 0 32 168 48)
	(text "INPUT" (rect 125 0 153 10)(font "Arial" (font_size 6)))
	(text "A1" (rect 5 0 17 12)(font "Arial" ))
	(pt 168 8)
	(drawing
		(line (pt 84 12)(pt 109 12))
		(line (pt 84 4)(pt 109 4))
		(line (pt 113 8)(pt 168 8))
		(line (pt 84 12)(pt 84 4))
		(line (pt 109 4)(pt 113 8))
		(line (pt 109 12)(pt 113 8))
	)
	(text "VCC" (rect 128 7 148 17)(font "Arial" (font_size 6)))
)
(pin
	(input)
	(rect 0 80 168 96)
	(text "INPUT" (rect 125 0 153 10)(font "Arial" (font_size 6)))
	(text "A2" (rect 5 0 17 12)(font "Arial" ))
	(pt 168 8)
	(drawing
		(line (pt 84 12)(pt 109 12))
		(line (pt 84 4)(pt 109 4))
		(line (pt 113 8)(pt 168 8))
		(line (pt 84 12)(pt 84 4))
		(line (pt 109 4)(pt 113 8))
		(line (pt 109 12)(pt 113 8))
	)
	(text "VCC" (rect 128 7 148 17)(font "Arial" (font_size 6)))
)
(pin
	(output)
	(rect 256 304 272 480)
	(text "OUTPUT" (rect 6 1 16 39)(font "Arial" (font_size 6))(vertical))
	(text "O7" (rect 5 89 17 103)(font "Arial" )(vertical))
	(pt 8 0)
	(drawing
		(line (pt 8 0)(pt 8 52))
		(line (pt 12 52)(pt 12 78))
		(line (pt 4 52)(pt 4 78))
		(line (pt 4 52)(pt 12 52))
		(line (pt 12 78)(pt 8 82))
		(line (pt 8 82)(pt 4 78))
		(line (pt 4 78)(pt 8 82))
	)
	(rotate270)
)
(pin
	(output)
	(rect 704 304 720 480)
	(text "OUTPUT" (rect 6 1 16 39)(font "Arial" (font_size 6))(vertical))
	(text "O0" (rect 4 90 16 104)(font "Arial" )(vertical))
	(pt 8 0)
	(drawing
		(line (pt 8 0)(pt 8 52))
		(line (pt 12 52)(pt 12 78))
		(line (pt 4 52)(pt 4 78))
		(line (pt 4 52)(pt 12 52))
		(line (pt 12 78)(pt 8 82))
		(line (pt 8 82)(pt 4 78))
		(line (pt 4 78)(pt 8 82))
	)
	(rotate270)
)
(pin
	(output)
	(rect 640 304 656 480)
	(text "OUTPUT" (rect 6 1 16 39)(font "Arial" (font_size 6))(vertical))
	(text "O1" (rect 4 90 16 104)(font "Arial" )(vertical))
	(pt 8 0)
	(drawing
		(line (pt 8 0)(pt 8 52))
		(line (pt 12 52)(pt 12 78))
		(line (pt 4 52)(pt 4 78))
		(line (pt 4 52)(pt 12 52))
		(line (pt 12 78)(pt 8 82))
		(line (pt 8 82)(pt 4 78))
		(line (pt 4 78)(pt 8 82))
	)
	(rotate270)
)
(pin
	(output)
	(rect 576 304 592 480)
	(text "OUTPUT" (rect 6 1 16 39)(font "Arial" (font_size 6))(vertical))
	(text "O2" (rect 4 90 16 104)(font "Arial" )(vertical))
	(pt 8 0)
	(drawing
		(line (pt 8 0)(pt 8 52))
		(line (pt 12 52)(pt 12 78))
		(line (pt 4 52)(pt 4 78))
		(line (pt 4 52)(pt 12 52))
		(line (pt 12 78)(pt 8 82))
		(line (pt 8 82)(pt 4 78))
		(line (pt 4 78)(pt 8 82))
	)
	(rotate270)
)
(pin
	(output)
	(rect 512 304 528 480)
	(text "OUTPUT" (rect 6 1 16 39)(font "Arial" (font_size 6))(vertical))
	(text "O3" (rect 4 90 16 104)(font "Arial" )(vertical))
	(pt 8 0)
	(drawing
		(line (pt 8 0)(pt 8 52))
		(line (pt 12 52)(pt 12 78))
		(line (pt 4 52)(pt 4 78))
		(line (pt 4 52)(pt 12 52))
		(line (pt 12 78)(pt 8 82))
		(line (pt 8 82)(pt 4 78))
		(line (pt 4 78)(pt 8 82))
	)
	(rotate270)
)
(pin
	(output)
	(rect 448 304 464 480)
	(text "OUTPUT" (rect 6 1 16 39)(font "Arial" (font_size 6))(vertical))
	(text "O4" (rect 4 90 16 104)(font "Arial" )(vertical))
	(pt 8 0)
	(drawing
		(line (pt 8 0)(pt 8 52))
		(line (pt 12 52)(pt 12 78))
		(line (pt 4 52)(pt 4 78))
		(line (pt 4 52)(pt 12 52))
		(line (pt 12 78)(pt 8 82))
		(line (pt 8 82)(pt 4 78))
		(line (pt 4 78)(pt 8 82))
	)
	(rotate270)
)
(pin
	(output)
	(rect 384 304 400 480)
	(text "OUTPUT" (rect 6 1 16 39)(font "Arial" (font_size 6))(vertical))
	(text "O5" (rect 4 90 16 104)(font "Arial" )(vertical))
	(pt 8 0)
	(drawing
		(line (pt 8 0)(pt 8 52))
		(line (pt 12 52)(pt 12 78))
		(line (pt 4 52)(pt 4 78))
		(line (pt 4 52)(pt 12 52))
		(line (pt 12 78)(pt 8 82))
		(line (pt 8 82)(pt 4 78))
		(line (pt 4 78)(pt 8 82))
	)
	(rotate270)
)
(pin
	(output)
	(rect 320 304 336 480)
	(text "OUTPUT" (rect 6 1 16 39)(font "Arial" (font_size 6))(vertical))
	(text "O6" (rect 5 89 17 103)(font "Arial" )(vertical))
	(pt 8 0)
	(drawing
		(line (pt 8 0)(pt 8 52))
		(line (pt 12 52)(pt 12 78))
		(line (pt 4 52)(pt 4 78))
		(line (pt 4 52)(pt 12 52))
		(line (pt 12 78)(pt 8 82))
		(line (pt 8 82)(pt 4 78))
		(line (pt 4 78)(pt 8 82))
	)
	(rotate270)
)
(symbol
	(rect 248 152 296 216)
	(text "AND2" (rect 38 1 48 25)(font "Arial" (font_size 6))(vertical))
	(text "inst" (rect -1 3 11 20)(font "Arial" )(vertical))
	(port
		(pt 32 0)
		(input)
		(text "IN1" (rect 2 7 19 19)(font "Courier New" (bold))(invisible))
		(text "IN1" (rect 29 2 41 19)(font "Courier New" (bold))(vertical)(invisible))
		(line (pt 32 0)(pt 32 14))
	)
	(port
		(pt 16 0)
		(input)
		(text "IN2" (rect 2 23 19 35)(font "Courier New" (bold))(invisible))
		(text "IN2" (rect 13 2 25 19)(font "Courier New" (bold))(vertical)(invisible))
		(line (pt 16 0)(pt 16 14))
	)
	(port
		(pt 24 64)
		(output)
		(text "OUT" (rect 48 15 65 27)(font "Courier New" (bold))(invisible))
		(text "OUT" (rect 21 48 33 65)(font "Courier New" (bold))(vertical)(invisible))
		(line (pt 24 42)(pt 24 64))
	)
	(drawing
		(line (pt 36 14)(pt 36 30))
		(line (pt 11 14)(pt 11 31))
		(line (pt 36 14)(pt 11 14))
		(arc (pt 11 31)(pt 36 30)(rect 11 18 36 43))
	)
	(rotate270)
)
(symbol
	(rect 312 152 360 216)
	(text "AND2" (rect 38 1 48 25)(font "Arial" (font_size 6))(vertical))
	(text "inst2" (rect -1 3 11 26)(font "Arial" )(vertical))
	(port
		(pt 32 0)
		(input)
		(text "IN1" (rect 2 7 19 19)(font "Courier New" (bold))(invisible))
		(text "IN1" (rect 29 2 41 19)(font "Courier New" (bold))(vertical)(invisible))
		(line (pt 32 0)(pt 32 14))
	)
	(port
		(pt 16 0)
		(input)
		(text "IN2" (rect 2 23 19 35)(font "Courier New" (bold))(invisible))
		(text "IN2" (rect 13 2 25 19)(font "Courier New" (bold))(vertical)(invisible))
		(line (pt 16 0)(pt 16 14))
	)
	(port
		(pt 24 64)
		(output)
		(text "OUT" (rect 48 15 65 27)(font "Courier New" (bold))(invisible))
		(text "OUT" (rect 21 48 33 65)(font "Courier New" (bold))(vertical)(invisible))
		(line (pt 24 42)(pt 24 64))
	)
	(drawing
		(line (pt 36 14)(pt 36 30))
		(line (pt 11 14)(pt 11 31))
		(line (pt 36 14)(pt 11 14))
		(arc (pt 11 31)(pt 36 30)(rect 11 18 36 43))
	)
	(rotate270)
)
(symbol
	(rect 376 152 424 216)
	(text "AND2" (rect 38 1 48 25)(font "Arial" (font_size 6))(vertical))
	(text "inst3" (rect -1 3 11 26)(font "Arial" )(vertical))
	(port
		(pt 32 0)
		(input)
		(text "IN1" (rect 2 7 19 19)(font "Courier New" (bold))(invisible))
		(text "IN1" (rect 29 2 41 19)(font "Courier New" (bold))(vertical)(invisible))
		(line (pt 32 0)(pt 32 14))
	)
	(port
		(pt 16 0)
		(input)
		(text "IN2" (rect 2 23 19 35)(font "Courier New" (bold))(invisible))
		(text "IN2" (rect 13 2 25 19)(font "Courier New" (bold))(vertical)(invisible))
		(line (pt 16 0)(pt 16 14))
	)
	(port
		(pt 24 64)
		(output)
		(text "OUT" (rect 48 15 65 27)(font "Courier New" (bold))(invisible))
		(text "OUT" (rect 21 48 33 65)(font "Courier New" (bold))(vertical)(invisible))
		(line (pt 24 42)(pt 24 64))
	)
	(drawing
		(line (pt 36 14)(pt 36 30))
		(line (pt 11 14)(pt 11 31))
		(line (pt 36 14)(pt 11 14))
		(arc (pt 11 31)(pt 36 30)(rect 11 18 36 43))
	)
	(rotate270)
)
(symbol
	(rect 440 152 488 216)
	(text "AND2" (rect 38 1 48 25)(font "Arial" (font_size 6))(vertical))
	(text "inst4" (rect -1 3 11 26)(font "Arial" )(vertical))
	(port
		(pt 32 0)
		(input)
		(text "IN1" (rect 2 7 19 19)(font "Courier New" (bold))(invisible))
		(text "IN1" (rect 29 2 41 19)(font "Courier New" (bold))(vertical)(invisible))
		(line (pt 32 0)(pt 32 14))
	)
	(port
		(pt 16 0)
		(input)
		(text "IN2" (rect 2 23 19 35)(font "Courier New" (bold))(invisible))
		(text "IN2" (rect 13 2 25 19)(font "Courier New" (bold))(vertical)(invisible))
		(line (pt 16 0)(pt 16 14))
	)
	(port
		(pt 24 64)
		(output)
		(text "OUT" (rect 48 15 65 27)(font "Courier New" (bold))(invisible))
		(text "OUT" (rect 21 48 33 65)(font "Courier New" (bold))(vertical)(invisible))
		(line (pt 24 42)(pt 24 64))
	)
	(drawing
		(line (pt 36 14)(pt 36 30))
		(line (pt 11 14)(pt 11 31))
		(line (pt 36 14)(pt 11 14))
		(arc (pt 11 31)(pt 36 30)(rect 11 18 36 43))
	)
	(rotate270)
)
(symbol
	(rect 504 152 552 216)
	(text "AND2" (rect 38 1 48 25)(font "Arial" (font_size 6))(vertical))
	(text "inst5" (rect -1 3 11 26)(font "Arial" )(vertical))
	(port
		(pt 32 0)
		(input)
		(text "IN1" (rect 2 7 19 19)(font "Courier New" (bold))(invisible))
		(text "IN1" (rect 29 2 41 19)(font "Courier New" (bold))(vertical)(invisible))
		(line (pt 32 0)(pt 32 14))
	)
	(port
		(pt 16 0)
		(input)
		(text "IN2" (rect 2 23 19 35)(font "Courier New" (bold))(invisible))
		(text "IN2" (rect 13 2 25 19)(font "Courier New" (bold))(vertical)(invisible))
		(line (pt 16 0)(pt 16 14))
	)
	(port
		(pt 24 64)
		(output)
		(text "OUT" (rect 48 15 65 27)(font "Courier New" (bold))(invisible))
		(text "OUT" (rect 21 48 33 65)(font "Courier New" (bold))(vertical)(invisible))
		(line (pt 24 42)(pt 24 64))
	)
	(drawing
		(line (pt 36 14)(pt 36 30))
		(line (pt 11 14)(pt 11 31))
		(line (pt 36 14)(pt 11 14))
		(arc (pt 11 31)(pt 36 30)(rect 11 18 36 43))
	)
	(rotate270)
)
(symbol
	(rect 568 152 616 216)
	(text "AND2" (rect 38 1 48 25)(font "Arial" (font_size 6))(vertical))
	(text "inst6" (rect -1 3 11 26)(font "Arial" )(vertical))
	(port
		(pt 32 0)
		(input)
		(text "IN1" (rect 2 7 19 19)(font "Courier New" (bold))(invisible))
		(text "IN1" (rect 29 2 41 19)(font "Courier New" (bold))(vertical)(invisible))
		(line (pt 32 0)(pt 32 14))
	)
	(port
		(pt 16 0)
		(input)
		(text "IN2" (rect 2 23 19 35)(font "Courier New" (bold))(invisible))
		(text "IN2" (rect 13 2 25 19)(font "Courier New" (bold))(vertical)(invisible))
		(line (pt 16 0)(pt 16 14))
	)
	(port
		(pt 24 64)
		(output)
		(text "OUT" (rect 48 15 65 27)(font "Courier New" (bold))(invisible))
		(text "OUT" (rect 21 48 33 65)(font "Courier New" (bold))(vertical)(invisible))
		(line (pt 24 42)(pt 24 64))
	)
	(drawing
		(line (pt 36 14)(pt 36 30))
		(line (pt 11 14)(pt 11 31))
		(line (pt 36 14)(pt 11 14))
		(arc (pt 11 31)(pt 36 30)(rect 11 18 36 43))
	)
	(rotate270)
)
(symbol
	(rect 632 152 680 216)
	(text "AND2" (rect 38 1 48 25)(font "Arial" (font_size 6))(vertical))
	(text "inst7" (rect -1 3 11 26)(font "Arial" )(vertical))
	(port
		(pt 32 0)
		(input)
		(text "IN1" (rect 2 7 19 19)(font "Courier New" (bold))(invisible))
		(text "IN1" (rect 29 2 41 19)(font "Courier New" (bold))(vertical)(invisible))
		(line (pt 32 0)(pt 32 14))
	)
	(port
		(pt 16 0)
		(input)
		(text "IN2" (rect 2 23 19 35)(font "Courier New" (bold))(invisible))
		(text "IN2" (rect 13 2 25 19)(font "Courier New" (bold))(vertical)(invisible))
		(line (pt 16 0)(pt 16 14))
	)
	(port
		(pt 24 64)
		(output)
		(text "OUT" (rect 48 15 65 27)(font "Courier New" (bold))(invisible))
		(text "OUT" (rect 21 48 33 65)(font "Courier New" (bold))(vertical)(invisible))
		(line (pt 24 42)(pt 24 64))
	)
	(drawing
		(line (pt 36 14)(pt 36 30))
		(line (pt 11 14)(pt 11 31))
		(line (pt 36 14)(pt 11 14))
		(arc (pt 11 31)(pt 36 30)(rect 11 18 36 43))
	)
	(rotate270)
)
(symbol
	(rect 696 152 744 216)
	(text "AND2" (rect 38 1 48 25)(font "Arial" (font_size 6))(vertical))
	(text "inst8" (rect -1 3 11 26)(font "Arial" )(vertical))
	(port
		(pt 32 0)
		(input)
		(text "IN1" (rect 2 7 19 19)(font "Courier New" (bold))(invisible))
		(text "IN1" (rect 29 2 41 19)(font "Courier New" (bold))(vertical)(invisible))
		(line (pt 32 0)(pt 32 14))
	)
	(port
		(pt 16 0)
		(input)
		(text "IN2" (rect 2 23 19 35)(font "Courier New" (bold))(invisible))
		(text "IN2" (rect 13 2 25 19)(font "Courier New" (bold))(vertical)(invisible))
		(line (pt 16 0)(pt 16 14))
	)
	(port
		(pt 24 64)
		(output)
		(text "OUT" (rect 48 15 65 27)(font "Courier New" (bold))(invisible))
		(text "OUT" (rect 21 48 33 65)(font "Courier New" (bold))(vertical)(invisible))
		(line (pt 24 42)(pt 24 64))
	)
	(drawing
		(line (pt 36 14)(pt 36 30))
		(line (pt 11 14)(pt 11 31))
		(line (pt 36 14)(pt 11 14))
		(arc (pt 11 31)(pt 36 30)(rect 11 18 36 43))
	)
	(rotate270)
)
(symbol
	(rect 240 232 288 296)
	(text "AND2" (rect 38 1 48 25)(font "Arial" (font_size 6))(vertical))
	(text "inst11" (rect -1 3 11 32)(font "Arial" )(vertical))
	(port
		(pt 32 0)
		(input)
		(text "IN1" (rect 2 7 19 19)(font "Courier New" (bold))(invisible))
		(text "IN1" (rect 29 2 41 19)(font "Courier New" (bold))(vertical)(invisible))
		(line (pt 32 0)(pt 32 14))
	)
	(port
		(pt 16 0)
		(input)
		(text "IN2" (rect 2 23 19 35)(font "Courier New" (bold))(invisible))
		(text "IN2" (rect 13 2 25 19)(font "Courier New" (bold))(vertical)(invisible))
		(line (pt 16 0)(pt 16 14))
	)
	(port
		(pt 24 64)
		(output)
		(text "OUT" (rect 48 15 65 27)(font "Courier New" (bold))(invisible))
		(text "OUT" (rect 21 48 33 65)(font "Courier New" (bold))(vertical)(invisible))
		(line (pt 24 42)(pt 24 64))
	)
	(drawing
		(line (pt 36 14)(pt 36 30))
		(line (pt 11 14)(pt 11 31))
		(line (pt 36 14)(pt 11 14))
		(arc (pt 11 31)(pt 36 30)(rect 11 18 36 43))
	)
	(rotate270)
)
(symbol
	(rect 304 232 352 296)
	(text "AND2" (rect 38 1 48 25)(font "Arial" (font_size 6))(vertical))
	(text "inst9" (rect -1 3 11 26)(font "Arial" )(vertical))
	(port
		(pt 32 0)
		(input)
		(text "IN1" (rect 2 7 19 19)(font "Courier New" (bold))(invisible))
		(text "IN1" (rect 29 2 41 19)(font "Courier New" (bold))(vertical)(invisible))
		(line (pt 32 0)(pt 32 14))
	)
	(port
		(pt 16 0)
		(input)
		(text "IN2" (rect 2 23 19 35)(font "Courier New" (bold))(invisible))
		(text "IN2" (rect 13 2 25 19)(font "Courier New" (bold))(vertical)(invisible))
		(line (pt 16 0)(pt 16 14))
	)
	(port
		(pt 24 64)
		(output)
		(text "OUT" (rect 48 15 65 27)(font "Courier New" (bold))(invisible))
		(text "OUT" (rect 21 48 33 65)(font "Courier New" (bold))(vertical)(invisible))
		(line (pt 24 42)(pt 24 64))
	)
	(drawing
		(line (pt 36 14)(pt 36 30))
		(line (pt 11 14)(pt 11 31))
		(line (pt 36 14)(pt 11 14))
		(arc (pt 11 31)(pt 36 30)(rect 11 18 36 43))
	)
	(rotate270)
)
(symbol
	(rect 368 232 416 296)
	(text "AND2" (rect 38 1 48 25)(font "Arial" (font_size 6))(vertical))
	(text "inst10" (rect -1 3 11 32)(font "Arial" )(vertical))
	(port
		(pt 32 0)
		(input)
		(text "IN1" (rect 2 7 19 19)(font "Courier New" (bold))(invisible))
		(text "IN1" (rect 29 2 41 19)(font "Courier New" (bold))(vertical)(invisible))
		(line (pt 32 0)(pt 32 14))
	)
	(port
		(pt 16 0)
		(input)
		(text "IN2" (rect 2 23 19 35)(font "Courier New" (bold))(invisible))
		(text "IN2" (rect 13 2 25 19)(font "Courier New" (bold))(vertical)(invisible))
		(line (pt 16 0)(pt 16 14))
	)
	(port
		(pt 24 64)
		(output)
		(text "OUT" (rect 48 15 65 27)(font "Courier New" (bold))(invisible))
		(text "OUT" (rect 21 48 33 65)(font "Courier New" (bold))(vertical)(invisible))
		(line (pt 24 42)(pt 24 64))
	)
	(drawing
		(line (pt 36 14)(pt 36 30))
		(line (pt 11 14)(pt 11 31))
		(line (pt 36 14)(pt 11 14))
		(arc (pt 11 31)(pt 36 30)(rect 11 18 36 43))
	)
	(rotate270)
)
(symbol
	(rect 432 232 480 296)
	(text "AND2" (rect 38 1 48 25)(font "Arial" (font_size 6))(vertical))
	(text "inst12" (rect -1 3 11 32)(font "Arial" )(vertical))
	(port
		(pt 32 0)
		(input)
		(text "IN1" (rect 2 7 19 19)(font "Courier New" (bold))(invisible))
		(text "IN1" (rect 29 2 41 19)(font "Courier New" (bold))(vertical)(invisible))
		(line (pt 32 0)(pt 32 14))
	)
	(port
		(pt 16 0)
		(input)
		(text "IN2" (rect 2 23 19 35)(font "Courier New" (bold))(invisible))
		(text "IN2" (rect 13 2 25 19)(font "Courier New" (bold))(vertical)(invisible))
		(line (pt 16 0)(pt 16 14))
	)
	(port
		(pt 24 64)
		(output)
		(text "OUT" (rect 48 15 65 27)(font "Courier New" (bold))(invisible))
		(text "OUT" (rect 21 48 33 65)(font "Courier New" (bold))(vertical)(invisible))
		(line (pt 24 42)(pt 24 64))
	)
	(drawing
		(line (pt 36 14)(pt 36 30))
		(line (pt 11 14)(pt 11 31))
		(line (pt 36 14)(pt 11 14))
		(arc (pt 11 31)(pt 36 30)(rect 11 18 36 43))
	)
	(rotate270)
)
(symbol
	(rect 496 232 544 296)
	(text "AND2" (rect 38 1 48 25)(font "Arial" (font_size 6))(vertical))
	(text "inst13" (rect -1 3 11 32)(font "Arial" )(vertical))
	(port
		(pt 32 0)
		(input)
		(text "IN1" (rect 2 7 19 19)(font "Courier New" (bold))(invisible))
		(text "IN1" (rect 29 2 41 19)(font "Courier New" (bold))(vertical)(invisible))
		(line (pt 32 0)(pt 32 14))
	)
	(port
		(pt 16 0)
		(input)
		(text "IN2" (rect 2 23 19 35)(font "Courier New" (bold))(invisible))
		(text "IN2" (rect 13 2 25 19)(font "Courier New" (bold))(vertical)(invisible))
		(line (pt 16 0)(pt 16 14))
	)
	(port
		(pt 24 64)
		(output)
		(text "OUT" (rect 48 15 65 27)(font "Courier New" (bold))(invisible))
		(text "OUT" (rect 21 48 33 65)(font "Courier New" (bold))(vertical)(invisible))
		(line (pt 24 42)(pt 24 64))
	)
	(drawing
		(line (pt 36 14)(pt 36 30))
		(line (pt 11 14)(pt 11 31))
		(line (pt 36 14)(pt 11 14))
		(arc (pt 11 31)(pt 36 30)(rect 11 18 36 43))
	)
	(rotate270)
)
(symbol
	(rect 560 232 608 296)
	(text "AND2" (rect 38 1 48 25)(font "Arial" (font_size 6))(vertical))
	(text "inst14" (rect -1 3 11 32)(font "Arial" )(vertical))
	(port
		(pt 32 0)
		(input)
		(text "IN1" (rect 2 7 19 19)(font "Courier New" (bold))(invisible))
		(text "IN1" (rect 29 2 41 19)(font "Courier New" (bold))(vertical)(invisible))
		(line (pt 32 0)(pt 32 14))
	)
	(port
		(pt 16 0)
		(input)
		(text "IN2" (rect 2 23 19 35)(font "Courier New" (bold))(invisible))
		(text "IN2" (rect 13 2 25 19)(font "Courier New" (bold))(vertical)(invisible))
		(line (pt 16 0)(pt 16 14))
	)
	(port
		(pt 24 64)
		(output)
		(text "OUT" (rect 48 15 65 27)(font "Courier New" (bold))(invisible))
		(text "OUT" (rect 21 48 33 65)(font "Courier New" (bold))(vertical)(invisible))
		(line (pt 24 42)(pt 24 64))
	)
	(drawing
		(line (pt 36 14)(pt 36 30))
		(line (pt 11 14)(pt 11 31))
		(line (pt 36 14)(pt 11 14))
		(arc (pt 11 31)(pt 36 30)(rect 11 18 36 43))
	)
	(rotate270)
)
(symbol
	(rect 624 232 672 296)
	(text "AND2" (rect 38 1 48 25)(font "Arial" (font_size 6))(vertical))
	(text "inst15" (rect -1 3 11 32)(font "Arial" )(vertical))
	(port
		(pt 32 0)
		(input)
		(text "IN1" (rect 2 7 19 19)(font "Courier New" (bold))(invisible))
		(text "IN1" (rect 29 2 41 19)(font "Courier New" (bold))(vertical)(invisible))
		(line (pt 32 0)(pt 32 14))
	)
	(port
		(pt 16 0)
		(input)
		(text "IN2" (rect 2 23 19 35)(font "Courier New" (bold))(invisible))
		(text "IN2" (rect 13 2 25 19)(font "Courier New" (bold))(vertical)(invisible))
		(line (pt 16 0)(pt 16 14))
	)
	(port
		(pt 24 64)
		(output)
		(text "OUT" (rect 48 15 65 27)(font "Courier New" (bold))(invisible))
		(text "OUT" (rect 21 48 33 65)(font "Courier New" (bold))(vertical)(invisible))
		(line (pt 24 42)(pt 24 64))
	)
	(drawing
		(line (pt 36 14)(pt 36 30))
		(line (pt 11 14)(pt 11 31))
		(line (pt 36 14)(pt 11 14))
		(arc (pt 11 31)(pt 36 30)(rect 11 18 36 43))
	)
	(rotate270)
)
(symbol
	(rect 688 232 736 296)
	(text "AND2" (rect 38 1 48 25)(font "Arial" (font_size 6))(vertical))
	(text "inst16" (rect -1 3 11 32)(font "Arial" )(vertical))
	(port
		(pt 32 0)
		(input)
		(text "IN1" (rect 2 7 19 19)(font "Courier New" (bold))(invisible))
		(text "IN1" (rect 29 2 41 19)(font "Courier New" (bold))(vertical)(invisible))
		(line (pt 32 0)(pt 32 14))
	)
	(port
		(pt 16 0)
		(input)
		(text "IN2" (rect 2 23 19 35)(font "Courier New" (bold))(invisible))
		(text "IN2" (rect 13 2 25 19)(font "Courier New" (bold))(vertical)(invisible))
		(line (pt 16 0)(pt 16 14))
	)
	(port
		(pt 24 64)
		(output)
		(text "OUT" (rect 48 15 65 27)(font "Courier New" (bold))(invisible))
		(text "OUT" (rect 21 48 33 65)(font "Courier New" (bold))(vertical)(invisible))
		(line (pt 24 42)(pt 24 64))
	)
	(drawing
		(line (pt 36 14)(pt 36 30))
		(line (pt 11 14)(pt 11 31))
		(line (pt 36 14)(pt 11 14))
		(arc (pt 11 31)(pt 36 30)(rect 11 18 36 43))
	)
	(rotate270)
)
(symbol
	(rect 184 0 232 32)
	(text "NOT" (rect 1 0 21 10)(font "Arial" (font_size 6)))
	(text "inst17" (rect 3 21 32 33)(font "Arial" ))
	(port
		(pt 0 16)
		(input)
		(text "IN" (rect 2 7 13 19)(font "Courier New" (bold))(invisible))
		(text "IN" (rect 2 7 13 19)(font "Courier New" (bold))(invisible))
		(line (pt 0 16)(pt 13 16))
	)
	(port
		(pt 48 16)
		(output)
		(text "OUT" (rect 32 7 49 19)(font "Courier New" (bold))(invisible))
		(text "OUT" (rect 32 7 49 19)(font "Courier New" (bold))(invisible))
		(line (pt 39 16)(pt 48 16))
	)
	(drawing
		(line (pt 13 25)(pt 13 7))
		(line (pt 13 7)(pt 31 16))
		(line (pt 13 25)(pt 31 16))
		(circle (rect 31 12 39 20))
	)
)
(symbol
	(rect 184 48 232 80)
	(text "NOT" (rect 1 0 21 10)(font "Arial" (font_size 6)))
	(text "inst18" (rect 3 21 32 33)(font "Arial" ))
	(port
		(pt 0 16)
		(input)
		(text "IN" (rect 2 7 13 19)(font "Courier New" (bold))(invisible))
		(text "IN" (rect 2 7 13 19)(font "Courier New" (bold))(invisible))
		(line (pt 0 16)(pt 13 16))
	)
	(port
		(pt 48 16)
		(output)
		(text "OUT" (rect 32 7 49 19)(font "Courier New" (bold))(invisible))
		(text "OUT" (rect 32 7 49 19)(font "Courier New" (bold))(invisible))
		(line (pt 39 16)(pt 48 16))
	)
	(drawing
		(line (pt 13 25)(pt 13 7))
		(line (pt 13 7)(pt 31 16))
		(line (pt 13 25)(pt 31 16))
		(circle (rect 31 12 39 20))
	)
)
(symbol
	(rect 184 96 232 128)
	(text "NOT" (rect 1 0 21 10)(font "Arial" (font_size 6)))
	(text "inst19" (rect 3 21 32 33)(font "Arial" ))
	(port
		(pt 0 16)
		(input)
		(text "IN" (rect 2 7 13 19)(font "Courier New" (bold))(invisible))
		(text "IN" (rect 2 7 13 19)(font "Courier New" (bold))(invisible))
		(line (pt 0 16)(pt 13 16))
	)
	(port
		(pt 48 16)
		(output)
		(text "OUT" (rect 32 7 49 19)(font "Courier New" (bold))(invisible))
		(text "OUT" (rect 32 7 49 19)(font "Courier New" (bold))(invisible))
		(line (pt 39 16)(pt 48 16))
	)
	(drawing
		(line (pt 13 25)(pt 13 7))
		(line (pt 13 7)(pt 31 16))
		(line (pt 13 25)(pt 31 16))
		(circle (rect 31 12 39 20))
	)
)
(connector
	(pt 328 296)
	(pt 328 304)
)
(connector
	(pt 264 296)
	(pt 264 304)
)
(connector
	(pt 392 296)
	(pt 392 304)
)
(connector
	(pt 456 296)
	(pt 456 304)
)
(connector
	(pt 520 296)
	(pt 520 304)
)
(connector
	(pt 584 296)
	(pt 584 304)
)
(connector
	(pt 648 296)
	(pt 648 304)
)
(connector
	(pt 712 296)
	(pt 712 304)
)
(connector
	(pt 272 216)
	(pt 272 232)
)
(connector
	(pt 336 216)
	(pt 336 232)
)
(connector
	(pt 400 216)
	(pt 400 232)
)
(connector
	(pt 464 216)
	(pt 464 232)
)
(connector
	(pt 528 216)
	(pt 528 232)
)
(connector
	(pt 592 216)
	(pt 592 232)
)
(connector
	(pt 656 216)
	(pt 656 232)
)
(connector
	(pt 720 216)
	(pt 720 232)
)
(connector
	(pt 176 -8)
	(pt 176 16)
)
(connector
	(pt 176 16)
	(pt 184 16)
)
(connector
	(pt 184 64)
	(pt 176 64)
)
(connector
	(pt 176 64)
	(pt 176 40)
)
(connector
	(pt 176 88)
	(pt 176 112)
)
(connector
	(pt 176 112)
	(pt 184 112)
)
(connector
	(pt 688 112)
	(pt 688 224)
)
(connector
	(pt 688 224)
	(pt 704 224)
)
(connector
	(pt 704 224)
	(pt 704 232)
)
(connector
	(pt 712 64)
	(pt 712 152)
)
(connector
	(pt 728 16)
	(pt 728 152)
)
(connector
	(pt 664 -8)
	(pt 664 152)
)
(connector
	(pt 168 -8)
	(pt 176 -8)
)
(connector
	(pt 584 40)
	(pt 584 152)
)
(connector
	(pt 168 40)
	(pt 176 40)
)
(connector
	(pt 168 88)
	(pt 176 88)
)
(connector
	(pt 448 232)
	(pt 448 224)
)
(connector
	(pt 448 224)
	(pt 432 224)
)
(connector
	(pt 432 88)
	(pt 432 224)
)
(connector
	(pt 640 232)
	(pt 640 224)
)
(connector
	(pt 624 224)
	(pt 640 224)
)
(connector
	(pt 624 224)
	(pt 624 112)
)
(connector
	(pt 624 112)
	(pt 688 112)
)
(connector
	(pt 576 232)
	(pt 576 224)
)
(connector
	(pt 576 224)
	(pt 560 224)
)
(connector
	(pt 560 224)
	(pt 560 112)
)
(connector
	(pt 560 112)
	(pt 624 112)
)
(connector
	(pt 512 232)
	(pt 512 224)
)
(connector
	(pt 512 224)
	(pt 496 224)
)
(connector
	(pt 496 224)
	(pt 496 112)
)
(connector
	(pt 232 112)
	(pt 496 112)
)
(connector
	(pt 496 112)
	(pt 560 112)
)
(connector
	(pt 384 232)
	(pt 384 224)
)
(connector
	(pt 384 224)
	(pt 368 224)
)
(connector
	(pt 368 224)
	(pt 368 88)
)
(connector
	(pt 368 88)
	(pt 432 88)
)
(connector
	(pt 320 232)
	(pt 320 224)
)
(connector
	(pt 320 224)
	(pt 304 224)
)
(connector
	(pt 304 224)
	(pt 304 88)
)
(connector
	(pt 304 88)
	(pt 368 88)
)
(connector
	(pt 256 232)
	(pt 256 224)
)
(connector
	(pt 256 224)
	(pt 240 224)
)
(connector
	(pt 240 224)
	(pt 240 88)
)
(connector
	(pt 176 88)
	(pt 240 88)
)
(connector
	(pt 240 88)
	(pt 304 88)
)
(connector
	(pt 648 152)
	(pt 648 64)
)
(connector
	(pt 648 64)
	(pt 712 64)
)
(connector
	(pt 600 152)
	(pt 600 16)
)
(connector
	(pt 600 16)
	(pt 728 16)
)
(connector
	(pt 536 152)
	(pt 536 -8)
)
(connector
	(pt 536 -8)
	(pt 664 -8)
)
(connector
	(pt 520 152)
	(pt 520 40)
)
(connector
	(pt 520 40)
	(pt 584 40)
)
(connector
	(pt 472 152)
	(pt 472 16)
)
(connector
	(pt 472 16)
	(pt 600 16)
)
(connector
	(pt 456 152)
	(pt 456 64)
)
(connector
	(pt 456 64)
	(pt 648 64)
)
(connector
	(pt 408 152)
	(pt 408 -8)
)
(connector
	(pt 408 -8)
	(pt 536 -8)
)
(connector
	(pt 392 152)
	(pt 392 64)
)
(connector
	(pt 232 64)
	(pt 392 64)
)
(connector
	(pt 392 64)
	(pt 456 64)
)
(connector
	(pt 344 152)
	(pt 344 16)
)
(connector
	(pt 232 16)
	(pt 344 16)
)
(connector
	(pt 344 16)
	(pt 472 16)
)
(connector
	(pt 328 152)
	(pt 328 40)
)
(connector
	(pt 328 40)
	(pt 520 40)
)
(connector
	(pt 280 152)
	(pt 280 -8)
)
(connector
	(pt 176 -8)
	(pt 280 -8)
)
(connector
	(pt 280 -8)
	(pt 408 -8)
)
(connector
	(pt 264 152)
	(pt 264 40)
)
(connector
	(pt 176 40)
	(pt 264 40)
)
(connector
	(pt 264 40)
	(pt 328 40)
)
(junction (pt 176 -8))
(junction (pt 176 40))
(junction (pt 176 88))
(junction (pt 624 112))
(junction (pt 560 112))
(junction (pt 496 112))
(junction (pt 368 88))
(junction (pt 304 88))
(junction (pt 240 88))
(junction (pt 648 64))
(junction (pt 600 16))
(junction (pt 536 -8))
(junction (pt 520 40))
(junction (pt 472 16))
(junction (pt 456 64))
(junction (pt 408 -8))
(junction (pt 392 64))
(junction (pt 344 16))
(junction (pt 328 40))
(junction (pt 280 -8))
(junction (pt 264 40))
