/*
WARNING: Do NOT edit the input and output ports in this file in a text
editor if you plan to continue editing the block that represents it in
the Block Editor! File corruption is VERY likely to occur.
*/
/*
Copyright (C) 1991-2013 Altera Corporation
Your use of Altera Corporation's design tools, logic functions 
and other software and tools, and its AMPP partner logic 
functions, and any output files from any of the foregoing 
(including device programming or simulation files), and any 
associated documentation or information are expressly subject 
to the terms and conditions of the Altera Program License 
Subscription Agreement, Altera MegaCore Function License 
Agreement, or other applicable license agreement, including, 
without limitation, that your use is for the sole purpose of 
programming logic devices manufactured by Altera and sold by 
Altera or its authorized distributors.  Please refer to the 
applicable agreement for further details.
*/
(header "graphic" (version "1.4"))
(pin
	(input)
	(rect -104 56 64 72)
	(text "INPUT" (rect 125 0 153 10)(font "Arial" (font_size 6)))
	(text "x0" (rect 5 0 17 12)(font "Arial" ))
	(pt 168 8)
	(drawing
		(line (pt 84 12)(pt 109 12))
		(line (pt 84 4)(pt 109 4))
		(line (pt 113 8)(pt 168 8))
		(line (pt 84 12)(pt 84 4))
		(line (pt 109 4)(pt 113 8))
		(line (pt 109 12)(pt 113 8))
	)
	(text "VCC" (rect 128 7 148 17)(font "Arial" (font_size 6)))
)
(pin
	(input)
	(rect -104 72 64 88)
	(text "INPUT" (rect 125 0 153 10)(font "Arial" (font_size 6)))
	(text "x1" (rect 5 0 17 12)(font "Arial" ))
	(pt 168 8)
	(drawing
		(line (pt 84 12)(pt 109 12))
		(line (pt 84 4)(pt 109 4))
		(line (pt 113 8)(pt 168 8))
		(line (pt 84 12)(pt 84 4))
		(line (pt 109 4)(pt 113 8))
		(line (pt 109 12)(pt 113 8))
	)
	(text "VCC" (rect 128 7 148 17)(font "Arial" (font_size 6)))
)
(pin
	(input)
	(rect -104 88 64 104)
	(text "INPUT" (rect 125 0 153 10)(font "Arial" (font_size 6)))
	(text "x2" (rect 5 0 17 12)(font "Arial" ))
	(pt 168 8)
	(drawing
		(line (pt 84 12)(pt 109 12))
		(line (pt 84 4)(pt 109 4))
		(line (pt 113 8)(pt 168 8))
		(line (pt 84 12)(pt 84 4))
		(line (pt 109 4)(pt 113 8))
		(line (pt 109 12)(pt 113 8))
	)
	(text "VCC" (rect 128 7 148 17)(font "Arial" (font_size 6)))
)
(pin
	(input)
	(rect -104 104 64 120)
	(text "INPUT" (rect 125 0 153 10)(font "Arial" (font_size 6)))
	(text "x3" (rect 5 0 17 12)(font "Arial" ))
	(pt 168 8)
	(drawing
		(line (pt 84 12)(pt 109 12))
		(line (pt 84 4)(pt 109 4))
		(line (pt 113 8)(pt 168 8))
		(line (pt 84 12)(pt 84 4))
		(line (pt 109 4)(pt 113 8))
		(line (pt 109 12)(pt 113 8))
	)
	(text "VCC" (rect 128 7 148 17)(font "Arial" (font_size 6)))
)
(pin
	(input)
	(rect -104 120 64 136)
	(text "INPUT" (rect 125 0 153 10)(font "Arial" (font_size 6)))
	(text "x4" (rect 5 0 17 12)(font "Arial" ))
	(pt 168 8)
	(drawing
		(line (pt 84 12)(pt 109 12))
		(line (pt 84 4)(pt 109 4))
		(line (pt 113 8)(pt 168 8))
		(line (pt 84 12)(pt 84 4))
		(line (pt 109 4)(pt 113 8))
		(line (pt 109 12)(pt 113 8))
	)
	(text "VCC" (rect 128 7 148 17)(font "Arial" (font_size 6)))
)
(pin
	(input)
	(rect -104 136 64 152)
	(text "INPUT" (rect 125 0 153 10)(font "Arial" (font_size 6)))
	(text "x5" (rect 5 0 17 12)(font "Arial" ))
	(pt 168 8)
	(drawing
		(line (pt 84 12)(pt 109 12))
		(line (pt 84 4)(pt 109 4))
		(line (pt 113 8)(pt 168 8))
		(line (pt 84 12)(pt 84 4))
		(line (pt 109 4)(pt 113 8))
		(line (pt 109 12)(pt 113 8))
	)
	(text "VCC" (rect 128 7 148 17)(font "Arial" (font_size 6)))
)
(pin
	(input)
	(rect -104 152 64 168)
	(text "INPUT" (rect 125 0 153 10)(font "Arial" (font_size 6)))
	(text "x6" (rect 5 0 17 12)(font "Arial" ))
	(pt 168 8)
	(drawing
		(line (pt 84 12)(pt 109 12))
		(line (pt 84 4)(pt 109 4))
		(line (pt 113 8)(pt 168 8))
		(line (pt 84 12)(pt 84 4))
		(line (pt 109 4)(pt 113 8))
		(line (pt 109 12)(pt 113 8))
	)
	(text "VCC" (rect 128 7 148 17)(font "Arial" (font_size 6)))
)
(pin
	(input)
	(rect -104 168 64 184)
	(text "INPUT" (rect 125 0 153 10)(font "Arial" (font_size 6)))
	(text "x7" (rect 5 0 17 12)(font "Arial" ))
	(pt 168 8)
	(drawing
		(line (pt 84 12)(pt 109 12))
		(line (pt 84 4)(pt 109 4))
		(line (pt 113 8)(pt 168 8))
		(line (pt 84 12)(pt 84 4))
		(line (pt 109 4)(pt 113 8))
		(line (pt 109 12)(pt 113 8))
	)
	(text "VCC" (rect 128 7 148 17)(font "Arial" (font_size 6)))
)
(pin
	(input)
	(rect -104 240 64 256)
	(text "INPUT" (rect 125 0 153 10)(font "Arial" (font_size 6)))
	(text "y0" (rect 5 0 18 12)(font "Arial" ))
	(pt 168 8)
	(drawing
		(line (pt 84 12)(pt 109 12))
		(line (pt 84 4)(pt 109 4))
		(line (pt 113 8)(pt 168 8))
		(line (pt 84 12)(pt 84 4))
		(line (pt 109 4)(pt 113 8))
		(line (pt 109 12)(pt 113 8))
	)
	(text "VCC" (rect 128 7 148 17)(font "Arial" (font_size 6)))
)
(pin
	(input)
	(rect -104 256 64 272)
	(text "INPUT" (rect 125 0 153 10)(font "Arial" (font_size 6)))
	(text "y1" (rect 5 0 18 12)(font "Arial" ))
	(pt 168 8)
	(drawing
		(line (pt 84 12)(pt 109 12))
		(line (pt 84 4)(pt 109 4))
		(line (pt 113 8)(pt 168 8))
		(line (pt 84 12)(pt 84 4))
		(line (pt 109 4)(pt 113 8))
		(line (pt 109 12)(pt 113 8))
	)
	(text "VCC" (rect 128 7 148 17)(font "Arial" (font_size 6)))
)
(pin
	(input)
	(rect -104 272 64 288)
	(text "INPUT" (rect 125 0 153 10)(font "Arial" (font_size 6)))
	(text "y2" (rect 5 0 18 12)(font "Arial" ))
	(pt 168 8)
	(drawing
		(line (pt 84 12)(pt 109 12))
		(line (pt 84 4)(pt 109 4))
		(line (pt 113 8)(pt 168 8))
		(line (pt 84 12)(pt 84 4))
		(line (pt 109 4)(pt 113 8))
		(line (pt 109 12)(pt 113 8))
	)
	(text "VCC" (rect 128 7 148 17)(font "Arial" (font_size 6)))
)
(pin
	(input)
	(rect -104 288 64 304)
	(text "INPUT" (rect 125 0 153 10)(font "Arial" (font_size 6)))
	(text "y3" (rect 5 0 18 12)(font "Arial" ))
	(pt 168 8)
	(drawing
		(line (pt 84 12)(pt 109 12))
		(line (pt 84 4)(pt 109 4))
		(line (pt 113 8)(pt 168 8))
		(line (pt 84 12)(pt 84 4))
		(line (pt 109 4)(pt 113 8))
		(line (pt 109 12)(pt 113 8))
	)
	(text "VCC" (rect 128 7 148 17)(font "Arial" (font_size 6)))
)
(pin
	(input)
	(rect -104 304 64 320)
	(text "INPUT" (rect 125 0 153 10)(font "Arial" (font_size 6)))
	(text "y4" (rect 5 0 18 12)(font "Arial" ))
	(pt 168 8)
	(drawing
		(line (pt 84 12)(pt 109 12))
		(line (pt 84 4)(pt 109 4))
		(line (pt 113 8)(pt 168 8))
		(line (pt 84 12)(pt 84 4))
		(line (pt 109 4)(pt 113 8))
		(line (pt 109 12)(pt 113 8))
	)
	(text "VCC" (rect 128 7 148 17)(font "Arial" (font_size 6)))
)
(pin
	(input)
	(rect -104 320 64 336)
	(text "INPUT" (rect 125 0 153 10)(font "Arial" (font_size 6)))
	(text "y5" (rect 5 0 18 12)(font "Arial" ))
	(pt 168 8)
	(drawing
		(line (pt 84 12)(pt 109 12))
		(line (pt 84 4)(pt 109 4))
		(line (pt 113 8)(pt 168 8))
		(line (pt 84 12)(pt 84 4))
		(line (pt 109 4)(pt 113 8))
		(line (pt 109 12)(pt 113 8))
	)
	(text "VCC" (rect 128 7 148 17)(font "Arial" (font_size 6)))
)
(pin
	(input)
	(rect -104 336 64 352)
	(text "INPUT" (rect 125 0 153 10)(font "Arial" (font_size 6)))
	(text "y6" (rect 5 0 18 12)(font "Arial" ))
	(pt 168 8)
	(drawing
		(line (pt 84 12)(pt 109 12))
		(line (pt 84 4)(pt 109 4))
		(line (pt 113 8)(pt 168 8))
		(line (pt 84 12)(pt 84 4))
		(line (pt 109 4)(pt 113 8))
		(line (pt 109 12)(pt 113 8))
	)
	(text "VCC" (rect 128 7 148 17)(font "Arial" (font_size 6)))
)
(pin
	(input)
	(rect -104 352 64 368)
	(text "INPUT" (rect 125 0 153 10)(font "Arial" (font_size 6)))
	(text "y7" (rect 5 0 18 12)(font "Arial" ))
	(pt 168 8)
	(drawing
		(line (pt 84 12)(pt 109 12))
		(line (pt 84 4)(pt 109 4))
		(line (pt 113 8)(pt 168 8))
		(line (pt 84 12)(pt 84 4))
		(line (pt 109 4)(pt 113 8))
		(line (pt 109 12)(pt 113 8))
	)
	(text "VCC" (rect 128 7 148 17)(font "Arial" (font_size 6)))
)
(pin
	(input)
	(rect -104 400 64 416)
	(text "INPUT" (rect 125 0 153 10)(font "Arial" (font_size 6)))
	(text "z" (rect 5 0 10 12)(font "Arial" ))
	(pt 168 8)
	(drawing
		(line (pt 84 12)(pt 109 12))
		(line (pt 84 4)(pt 109 4))
		(line (pt 113 8)(pt 168 8))
		(line (pt 84 12)(pt 84 4))
		(line (pt 109 4)(pt 113 8))
		(line (pt 109 12)(pt 113 8))
	)
	(text "VCC" (rect 128 7 148 17)(font "Arial" (font_size 6)))
)
(pin
	(output)
	(rect 1096 448 1272 464)
	(text "OUTPUT" (rect 1 0 39 10)(font "Arial" (font_size 6)))
	(text "s0" (rect 90 0 101 12)(font "Arial" ))
	(pt 0 8)
	(drawing
		(line (pt 0 8)(pt 52 8))
		(line (pt 52 4)(pt 78 4))
		(line (pt 52 12)(pt 78 12))
		(line (pt 52 12)(pt 52 4))
		(line (pt 78 4)(pt 82 8))
		(line (pt 82 8)(pt 78 12))
		(line (pt 78 12)(pt 82 8))
	)
)
(pin
	(output)
	(rect 1096 464 1272 480)
	(text "OUTPUT" (rect 1 0 39 10)(font "Arial" (font_size 6)))
	(text "s1" (rect 90 0 101 12)(font "Arial" ))
	(pt 0 8)
	(drawing
		(line (pt 0 8)(pt 52 8))
		(line (pt 52 4)(pt 78 4))
		(line (pt 52 12)(pt 78 12))
		(line (pt 52 12)(pt 52 4))
		(line (pt 78 4)(pt 82 8))
		(line (pt 82 8)(pt 78 12))
		(line (pt 78 12)(pt 82 8))
	)
)
(pin
	(output)
	(rect 1096 480 1272 496)
	(text "OUTPUT" (rect 1 0 39 10)(font "Arial" (font_size 6)))
	(text "s2" (rect 90 0 101 12)(font "Arial" ))
	(pt 0 8)
	(drawing
		(line (pt 0 8)(pt 52 8))
		(line (pt 52 4)(pt 78 4))
		(line (pt 52 12)(pt 78 12))
		(line (pt 52 12)(pt 52 4))
		(line (pt 78 4)(pt 82 8))
		(line (pt 82 8)(pt 78 12))
		(line (pt 78 12)(pt 82 8))
	)
)
(pin
	(output)
	(rect 1096 496 1272 512)
	(text "OUTPUT" (rect 1 0 39 10)(font "Arial" (font_size 6)))
	(text "s3" (rect 90 0 101 12)(font "Arial" ))
	(pt 0 8)
	(drawing
		(line (pt 0 8)(pt 52 8))
		(line (pt 52 4)(pt 78 4))
		(line (pt 52 12)(pt 78 12))
		(line (pt 52 12)(pt 52 4))
		(line (pt 78 4)(pt 82 8))
		(line (pt 82 8)(pt 78 12))
		(line (pt 78 12)(pt 82 8))
	)
)
(pin
	(output)
	(rect 1096 512 1272 528)
	(text "OUTPUT" (rect 1 0 39 10)(font "Arial" (font_size 6)))
	(text "s4" (rect 90 0 101 12)(font "Arial" ))
	(pt 0 8)
	(drawing
		(line (pt 0 8)(pt 52 8))
		(line (pt 52 4)(pt 78 4))
		(line (pt 52 12)(pt 78 12))
		(line (pt 52 12)(pt 52 4))
		(line (pt 78 4)(pt 82 8))
		(line (pt 82 8)(pt 78 12))
		(line (pt 78 12)(pt 82 8))
	)
)
(pin
	(output)
	(rect 1096 528 1272 544)
	(text "OUTPUT" (rect 1 0 39 10)(font "Arial" (font_size 6)))
	(text "s5" (rect 90 0 101 12)(font "Arial" ))
	(pt 0 8)
	(drawing
		(line (pt 0 8)(pt 52 8))
		(line (pt 52 4)(pt 78 4))
		(line (pt 52 12)(pt 78 12))
		(line (pt 52 12)(pt 52 4))
		(line (pt 78 4)(pt 82 8))
		(line (pt 82 8)(pt 78 12))
		(line (pt 78 12)(pt 82 8))
	)
)
(pin
	(output)
	(rect 1096 544 1272 560)
	(text "OUTPUT" (rect 1 0 39 10)(font "Arial" (font_size 6)))
	(text "s6" (rect 90 0 101 12)(font "Arial" ))
	(pt 0 8)
	(drawing
		(line (pt 0 8)(pt 52 8))
		(line (pt 52 4)(pt 78 4))
		(line (pt 52 12)(pt 78 12))
		(line (pt 52 12)(pt 52 4))
		(line (pt 78 4)(pt 82 8))
		(line (pt 82 8)(pt 78 12))
		(line (pt 78 12)(pt 82 8))
	)
)
(pin
	(output)
	(rect 1096 560 1272 576)
	(text "OUTPUT" (rect 1 0 39 10)(font "Arial" (font_size 6)))
	(text "s7" (rect 90 0 101 12)(font "Arial" ))
	(pt 0 8)
	(drawing
		(line (pt 0 8)(pt 52 8))
		(line (pt 52 4)(pt 78 4))
		(line (pt 52 12)(pt 78 12))
		(line (pt 52 12)(pt 52 4))
		(line (pt 78 4)(pt 82 8))
		(line (pt 82 8)(pt 78 12))
		(line (pt 78 12)(pt 82 8))
	)
)
(pin
	(output)
	(rect 1096 576 1272 592)
	(text "OUTPUT" (rect 1 0 39 10)(font "Arial" (font_size 6)))
	(text "cOUT" (rect 90 0 118 12)(font "Arial" ))
	(pt 0 8)
	(drawing
		(line (pt 0 8)(pt 52 8))
		(line (pt 52 4)(pt 78 4))
		(line (pt 52 12)(pt 78 12))
		(line (pt 52 12)(pt 52 4))
		(line (pt 78 4)(pt 82 8))
		(line (pt 82 8)(pt 78 12))
		(line (pt 78 12)(pt 82 8))
	)
)
(pin
	(output)
	(rect 1136 608 1312 624)
	(text "OUTPUT" (rect 1 0 39 10)(font "Arial" (font_size 6)))
	(text "overflow" (rect 90 0 132 12)(font "Arial" ))
	(pt 0 8)
	(drawing
		(line (pt 0 8)(pt 52 8))
		(line (pt 52 4)(pt 78 4))
		(line (pt 52 12)(pt 78 12))
		(line (pt 52 12)(pt 52 4))
		(line (pt 78 4)(pt 82 8))
		(line (pt 82 8)(pt 78 12))
		(line (pt 78 12)(pt 82 8))
	)
)
(symbol
	(rect 152 32 248 128)
	(text "fullAdder" (rect 5 0 56 14)(font "Arial" (font_size 8)))
	(text "inst" (rect 8 80 25 92)(font "Arial" ))
	(port
		(pt 0 32)
		(input)
		(text "x" (rect 0 0 7 14)(font "Arial" (font_size 8)))
		(text "x" (rect 21 27 28 41)(font "Arial" (font_size 8)))
		(line (pt 0 32)(pt 16 32))
	)
	(port
		(pt 0 48)
		(input)
		(text "y" (rect 0 0 7 14)(font "Arial" (font_size 8)))
		(text "y" (rect 21 43 28 57)(font "Arial" (font_size 8)))
		(line (pt 0 48)(pt 16 48))
	)
	(port
		(pt 0 64)
		(input)
		(text "cIN" (rect 0 0 17 14)(font "Arial" (font_size 8)))
		(text "cIN" (rect 21 59 38 73)(font "Arial" (font_size 8)))
		(line (pt 0 64)(pt 16 64))
	)
	(port
		(pt 96 32)
		(output)
		(text "sum" (rect 0 0 23 14)(font "Arial" (font_size 8)))
		(text "sum" (rect 52 27 75 41)(font "Arial" (font_size 8)))
		(line (pt 96 32)(pt 80 32))
	)
	(port
		(pt 96 48)
		(output)
		(text "cOUT" (rect 0 0 31 14)(font "Arial" (font_size 8)))
		(text "cOUT" (rect 44 43 75 57)(font "Arial" (font_size 8)))
		(line (pt 96 48)(pt 80 48))
	)
	(drawing
		(rectangle (rect 16 16 80 80))
	)
)
(symbol
	(rect 264 104 360 200)
	(text "fullAdder" (rect 5 0 56 14)(font "Arial" (font_size 8)))
	(text "inst1" (rect 8 80 31 92)(font "Arial" ))
	(port
		(pt 0 32)
		(input)
		(text "x" (rect 0 0 7 14)(font "Arial" (font_size 8)))
		(text "x" (rect 21 27 28 41)(font "Arial" (font_size 8)))
		(line (pt 0 32)(pt 16 32))
	)
	(port
		(pt 0 48)
		(input)
		(text "y" (rect 0 0 7 14)(font "Arial" (font_size 8)))
		(text "y" (rect 21 43 28 57)(font "Arial" (font_size 8)))
		(line (pt 0 48)(pt 16 48))
	)
	(port
		(pt 0 64)
		(input)
		(text "cIN" (rect 0 0 17 14)(font "Arial" (font_size 8)))
		(text "cIN" (rect 21 59 38 73)(font "Arial" (font_size 8)))
		(line (pt 0 64)(pt 16 64))
	)
	(port
		(pt 96 32)
		(output)
		(text "sum" (rect 0 0 23 14)(font "Arial" (font_size 8)))
		(text "sum" (rect 52 27 75 41)(font "Arial" (font_size 8)))
		(line (pt 96 32)(pt 80 32))
	)
	(port
		(pt 96 48)
		(output)
		(text "cOUT" (rect 0 0 31 14)(font "Arial" (font_size 8)))
		(text "cOUT" (rect 44 43 75 57)(font "Arial" (font_size 8)))
		(line (pt 96 48)(pt 80 48))
	)
	(drawing
		(rectangle (rect 16 16 80 80))
	)
)
(symbol
	(rect 376 176 472 272)
	(text "fullAdder" (rect 5 0 56 14)(font "Arial" (font_size 8)))
	(text "inst2" (rect 8 80 31 92)(font "Arial" ))
	(port
		(pt 0 32)
		(input)
		(text "x" (rect 0 0 7 14)(font "Arial" (font_size 8)))
		(text "x" (rect 21 27 28 41)(font "Arial" (font_size 8)))
		(line (pt 0 32)(pt 16 32))
	)
	(port
		(pt 0 48)
		(input)
		(text "y" (rect 0 0 7 14)(font "Arial" (font_size 8)))
		(text "y" (rect 21 43 28 57)(font "Arial" (font_size 8)))
		(line (pt 0 48)(pt 16 48))
	)
	(port
		(pt 0 64)
		(input)
		(text "cIN" (rect 0 0 17 14)(font "Arial" (font_size 8)))
		(text "cIN" (rect 21 59 38 73)(font "Arial" (font_size 8)))
		(line (pt 0 64)(pt 16 64))
	)
	(port
		(pt 96 32)
		(output)
		(text "sum" (rect 0 0 23 14)(font "Arial" (font_size 8)))
		(text "sum" (rect 52 27 75 41)(font "Arial" (font_size 8)))
		(line (pt 96 32)(pt 80 32))
	)
	(port
		(pt 96 48)
		(output)
		(text "cOUT" (rect 0 0 31 14)(font "Arial" (font_size 8)))
		(text "cOUT" (rect 44 43 75 57)(font "Arial" (font_size 8)))
		(line (pt 96 48)(pt 80 48))
	)
	(drawing
		(rectangle (rect 16 16 80 80))
	)
)
(symbol
	(rect 488 248 584 344)
	(text "fullAdder" (rect 5 0 56 14)(font "Arial" (font_size 8)))
	(text "inst3" (rect 8 80 31 92)(font "Arial" ))
	(port
		(pt 0 32)
		(input)
		(text "x" (rect 0 0 7 14)(font "Arial" (font_size 8)))
		(text "x" (rect 21 27 28 41)(font "Arial" (font_size 8)))
		(line (pt 0 32)(pt 16 32))
	)
	(port
		(pt 0 48)
		(input)
		(text "y" (rect 0 0 7 14)(font "Arial" (font_size 8)))
		(text "y" (rect 21 43 28 57)(font "Arial" (font_size 8)))
		(line (pt 0 48)(pt 16 48))
	)
	(port
		(pt 0 64)
		(input)
		(text "cIN" (rect 0 0 17 14)(font "Arial" (font_size 8)))
		(text "cIN" (rect 21 59 38 73)(font "Arial" (font_size 8)))
		(line (pt 0 64)(pt 16 64))
	)
	(port
		(pt 96 32)
		(output)
		(text "sum" (rect 0 0 23 14)(font "Arial" (font_size 8)))
		(text "sum" (rect 52 27 75 41)(font "Arial" (font_size 8)))
		(line (pt 96 32)(pt 80 32))
	)
	(port
		(pt 96 48)
		(output)
		(text "cOUT" (rect 0 0 31 14)(font "Arial" (font_size 8)))
		(text "cOUT" (rect 44 43 75 57)(font "Arial" (font_size 8)))
		(line (pt 96 48)(pt 80 48))
	)
	(drawing
		(rectangle (rect 16 16 80 80))
	)
)
(symbol
	(rect 600 320 696 416)
	(text "fullAdder" (rect 5 0 56 14)(font "Arial" (font_size 8)))
	(text "inst4" (rect 8 80 31 92)(font "Arial" ))
	(port
		(pt 0 32)
		(input)
		(text "x" (rect 0 0 7 14)(font "Arial" (font_size 8)))
		(text "x" (rect 21 27 28 41)(font "Arial" (font_size 8)))
		(line (pt 0 32)(pt 16 32))
	)
	(port
		(pt 0 48)
		(input)
		(text "y" (rect 0 0 7 14)(font "Arial" (font_size 8)))
		(text "y" (rect 21 43 28 57)(font "Arial" (font_size 8)))
		(line (pt 0 48)(pt 16 48))
	)
	(port
		(pt 0 64)
		(input)
		(text "cIN" (rect 0 0 17 14)(font "Arial" (font_size 8)))
		(text "cIN" (rect 21 59 38 73)(font "Arial" (font_size 8)))
		(line (pt 0 64)(pt 16 64))
	)
	(port
		(pt 96 32)
		(output)
		(text "sum" (rect 0 0 23 14)(font "Arial" (font_size 8)))
		(text "sum" (rect 52 27 75 41)(font "Arial" (font_size 8)))
		(line (pt 96 32)(pt 80 32))
	)
	(port
		(pt 96 48)
		(output)
		(text "cOUT" (rect 0 0 31 14)(font "Arial" (font_size 8)))
		(text "cOUT" (rect 44 43 75 57)(font "Arial" (font_size 8)))
		(line (pt 96 48)(pt 80 48))
	)
	(drawing
		(rectangle (rect 16 16 80 80))
	)
)
(symbol
	(rect 712 392 808 488)
	(text "fullAdder" (rect 5 0 56 14)(font "Arial" (font_size 8)))
	(text "inst5" (rect 8 80 31 92)(font "Arial" ))
	(port
		(pt 0 32)
		(input)
		(text "x" (rect 0 0 7 14)(font "Arial" (font_size 8)))
		(text "x" (rect 21 27 28 41)(font "Arial" (font_size 8)))
		(line (pt 0 32)(pt 16 32))
	)
	(port
		(pt 0 48)
		(input)
		(text "y" (rect 0 0 7 14)(font "Arial" (font_size 8)))
		(text "y" (rect 21 43 28 57)(font "Arial" (font_size 8)))
		(line (pt 0 48)(pt 16 48))
	)
	(port
		(pt 0 64)
		(input)
		(text "cIN" (rect 0 0 17 14)(font "Arial" (font_size 8)))
		(text "cIN" (rect 21 59 38 73)(font "Arial" (font_size 8)))
		(line (pt 0 64)(pt 16 64))
	)
	(port
		(pt 96 32)
		(output)
		(text "sum" (rect 0 0 23 14)(font "Arial" (font_size 8)))
		(text "sum" (rect 52 27 75 41)(font "Arial" (font_size 8)))
		(line (pt 96 32)(pt 80 32))
	)
	(port
		(pt 96 48)
		(output)
		(text "cOUT" (rect 0 0 31 14)(font "Arial" (font_size 8)))
		(text "cOUT" (rect 44 43 75 57)(font "Arial" (font_size 8)))
		(line (pt 96 48)(pt 80 48))
	)
	(drawing
		(rectangle (rect 16 16 80 80))
	)
)
(symbol
	(rect 824 464 920 560)
	(text "fullAdder" (rect 5 0 56 14)(font "Arial" (font_size 8)))
	(text "inst6" (rect 8 80 31 92)(font "Arial" ))
	(port
		(pt 0 32)
		(input)
		(text "x" (rect 0 0 7 14)(font "Arial" (font_size 8)))
		(text "x" (rect 21 27 28 41)(font "Arial" (font_size 8)))
		(line (pt 0 32)(pt 16 32))
	)
	(port
		(pt 0 48)
		(input)
		(text "y" (rect 0 0 7 14)(font "Arial" (font_size 8)))
		(text "y" (rect 21 43 28 57)(font "Arial" (font_size 8)))
		(line (pt 0 48)(pt 16 48))
	)
	(port
		(pt 0 64)
		(input)
		(text "cIN" (rect 0 0 17 14)(font "Arial" (font_size 8)))
		(text "cIN" (rect 21 59 38 73)(font "Arial" (font_size 8)))
		(line (pt 0 64)(pt 16 64))
	)
	(port
		(pt 96 32)
		(output)
		(text "sum" (rect 0 0 23 14)(font "Arial" (font_size 8)))
		(text "sum" (rect 52 27 75 41)(font "Arial" (font_size 8)))
		(line (pt 96 32)(pt 80 32))
	)
	(port
		(pt 96 48)
		(output)
		(text "cOUT" (rect 0 0 31 14)(font "Arial" (font_size 8)))
		(text "cOUT" (rect 44 43 75 57)(font "Arial" (font_size 8)))
		(line (pt 96 48)(pt 80 48))
	)
	(drawing
		(rectangle (rect 16 16 80 80))
	)
)
(symbol
	(rect 936 536 1032 632)
	(text "fullAdder" (rect 5 0 56 14)(font "Arial" (font_size 8)))
	(text "inst7" (rect 8 80 31 92)(font "Arial" ))
	(port
		(pt 0 32)
		(input)
		(text "x" (rect 0 0 7 14)(font "Arial" (font_size 8)))
		(text "x" (rect 21 27 28 41)(font "Arial" (font_size 8)))
		(line (pt 0 32)(pt 16 32))
	)
	(port
		(pt 0 48)
		(input)
		(text "y" (rect 0 0 7 14)(font "Arial" (font_size 8)))
		(text "y" (rect 21 43 28 57)(font "Arial" (font_size 8)))
		(line (pt 0 48)(pt 16 48))
	)
	(port
		(pt 0 64)
		(input)
		(text "cIN" (rect 0 0 17 14)(font "Arial" (font_size 8)))
		(text "cIN" (rect 21 59 38 73)(font "Arial" (font_size 8)))
		(line (pt 0 64)(pt 16 64))
	)
	(port
		(pt 96 32)
		(output)
		(text "sum" (rect 0 0 23 14)(font "Arial" (font_size 8)))
		(text "sum" (rect 52 27 75 41)(font "Arial" (font_size 8)))
		(line (pt 96 32)(pt 80 32))
	)
	(port
		(pt 96 48)
		(output)
		(text "cOUT" (rect 0 0 31 14)(font "Arial" (font_size 8)))
		(text "cOUT" (rect 44 43 75 57)(font "Arial" (font_size 8)))
		(line (pt 96 48)(pt 80 48))
	)
	(drawing
		(rectangle (rect 16 16 80 80))
	)
)
(symbol
	(rect 1072 592 1136 640)
	(text "XOR" (rect 1 0 21 10)(font "Arial" (font_size 6)))
	(text "inst9" (rect 3 37 26 49)(font "Arial" ))
	(port
		(pt 0 16)
		(input)
		(text "IN1" (rect 2 7 19 19)(font "Courier New" (bold))(invisible))
		(text "IN1" (rect 2 7 19 19)(font "Courier New" (bold))(invisible))
		(line (pt 0 16)(pt 11 16))
	)
	(port
		(pt 0 32)
		(input)
		(text "IN2" (rect 2 23 19 35)(font "Courier New" (bold))(invisible))
		(text "IN2" (rect 2 23 19 35)(font "Courier New" (bold))(invisible))
		(line (pt 0 32)(pt 11 32))
	)
	(port
		(pt 64 24)
		(output)
		(text "OUT" (rect 48 15 65 27)(font "Courier New" (bold))(invisible))
		(text "OUT" (rect 48 15 65 27)(font "Courier New" (bold))(invisible))
		(line (pt 49 24)(pt 64 24))
	)
	(drawing
		(line (pt 14 13)(pt 25 13))
		(line (pt 14 36)(pt 25 36))
		(arc (pt 7 29)(pt 7 19)(rect -14 8 19 41))
		(arc (pt 49 24)(pt 25 13)(rect -6 13 57 76))
		(arc (pt 25 35)(pt 49 24)(rect -6 -27 57 36))
		(arc (pt 8 36)(pt 8 12)(rect -21 7 14 42))
	)
)
(connector
	(pt 248 80)
	(pt 256 80)
)
(connector
	(pt 256 80)
	(pt 256 168)
)
(connector
	(pt 264 168)
	(pt 256 168)
)
(connector
	(pt 376 240)
	(pt 368 240)
)
(connector
	(pt 368 240)
	(pt 368 152)
)
(connector
	(pt 360 152)
	(pt 368 152)
)
(connector
	(pt 472 224)
	(pt 480 224)
)
(connector
	(pt 480 224)
	(pt 480 312)
)
(connector
	(pt 480 312)
	(pt 488 312)
)
(connector
	(pt 584 296)
	(pt 592 296)
)
(connector
	(pt 592 296)
	(pt 592 384)
)
(connector
	(pt 592 384)
	(pt 600 384)
)
(connector
	(pt 696 368)
	(pt 704 368)
)
(connector
	(pt 704 368)
	(pt 704 456)
)
(connector
	(pt 704 456)
	(pt 712 456)
)
(connector
	(pt 808 440)
	(pt 816 440)
)
(connector
	(pt 816 440)
	(pt 816 528)
)
(connector
	(pt 816 528)
	(pt 824 528)
)
(connector
	(pt 928 600)
	(pt 936 600)
)
(connector
	(pt 1040 496)
	(pt 920 496)
)
(connector
	(pt 1048 424)
	(pt 808 424)
)
(connector
	(pt 696 352)
	(pt 1056 352)
)
(connector
	(pt 1064 280)
	(pt 584 280)
)
(connector
	(pt 472 208)
	(pt 1072 208)
)
(connector
	(pt 1080 136)
	(pt 360 136)
)
(connector
	(pt 248 64)
	(pt 1088 64)
)
(connector
	(pt 1040 552)
	(pt 1096 552)
)
(connector
	(pt 1040 496)
	(pt 1040 552)
)
(connector
	(pt 1048 536)
	(pt 1096 536)
)
(connector
	(pt 1048 424)
	(pt 1048 536)
)
(connector
	(pt 1056 352)
	(pt 1056 520)
)
(connector
	(pt 1056 520)
	(pt 1096 520)
)
(connector
	(pt 1064 504)
	(pt 1096 504)
)
(connector
	(pt 1064 280)
	(pt 1064 504)
)
(connector
	(pt 1072 208)
	(pt 1072 488)
)
(connector
	(pt 1072 488)
	(pt 1096 488)
)
(connector
	(pt 1080 472)
	(pt 1096 472)
)
(connector
	(pt 1080 136)
	(pt 1080 472)
)
(connector
	(pt 1088 64)
	(pt 1088 456)
)
(connector
	(pt 1088 456)
	(pt 1096 456)
)
(connector
	(pt 168 368)
	(pt 600 368)
)
(connector
	(pt 144 96)
	(pt 152 96)
)
(connector
	(pt 152 152)
	(pt 264 152)
)
(connector
	(pt 80 80)
	(pt 80 136)
)
(connector
	(pt 264 136)
	(pt 80 136)
)
(connector
	(pt 144 96)
	(pt 144 408)
)
(connector
	(pt 88 80)
	(pt 88 248)
)
(connector
	(pt 152 80)
	(pt 88 80)
)
(connector
	(pt 152 152)
	(pt 152 264)
)
(connector
	(pt 64 64)
	(pt 152 64)
)
(connector
	(pt 64 80)
	(pt 80 80)
)
(connector
	(pt 64 248)
	(pt 88 248)
)
(connector
	(pt 64 264)
	(pt 152 264)
)
(connector
	(pt 64 408)
	(pt 144 408)
)
(connector
	(pt 64 96)
	(pt 96 96)
)
(connector
	(pt 96 96)
	(pt 96 208)
)
(connector
	(pt 96 208)
	(pt 376 208)
)
(connector
	(pt 64 112)
	(pt 104 112)
)
(connector
	(pt 104 112)
	(pt 104 280)
)
(connector
	(pt 104 280)
	(pt 488 280)
)
(connector
	(pt 64 128)
	(pt 112 128)
)
(connector
	(pt 112 128)
	(pt 112 352)
)
(connector
	(pt 112 352)
	(pt 600 352)
)
(connector
	(pt 64 144)
	(pt 120 144)
)
(connector
	(pt 120 144)
	(pt 120 424)
)
(connector
	(pt 120 424)
	(pt 712 424)
)
(connector
	(pt 64 160)
	(pt 128 160)
)
(connector
	(pt 128 160)
	(pt 128 496)
)
(connector
	(pt 128 496)
	(pt 824 496)
)
(connector
	(pt 64 176)
	(pt 136 176)
)
(connector
	(pt 136 176)
	(pt 136 568)
)
(connector
	(pt 136 568)
	(pt 936 568)
)
(connector
	(pt 64 280)
	(pt 80 280)
)
(connector
	(pt 80 224)
	(pt 80 280)
)
(connector
	(pt 80 224)
	(pt 376 224)
)
(connector
	(pt 64 296)
	(pt 488 296)
)
(connector
	(pt 64 312)
	(pt 168 312)
)
(connector
	(pt 168 312)
	(pt 168 368)
)
(connector
	(pt 64 328)
	(pt 160 328)
)
(connector
	(pt 160 328)
	(pt 160 440)
)
(connector
	(pt 160 440)
	(pt 712 440)
)
(connector
	(pt 64 344)
	(pt 152 344)
)
(connector
	(pt 152 344)
	(pt 152 512)
)
(connector
	(pt 152 512)
	(pt 824 512)
)
(connector
	(pt 104 584)
	(pt 936 584)
)
(connector
	(pt 104 584)
	(pt 104 360)
)
(connector
	(pt 104 360)
	(pt 64 360)
)
(connector
	(pt 1032 568)
	(pt 1096 568)
)
(connector
	(pt 1072 608)
	(pt 1064 608)
)
(connector
	(pt 1064 608)
	(pt 1064 512)
)
(connector
	(pt 928 512)
	(pt 928 600)
)
(connector
	(pt 920 512)
	(pt 928 512)
)
(connector
	(pt 928 512)
	(pt 1064 512)
)
(connector
	(pt 1056 584)
	(pt 1056 624)
)
(connector
	(pt 1072 624)
	(pt 1056 624)
)
(connector
	(pt 1032 584)
	(pt 1056 584)
)
(connector
	(pt 1056 584)
	(pt 1096 584)
)
(junction (pt 928 512))
(junction (pt 1056 584))
