/*
WARNING: Do NOT edit the input and output ports in this file in a text
editor if you plan to continue editing the block that represents it in
the Block Editor! File corruption is VERY likely to occur.
*/
/*
Copyright (C) 1991-2010 Altera Corporation
Your use of Altera Corporation's design tools, logic functions 
and other software and tools, and its AMPP partner logic 
functions, and any output files from any of the foregoing 
(including device programming or simulation files), and any 
associated documentation or information are expressly subject 
to the terms and conditions of the Altera Program License 
Subscription Agreement, Altera MegaCore Function License 
Agreement, or other applicable license agreement, including, 
without limitation, that your use is for the sole purpose of 
programming logic devices manufactured by Altera and sold by 
Altera or its authorized distributors.  Please refer to the 
applicable agreement for further details.
*/
//#pragma file_not_in_maxplusii_format
(header "graphic" (version "1.3"))
(pin
	(input)
	(rect 224 240 392 256)
	(text "INPUT" (rect 133 0 161 10)(font "Arial" (font_size 6)))
	(text "JeanA" (rect 5 0 35 12)(font "Arial" ))
	(pt 168 8)
	(drawing
		(line (pt 92 12)(pt 117 12)(line_width 1))
		(line (pt 92 4)(pt 117 4)(line_width 1))
		(line (pt 121 8)(pt 168 8)(line_width 1))
		(line (pt 92 12)(pt 92 4)(line_width 1))
		(line (pt 117 4)(pt 121 8)(line_width 1))
		(line (pt 117 12)(pt 121 8)(line_width 1))
	)
	(text "VCC" (rect 136 7 156 17)(font "Arial" (font_size 6)))
)
(pin
	(input)
	(rect 224 256 392 272)
	(text "INPUT" (rect 133 0 161 10)(font "Arial" (font_size 6)))
	(text "JeanB" (rect 5 0 35 12)(font "Arial" ))
	(pt 168 8)
	(drawing
		(line (pt 92 12)(pt 117 12)(line_width 1))
		(line (pt 92 4)(pt 117 4)(line_width 1))
		(line (pt 121 8)(pt 168 8)(line_width 1))
		(line (pt 92 12)(pt 92 4)(line_width 1))
		(line (pt 117 4)(pt 121 8)(line_width 1))
		(line (pt 117 12)(pt 121 8)(line_width 1))
	)
	(text "VCC" (rect 136 7 156 17)(font "Arial" (font_size 6)))
)
(pin
	(input)
	(rect 224 272 392 288)
	(text "INPUT" (rect 133 0 161 10)(font "Arial" (font_size 6)))
	(text "JeanC" (rect 5 0 36 12)(font "Arial" ))
	(pt 168 8)
	(drawing
		(line (pt 92 12)(pt 117 12)(line_width 1))
		(line (pt 92 4)(pt 117 4)(line_width 1))
		(line (pt 121 8)(pt 168 8)(line_width 1))
		(line (pt 92 12)(pt 92 4)(line_width 1))
		(line (pt 117 4)(pt 121 8)(line_width 1))
		(line (pt 117 12)(pt 121 8)(line_width 1))
	)
	(text "VCC" (rect 136 7 156 17)(font "Arial" (font_size 6)))
)
(pin
	(input)
	(rect 224 288 392 304)
	(text "INPUT" (rect 133 0 161 10)(font "Arial" (font_size 6)))
	(text "JeanD" (rect 5 0 36 12)(font "Arial" ))
	(pt 168 8)
	(drawing
		(line (pt 92 12)(pt 117 12)(line_width 1))
		(line (pt 92 4)(pt 117 4)(line_width 1))
		(line (pt 121 8)(pt 168 8)(line_width 1))
		(line (pt 92 12)(pt 92 4)(line_width 1))
		(line (pt 117 4)(pt 121 8)(line_width 1))
		(line (pt 117 12)(pt 121 8)(line_width 1))
	)
	(text "VCC" (rect 136 7 156 17)(font "Arial" (font_size 6)))
)
(pin
	(output)
	(rect 704 240 880 256)
	(text "OUTPUT" (rect 1 0 39 10)(font "Arial" (font_size 6)))
	(text "JeanOut" (rect 90 0 131 12)(font "Arial" ))
	(pt 0 8)
	(drawing
		(line (pt 0 8)(pt 52 8)(line_width 1))
		(line (pt 52 4)(pt 78 4)(line_width 1))
		(line (pt 52 12)(pt 78 12)(line_width 1))
		(line (pt 52 12)(pt 52 4)(line_width 1))
		(line (pt 78 4)(pt 82 8)(line_width 1))
		(line (pt 82 8)(pt 78 12)(line_width 1))
		(line (pt 78 12)(pt 82 8)(line_width 1))
	)
)
(symbol
	(rect 432 216 616 344)
	(text "BasicTutorial" (rect 5 0 78 14)(font "Arial" (font_size 8)))
	(text "JeanBT" (rect 8 112 44 124)(font "Arial" ))
	(port
		(pt 0 32)
		(input)
		(text "JeanInputA" (rect 0 0 63 14)(font "Arial" (font_size 8)))
		(text "JeanInputA" (rect 21 27 84 41)(font "Arial" (font_size 8)))
		(line (pt 0 32)(pt 16 32)(line_width 1))
	)
	(port
		(pt 0 48)
		(input)
		(text "JeanInputB" (rect 0 0 62 14)(font "Arial" (font_size 8)))
		(text "JeanInputB" (rect 21 43 83 57)(font "Arial" (font_size 8)))
		(line (pt 0 48)(pt 16 48)(line_width 1))
	)
	(port
		(pt 0 64)
		(input)
		(text "JeanInputC" (rect 0 0 62 14)(font "Arial" (font_size 8)))
		(text "JeanInputC" (rect 21 59 83 73)(font "Arial" (font_size 8)))
		(line (pt 0 64)(pt 16 64)(line_width 1))
	)
	(port
		(pt 0 80)
		(input)
		(text "JeanInputD" (rect 0 0 62 14)(font "Arial" (font_size 8)))
		(text "JeanInputD" (rect 21 75 83 89)(font "Arial" (font_size 8)))
		(line (pt 0 80)(pt 16 80)(line_width 1))
	)
	(port
		(pt 184 32)
		(output)
		(text "JeanOutput" (rect 0 0 64 14)(font "Arial" (font_size 8)))
		(text "JeanOutput" (rect 99 27 163 41)(font "Arial" (font_size 8)))
		(line (pt 184 32)(pt 168 32)(line_width 1))
	)
	(drawing
		(rectangle (rect 16 16 168 112)(line_width 1))
	)
)
(connector
	(pt 392 248)
	(pt 432 248)
)
(connector
	(pt 432 264)
	(pt 392 264)
)
(connector
	(pt 432 280)
	(pt 392 280)
)
(connector
	(pt 432 296)
	(pt 392 296)
)
(connector
	(pt 616 248)
	(pt 704 248)
)
