/*
WARNING: Do NOT edit the input and output ports in this file in a text
editor if you plan to continue editing the block that represents it in
the Block Editor! File corruption is VERY likely to occur.
*/
/*
Copyright (C) 1991-2013 Altera Corporation
Your use of Altera Corporation's design tools, logic functions 
and other software and tools, and its AMPP partner logic 
functions, and any output files from any of the foregoing 
(including device programming or simulation files), and any 
associated documentation or information are expressly subject 
to the terms and conditions of the Altera Program License 
Subscription Agreement, Altera MegaCore Function License 
Agreement, or other applicable license agreement, including, 
without limitation, that your use is for the sole purpose of 
programming logic devices manufactured by Altera and sold by 
Altera or its authorized distributors.  Please refer to the 
applicable agreement for further details.
*/
(header "graphic" (version "1.4"))
(pin
	(input)
	(rect 32 32 200 48)
	(text "INPUT" (rect 125 0 153 10)(font "Arial" (font_size 6)))
	(text "x3" (rect 5 0 16 12)(font "Arial" ))
	(pt 168 8)
	(drawing
		(line (pt 84 12)(pt 109 12))
		(line (pt 84 4)(pt 109 4))
		(line (pt 113 8)(pt 168 8))
		(line (pt 84 12)(pt 84 4))
		(line (pt 109 4)(pt 113 8))
		(line (pt 109 12)(pt 113 8))
	)
	(text "VCC" (rect 128 7 148 17)(font "Arial" (font_size 6)))
	(annotation_block (location)(rect -32 48 32 64))
)
(pin
	(input)
	(rect 24 88 192 104)
	(text "INPUT" (rect 125 0 153 10)(font "Arial" (font_size 6)))
	(text "x2" (rect 5 0 16 12)(font "Arial" ))
	(pt 168 8)
	(drawing
		(line (pt 84 12)(pt 109 12))
		(line (pt 84 4)(pt 109 4))
		(line (pt 113 8)(pt 168 8))
		(line (pt 84 12)(pt 84 4))
		(line (pt 109 4)(pt 113 8))
		(line (pt 109 12)(pt 113 8))
	)
	(text "VCC" (rect 128 7 148 17)(font "Arial" (font_size 6)))
	(annotation_block (location)(rect -32 104 24 120))
)
(pin
	(input)
	(rect 24 128 192 144)
	(text "INPUT" (rect 125 0 153 10)(font "Arial" (font_size 6)))
	(text "x1" (rect 5 0 16 12)(font "Arial" ))
	(pt 168 8)
	(drawing
		(line (pt 84 12)(pt 109 12))
		(line (pt 84 4)(pt 109 4))
		(line (pt 113 8)(pt 168 8))
		(line (pt 84 12)(pt 84 4))
		(line (pt 109 4)(pt 113 8))
		(line (pt 109 12)(pt 113 8))
	)
	(text "VCC" (rect 128 7 148 17)(font "Arial" (font_size 6)))
	(annotation_block (location)(rect -32 144 24 160))
)
(pin
	(input)
	(rect 24 168 192 184)
	(text "INPUT" (rect 125 0 153 10)(font "Arial" (font_size 6)))
	(text "x0" (rect 5 0 16 12)(font "Arial" ))
	(pt 168 8)
	(drawing
		(line (pt 84 12)(pt 109 12))
		(line (pt 84 4)(pt 109 4))
		(line (pt 113 8)(pt 168 8))
		(line (pt 84 12)(pt 84 4))
		(line (pt 109 4)(pt 113 8))
		(line (pt 109 12)(pt 113 8))
	)
	(text "VCC" (rect 128 7 148 17)(font "Arial" (font_size 6)))
	(annotation_block (location)(rect -32 184 24 200))
)
(pin
	(output)
	(rect 560 104 736 120)
	(text "OUTPUT" (rect 1 0 39 10)(font "Arial" (font_size 6)))
	(text "o" (rect 90 0 95 12)(font "Arial" ))
	(pt 0 8)
	(drawing
		(line (pt 0 8)(pt 52 8))
		(line (pt 52 4)(pt 78 4))
		(line (pt 52 12)(pt 78 12))
		(line (pt 52 12)(pt 52 4))
		(line (pt 78 4)(pt 82 8))
		(line (pt 82 8)(pt 78 12))
		(line (pt 78 12)(pt 82 8))
	)
	(annotation_block (location)(rect 736 120 800 136))
)
(symbol
	(rect 240 48 288 80)
	(text "NOT" (rect 1 0 21 10)(font "Arial" (font_size 6)))
	(text "n3" (rect 3 21 14 33)(font "Arial" ))
	(port
		(pt 0 16)
		(input)
		(text "IN" (rect 2 7 13 19)(font "Courier New" (bold))(invisible))
		(text "IN" (rect 2 7 13 19)(font "Courier New" (bold))(invisible))
		(line (pt 0 16)(pt 13 16))
	)
	(port
		(pt 48 16)
		(output)
		(text "OUT" (rect 32 7 49 19)(font "Courier New" (bold))(invisible))
		(text "OUT" (rect 32 7 49 19)(font "Courier New" (bold))(invisible))
		(line (pt 39 16)(pt 48 16))
	)
	(drawing
		(line (pt 13 25)(pt 13 7))
		(line (pt 13 7)(pt 31 16))
		(line (pt 13 25)(pt 31 16))
		(circle (rect 31 12 39 20))
	)
)
(symbol
	(rect 240 80 288 112)
	(text "NOT" (rect 1 0 21 10)(font "Arial" (font_size 6)))
	(text "n2" (rect 3 21 14 33)(font "Arial" ))
	(port
		(pt 0 16)
		(input)
		(text "IN" (rect 2 7 13 19)(font "Courier New" (bold))(invisible))
		(text "IN" (rect 2 7 13 19)(font "Courier New" (bold))(invisible))
		(line (pt 0 16)(pt 13 16))
	)
	(port
		(pt 48 16)
		(output)
		(text "OUT" (rect 32 7 49 19)(font "Courier New" (bold))(invisible))
		(text "OUT" (rect 32 7 49 19)(font "Courier New" (bold))(invisible))
		(line (pt 39 16)(pt 48 16))
	)
	(drawing
		(line (pt 13 25)(pt 13 7))
		(line (pt 13 7)(pt 31 16))
		(line (pt 13 25)(pt 31 16))
		(circle (rect 31 12 39 20))
	)
)
(symbol
	(rect 480 88 544 136)
	(text "OR2" (rect 1 0 19 10)(font "Arial" (font_size 6)))
	(text "or" (rect 3 37 12 49)(font "Arial" ))
	(port
		(pt 0 32)
		(input)
		(text "IN2" (rect 2 23 19 35)(font "Courier New" (bold))(invisible))
		(text "IN2" (rect 2 23 19 35)(font "Courier New" (bold))(invisible))
		(line (pt 0 32)(pt 15 32))
	)
	(port
		(pt 0 16)
		(input)
		(text "IN1" (rect 2 7 19 19)(font "Courier New" (bold))(invisible))
		(text "IN1" (rect 2 7 19 19)(font "Courier New" (bold))(invisible))
		(line (pt 0 16)(pt 15 16))
	)
	(port
		(pt 64 24)
		(output)
		(text "OUT" (rect 48 15 65 27)(font "Courier New" (bold))(invisible))
		(text "OUT" (rect 48 15 65 27)(font "Courier New" (bold))(invisible))
		(line (pt 48 24)(pt 64 24))
	)
	(drawing
		(line (pt 14 36)(pt 25 36))
		(line (pt 14 13)(pt 25 13))
		(arc (pt 7 29)(pt 7 19)(rect -14 8 19 41))
		(arc (pt 49 24)(pt 25 13)(rect -6 13 57 76))
		(arc (pt 25 35)(pt 49 24)(rect -6 -27 57 36))
	)
)
(symbol
	(rect 400 64 464 112)
	(text "AND3" (rect 1 0 25 10)(font "Arial" (font_size 6)))
	(text "n3n2n0" (rect 3 37 38 49)(font "Arial" ))
	(port
		(pt 0 16)
		(input)
		(text "IN1" (rect 2 7 19 19)(font "Courier New" (bold))(invisible))
		(text "IN1" (rect 2 7 19 19)(font "Courier New" (bold))(invisible))
		(line (pt 0 16)(pt 16 16))
	)
	(port
		(pt 0 24)
		(input)
		(text "IN2" (rect 2 15 19 27)(font "Courier New" (bold))(invisible))
		(text "IN2" (rect 2 15 19 27)(font "Courier New" (bold))(invisible))
		(line (pt 0 24)(pt 16 24))
	)
	(port
		(pt 0 32)
		(input)
		(text "IN3" (rect 2 23 19 35)(font "Courier New" (bold))(invisible))
		(text "IN3" (rect 2 23 19 35)(font "Courier New" (bold))(invisible))
		(line (pt 0 32)(pt 16 32))
	)
	(port
		(pt 64 24)
		(output)
		(text "OUT" (rect 48 15 65 27)(font "Courier New" (bold))(invisible))
		(text "OUT" (rect 48 15 65 27)(font "Courier New" (bold))(invisible))
		(line (pt 43 24)(pt 64 24))
	)
	(drawing
		(line (pt 16 12)(pt 31 12))
		(line (pt 16 37)(pt 31 37))
		(line (pt 16 12)(pt 16 37))
		(arc (pt 31 36)(pt 31 12)(rect 19 12 44 37))
	)
)
(symbol
	(rect 400 112 464 192)
	(text "AND4" (rect 1 0 25 10)(font "Arial" (font_size 6)))
	(text "x3n2x1n0" (rect 3 69 50 81)(font "Arial" ))
	(port
		(pt 0 16)
		(input)
		(text "IN1" (rect 2 7 19 19)(font "Courier New" (bold))(invisible))
		(text "IN1" (rect 2 7 19 19)(font "Courier New" (bold))(invisible))
		(line (pt 0 16)(pt 18 16))
	)
	(port
		(pt 0 32)
		(input)
		(text "IN2" (rect 2 23 19 35)(font "Courier New" (bold))(invisible))
		(text "IN2" (rect 2 23 19 35)(font "Courier New" (bold))(invisible))
		(line (pt 0 32)(pt 18 32))
	)
	(port
		(pt 0 48)
		(input)
		(text "IN3" (rect 2 39 19 51)(font "Courier New" (bold))(invisible))
		(text "IN3" (rect 2 39 19 51)(font "Courier New" (bold))(invisible))
		(line (pt 0 48)(pt 18 48))
	)
	(port
		(pt 0 64)
		(input)
		(text "IN4" (rect 2 55 19 67)(font "Courier New" (bold))(invisible))
		(text "IN4" (rect 2 55 19 67)(font "Courier New" (bold))(invisible))
		(line (pt 0 64)(pt 18 64))
	)
	(port
		(pt 64 40)
		(output)
		(text "OUT" (rect 48 31 65 43)(font "Courier New" (bold))(invisible))
		(text "OUT" (rect 48 31 65 43)(font "Courier New" (bold))(invisible))
		(line (pt 46 40)(pt 64 40))
	)
	(drawing
		(line (pt 18 28)(pt 34 28))
		(line (pt 18 52)(pt 18 28))
		(line (pt 18 67)(pt 18 13))
		(line (pt 34 53)(pt 18 53))
		(arc (pt 34 52)(pt 34 28)(rect 22 28 47 53))
	)
)
(symbol
	(rect 272 160 320 192)
	(text "NOT" (rect 1 0 21 10)(font "Arial" (font_size 6)))
	(text "n0" (rect 3 21 14 33)(font "Arial" ))
	(port
		(pt 0 16)
		(input)
		(text "IN" (rect 2 7 13 19)(font "Courier New" (bold))(invisible))
		(text "IN" (rect 2 7 13 19)(font "Courier New" (bold))(invisible))
		(line (pt 0 16)(pt 13 16))
	)
	(port
		(pt 48 16)
		(output)
		(text "OUT" (rect 32 7 49 19)(font "Courier New" (bold))(invisible))
		(text "OUT" (rect 32 7 49 19)(font "Courier New" (bold))(invisible))
		(line (pt 39 16)(pt 48 16))
	)
	(drawing
		(line (pt 13 25)(pt 13 7))
		(line (pt 13 7)(pt 31 16))
		(line (pt 13 25)(pt 31 16))
		(circle (rect 31 12 39 20))
	)
)
(connector
	(pt 544 112)
	(pt 560 112)
)
(connector
	(pt 480 120)
	(pt 472 120)
)
(connector
	(pt 480 104)
	(pt 472 104)
)
(connector
	(pt 472 104)
	(pt 472 88)
)
(connector
	(pt 472 88)
	(pt 464 88)
)
(connector
	(pt 472 152)
	(pt 472 120)
)
(connector
	(pt 472 152)
	(pt 464 152)
)
(connector
	(pt 232 64)
	(pt 232 40)
)
(connector
	(pt 240 64)
	(pt 232 64)
)
(connector
	(pt 192 96)
	(pt 240 96)
)
(connector
	(pt 392 64)
	(pt 288 64)
)
(connector
	(pt 400 80)
	(pt 392 80)
)
(connector
	(pt 392 64)
	(pt 392 80)
)
(connector
	(pt 376 40)
	(pt 376 128)
)
(connector
	(pt 200 40)
	(pt 232 40)
)
(connector
	(pt 232 40)
	(pt 376 40)
)
(connector
	(pt 376 128)
	(pt 400 128)
)
(connector
	(pt 360 96)
	(pt 288 96)
)
(connector
	(pt 360 88)
	(pt 360 96)
)
(connector
	(pt 368 96)
	(pt 400 96)
)
(connector
	(pt 400 144)
	(pt 384 144)
)
(connector
	(pt 384 144)
	(pt 384 88)
)
(connector
	(pt 360 88)
	(pt 384 88)
)
(connector
	(pt 384 88)
	(pt 400 88)
)
(connector
	(pt 352 136)
	(pt 192 136)
)
(connector
	(pt 352 160)
	(pt 352 136)
)
(connector
	(pt 352 160)
	(pt 400 160)
)
(connector
	(pt 368 96)
	(pt 368 176)
)
(connector
	(pt 272 176)
	(pt 192 176)
)
(connector
	(pt 320 176)
	(pt 368 176)
)
(connector
	(pt 368 176)
	(pt 400 176)
)
(junction (pt 232 40))
(junction (pt 384 88))
(junction (pt 368 176))
